%!PS-Adobe-3.0 EPSF-3.0
%%Creator: gEDA gschem 1.6.1-20100214-22-ga30f00b
%%CreationDate: Wed Oct 22 16:33:51 2014
%%Title: /home/freaktm/mojo/mojo-schematics/mojo_6.sch
%%Author: freaktm
%%BoundingBox: 0 0 1677 1188
%%Orientation: Portrait
%%Pages: 1
%%Endcomments
%%BeginProlog
% Prolog for gEDA, define all the functions needed for rendering
% schematics on Postscript devices


% Draw a line from the second coordinate to the first
% x2 y2 x1 y1 width line -
/line {
    setlinewidth
    % pop off first element and moveto
    moveto
    % pop off remaining elements and draw a line segment
    lineto
    % draw it
    stroke
} bind def


% Draw a dot
% x y r dot -
/dot {
    0 360 arc fill
} bind def

% Draw a dot-dashed line, a bunch of lined segments,
% if the array element only has length two, draw a dot.
% [ [x2 y2 x1 y1] [x4 y4 x3 y3] [x5 y5] ... ] width dashed -
/width 0 def
/dashed {
    dup 2.0 div /width exch def
    setlinewidth
    % pop off each line segment and draw it as a dot or as a line
    {
	aload length 2 gt
	{ moveto lineto stroke}
	{ width dot } ifelse
    } forall
} bind def

% Draw an arc segment
% x y r ang1 ang2 width darc -
/darc {
    setlinewidth
    arc stroke
} bind def

% Draw a series of arc segment bits, if the array element only has a single
% element in it, draw a dot.
% [ [sa1 ea1] [sa2 ea2] ... ] x y r width dashedarc -
/x 0 def
/y 0 def
/dashedarc {
    dup /width exch def
    setlinewidth
    /r exch def  
    /y exch def
    /x exch def
    { aload length 1 gt
	{
	    % this element had two angles in it
	    % extract start and stop angles
	    x y r   % drop x y and r onto stack
		    % at this point we have: sa ea x y r
		    % we need                      x y r sa ea
		    % so..
	    5 -2 roll
	    % and add it to the current path, and draw it
	    arc stroke
	} {
	    % this element only had one angle in it, place a
	    % filled dot at the appropriate place
	    % compute center point of the arc using the angle
	    % that is on the top of the stack
	    dup   		% angle angle
	    cos r mul x add 	% angle x
	    exch		% x angle
	    sin r mul y add	% x y
	    width		% x y width/2
	    dot			% draw the dot
	} ifelse
    } forall

    % Now draw it
    stroke
} bind def

% Draw a box
% width height x y linethickness box -
/box {
    setlinewidth
    moveto
    exch dup 0 rlineto	 % w h, h w w 0      -- Draw bottom line
    exch 0 exch rlineto	 % h w, w h 0, w 0 h -- Draw right line 
    neg 0 rlineto	 % w, -w 0           -- Draw Top line
    closepath		 % finish and draw it
    stroke
} bind def			     

% Draw a filled box
% width height x y fbox -
/fbox {
    moveto
    exch dup 0 rlineto	
    exch 0 exch rlineto	
    neg 0 rlineto		
    closepath			
    fill			
} bind def

% Font reincoding utilities

% ISOLatin1Encoding, extended with remaining uncoded glyphs
/ISOLatin1Extended [
    /.notdef /Lslash /lslash /OE /oe /Scaron /scaron /Zcaron /zcaron
    /Ydieresis /trademark /bullet /dagger /daggerdbl /ellipsis /emdash
    /endash /fi /fl /florin /fraction /guilsinglleft /guilsinglright
    /perthousand /quotedblbase /quotedblleft /quotedblright
    /quotesinglbase /quotesingle /.notdef /.notdef /.notdef /space
    /exclam /quotedbl /numbersign /dollar /percent /ampersand
    /quoteright /parenleft /parenright /asterisk /plus /comma /minus
    /period /slash /zero /one /two /three /four /five /six /seven /eight
    /nine /colon /semicolon /less /equal /greater /question /at /A /B /C
    /D /E /F /G /H /I /J /K /L /M /N /O /P /Q /R /S /T /U /V /W /X /Y /Z
    /bracketleft /backslash /bracketright /asciicircum /underscore
    /quoteleft /a /b /c /d /e /f /g /h /i /j /k /l /m /n /o /p /q /r /s
    /t /u /v /w /x /y /z /braceleft /bar /braceright /asciitilde
    /.notdef /.notdef /.notdef /.notdef /.notdef /.notdef /.notdef
    /.notdef /.notdef /.notdef /.notdef /.notdef /.notdef /.notdef
    /.notdef /.notdef /.notdef /dotlessi /grave /acute /circumflex
    /tilde /macron /breve /dotaccent /dieresis /.notdef /ring /cedilla
    /.notdef /hungarumlaut /ogonek /caron /space /exclamdown /cent
    /sterling /currency /yen /brokenbar /section /dieresis /copyright
    /ordfeminine /guillemotleft /logicalnot /hyphen /registered /macron
    /degree /plusminus /twosuperior /threesuperior /acute /mu /paragraph
    /periodcentered /cedilla /onesuperior /ordmasculine /guillemotright
    /onequarter /onehalf /threequarters /questiondown /Agrave /Aacute
    /Acircumflex /Atilde /Adieresis /Aring /AE /Ccedilla /Egrave /Eacute
    /Ecircumflex /Edieresis /Igrave /Iacute /Icircumflex /Idieresis /Eth
    /Ntilde /Ograve /Oacute /Ocircumflex /Otilde /Odieresis /multiply
    /Oslash /Ugrave /Uacute /Ucircumflex /Udieresis /Yacute /Thorn
    /germandbls /agrave /aacute /acircumflex /atilde /adieresis /aring
    /ae /ccedilla /egrave /eacute /ecircumflex /edieresis /igrave
    /iacute /icircumflex /idieresis /eth /ntilde /ograve /oacute
    /ocircumflex /otilde /odieresis /divide /oslash /ugrave /uacute
    /ucircumflex /udieresis /yacute /thorn /ydieresis
] def

% `new-font-name' `encoding-vector' `old-font-name' RE -
/RE {
    findfont
    dup maxlength dict begin {
        1 index /FID ne { def } { pop pop } ifelse
    } forall
    /Encoding exch def
    dup /FontName exch def
    currentdict end definefont pop
} bind def

% Text handling functions, select the font and scale it, then we need
% only to apply the appropriate transformations to get the text
% justified into the right spots.  The bad thing here is that we don't
% do any kerning, so the output may look a bit strange.

% compute the height of one character and return lly and ury
% (char) charheight lly ury
/charheight {
    gsave			% push graphics state
	newpath			% clear current path
	0 0 moveto		% Set current point
	false charpath		% get path
	flattenpath		% flatten path
	pathbbox		% stack = llx lly urx ury
	exch pop		% stack = llx lly ury
	3 -1 roll pop		% stack = lly ury
    grestore			% pop graphics state
} bind def

% compute the height of a string, one character at a time
% (string) stringheight lly ury
/lly 0.0 def
/ury 0.0 def

/stringheight {
    /lly 0.0 def			% initial value of heightmin
    /ury 0.0 def			% initial value of heightmax
    {				% work through string
	( ) dup 0 4 -1 roll put	% create one character string
	charheight		% measure it's height
	dup ury gt {		% if ury gt heightmax
	    /ury exch def	% update with new value
	} {
	    pop			% else discard ury
	} ifelse
	dup lly lt {		% if lly lt heightmin
	    /lly exch def	% update with new value
	} {
	    pop			% else discard lly
	} ifelse
    } forall
    lly ury			% Return the results
} bind def

% calculate the string width taking into account the escapes.
/mystrx 0.0 def
/mystry 0.0 def
/mystresc false def

/mystringwidth {
    /mystrx 0.0 def
    /mystry 0.0 def
    /mystresc false def
    {				% work through string
	% did we process the escape character last?
	mystresc {
	    % last character was escape
	    % handle the escape
	    % is it an _ = 95?
	    dup 95 eq {
		pop  % we don't need the character anymore
		% toggle drawing overbars
		0.0 0.0 % make it like it never happened...
	    } {
		% otherwise measure the character 
		(\\ ) dup 1 4 -1 roll put % count a \ and the character
		stringwidth
	    } ifelse
	    % and reset the flag
	    /mystresc false def
	} {
	    % last character was not escape
	    % is this escape
	    dup 92 eq {
		% yes, escape character, set flag
		/mystresc true def
		pop % drop character
		0.0 0.0 % make like this character has no width and height
	    } {
		( ) dup 0 4 -1 roll put	% create one character string
		stringwidth		% measure it's height/width
	    } ifelse
	} ifelse
	% accumulate x and y movements
	mystry add /mystry exch def
	mystrx add /mystrx exch def
    } forall
    mystrx mystry % drop results on stack
} bind def

% Render a string with overbars
%
/escaped false def
/drawoverbar false def
/fontsize 0.0 def

%string1 string2 append -
/append {
    2 copy length exch length add % find new length
    string dup % string1 string2 string string
    4 2 roll % string string string1 string2
    2 index 0 3 index
    % string string string1 string2 string 0 string1
    putinterval % string string string1 string2
    exch length exch putinterval
} bind def

% If drawoverbar is set, draw a line of the same length as the given string
% string overbarshowline -
/overbarshowline {
    % print overbar if necessary
    stringwidth pop 0
    drawoverbar {
        rlineto
        gsave stroke grestore
    } {
        rmoveto
    } ifelse
} bind def

% Draws overbars for the given string, then shows the string itself
% string overbarshow
/overbarshow {
    /overbarshowacc () def
    /overbarshowtxt () def

    gsave
    fontsize 10.0 div setlinewidth
    0 fontsize rmoveto  % move to (0,overbarheight)

    {				% work through string
	escaped {
	    % the last character was the escape
	    % handle the escape
	    % is it an _ = 95?
	    dup 95 eq {
		pop  % we don't need the character anymore
                overbarshowacc overbarshowline
                % toggle drawing overbars
		/drawoverbar drawoverbar not def

                % Append the contents off the accumulator to the text
                % string we're eventually going to show
                /overbarshowtxt overbarshowtxt overbarshowacc append def

                % clear accumulator
                /overbarshowacc () def
	    } {
                % add to accumulator
                (\\ ) dup 1 4 -1 roll put
                overbarshowacc exch append
                /overbarshowacc exch def
	    } ifelse
	    % and reset the flag
	    /escaped false def
	} {
	    % check for escape character \ = 92
	    dup 92 eq {
		% yes, escape character, set flag
		/escaped true def
		pop % drop character
	    } {
                % add to accumulator
                ( ) dup 0 4 -1 roll put
                overbarshowacc exch append
                /overbarshowacc exch def
	    } ifelse
	} ifelse
    } forall
    % Catch any leftovers
    overbarshowacc overbarshowline
    overbarshowtxt overbarshowacc append

    grestore
    show
} bind def

% 
% hcenter rjustify vcenter vjustify spacing [(line1) (line2) ... ] rot x y size text -
/stringw 0.0 def
/stringh 0.0 def
/spacing 0.0 def
/strings [ ] def
/stringtxt ( ) def
/stringcount 0 def
/rot 0.0 def

/text {
    gsave	        % save state for later
    /drawoverbar false def      % start by not drawing overbars

    dup /fontsize exch def  % save font size for corrections later
    % do font selection 
    /gEDAFont findfont
    exch scalefont
    setfont

    % set up coordinates
    translate           % move origin to given point
    rotate		% rotate so that text is drawn
    0 0 moveto
    dup length /stringcount exch def			% Get number of strings
    /strings exch def     				% save strings
    /spacing exch def
    % do we have more than 1 string to render?
    stringcount 1 eq {
	/stringtxt strings aload pop def		% get the string 
	/stringw stringtxt mystringwidth pop neg def	% get the -width
	/stringh stringtxt stringheight exch pop neg def% get the -height

	% First do vertical calculations
	% hcenter rjustify vcenter vjustify 
	% vertical justification
	{ 0 stringh rmoveto } if 
	% vertical center
	{ 0 stringh 0.3571425 mul rmoveto } if  % not 0.5, so that
						% it looks nicer
	% Then do horizontal calculations
	% right justify
	{ stringw 0 rmoveto } if
	% center
	{ stringw 2.0 div 0 rmoveto } if
	% Draw the text
	stringtxt overbarshow
    } {
	% More than one line, compute bounding box for the text

	% vertical height, don't use the actual hieght of the characters
	% assume that the user wants to make the baselines line up with two
	% text boxes placed side by side
	/stringh stringcount spacing mul neg def
	% Now figure out horizontal size, this amounts to keeping track
	% of the longest string
	/stringw 0.0 def
	strings {
	    mystringwidth pop
	    dup stringw gt {
		/stringw exch def
	    } {
		pop
	    } ifelse
	} forall
	/stringw stringw neg def 	% get the -width
	
	% First do vertical calculations
	% hcenter rjustify vcenter vjustify 
	% vertical justification
	{ 0 stringh fontsize add rmoveto } if 
	% vertical center
	{ 0 stringh 0.5 mul rmoveto } if 
	% Then do horizontal calculations
	% right justify
	{ stringw 0 rmoveto } if
	% center
	{ stringw 2.0 div 0 rmoveto } if
	% now move up to the first line and begin rendering
	0 stringcount 1 sub spacing mul rmoveto
	strings {
	    gsave		% Save starting point
	    overbarshow		% render the text
	    grestore
	    0 spacing neg rmoveto
	} forall
    } ifelse
    grestore 	% Restore old state
} bind def


%%EndProlog
%%Page: 1 1
/gEDAFont ISOLatin1Extended /Helvetica RE
2 setlinecap
0.072000 0.072000 scale
0 0 translate
1.000000 1.000000 scale
-37900 -39100 translate
gsave
51600 41900 51600 42100 10 line
51500 41900 51700 41900 10 line
51555 41850 51645 41850 10 line
51580 41810 51620 41810 10 line
grestore
gsave
false false false false 260.000000 [(GND) ] 0 51400 41600 180.555557 text
grestore
gsave
44200 53900 44200 54100 10 line
44050 54100 44350 54100 10 line
gsave
false false false false 208.000000 [(+3.3V) ] 0 44075 54150 144.444443 text
grestore
grestore
43100 53400 44200 53400 10 line
44200 52600 44200 53900 10 line
43100 53000 44200 53000 10 line
43100 52600 44200 52600 10 line
43100 52200 44200 52200 10 line
gsave
false false false false 260.000000 [(L1P_3) ] 0 44300 52200 180.555557 text
grestore
43100 51800 44200 51800 10 line
gsave
false false false false 260.000000 [(L1N_3) ] 0 44300 51800 180.555557 text
grestore
43100 51400 44200 51400 10 line
gsave
false false false false 260.000000 [(L2P_3) ] 0 44300 51400 180.555557 text
grestore
43100 50200 44200 50200 10 line
gsave
false false false false 260.000000 [(L36N_3) ] 0 44300 50200 180.555557 text
grestore
43100 50600 44200 50600 10 line
gsave
false false false false 260.000000 [(L36P_3) ] 0 44300 50600 180.555557 text
grestore
43100 51000 44200 51000 10 line
gsave
false false false false 260.000000 [(L2N_3) ] 0 44300 51000 180.555557 text
grestore
43100 49000 44200 49000 10 line
gsave
false false false false 260.000000 [(L41P_3) ] 0 44300 49000 180.555557 text
grestore
43100 49400 44200 49400 10 line
gsave
false false false false 260.000000 [(L37N_3) ] 0 44300 49400 180.555557 text
grestore
43100 49800 44200 49800 10 line
gsave
false false false false 260.000000 [(L37P_3) ] 0 44300 49800 180.555557 text
grestore
43100 47800 44200 47800 10 line
gsave
false false false false 260.000000 [(L42N_3) ] 0 44300 47800 180.555557 text
grestore
43100 48200 44200 48200 10 line
gsave
false false false false 260.000000 [(L42P_3) ] 0 44300 48200 180.555557 text
grestore
43100 48600 44200 48600 10 line
gsave
false false false false 260.000000 [(L41N_3) ] 0 44300 48600 180.555557 text
grestore
43100 46600 44200 46600 10 line
gsave
false false false false 260.000000 [(L44P_3) ] 0 44300 46600 180.555557 text
grestore
43100 47000 44200 47000 10 line
gsave
false false false false 260.000000 [(L43N_3) ] 0 44300 47000 180.555557 text
grestore
43100 47400 44200 47400 10 line
gsave
false false false false 260.000000 [(L43P_3) ] 0 44300 47400 180.555557 text
grestore
43100 45400 44200 45400 10 line
gsave
false false false false 260.000000 [(L49N_3) ] 0 44300 45400 180.555557 text
grestore
43100 45800 44200 45800 10 line
gsave
false false false false 260.000000 [(L49P_3) ] 0 44300 45800 180.555557 text
grestore
43100 46200 44200 46200 10 line
gsave
false false false false 260.000000 [(L44N_3) ] 0 44300 46200 180.555557 text
grestore
43100 44200 44200 44200 10 line
gsave
false false false false 260.000000 [(L51P_3) ] 0 44300 44200 180.555557 text
grestore
43100 44600 44200 44600 10 line
gsave
false false false false 260.000000 [(L50N_3) ] 0 44300 44600 180.555557 text
grestore
43100 45000 44200 45000 10 line
gsave
false false false false 260.000000 [(L50P_3) ] 0 44300 45000 180.555557 text
grestore
43100 43000 44200 43000 10 line
gsave
false false false false 260.000000 [(L52N_3) ] 0 44300 43000 180.555557 text
grestore
43100 43400 44200 43400 10 line
gsave
false false false false 260.000000 [(L52P_3) ] 0 44300 43400 180.555557 text
grestore
43100 43800 44200 43800 10 line
gsave
false false false false 260.000000 [(L51N_3) ] 0 44300 43800 180.555557 text
grestore
43100 42200 44200 42200 10 line
gsave
false false false false 260.000000 [(L83N_3) ] 0 44300 42200 180.555557 text
grestore
43100 42600 44200 42600 10 line
gsave
false false false false 260.000000 [(L83P_3) ] 0 44300 42600 180.555557 text
grestore
gsave
37900 39100 61200 39100 10 line
61200 39100 61200 55600 10 line
61200 55600 37900 55600 10 line
37900 55600 37900 39100 10 line
57100 39700 57100 39100 10 line
gsave
false false false false 208.000000 [(FILE:) ] 0 53700 39500 144.444443 text
grestore
gsave
false false false false 208.000000 [(REVISION:) ] 0 57200 39500 144.444443 text
grestore
gsave
false false false false 208.000000 [(DRAWN BY: ) ] 0 57200 39200 144.444443 text
grestore
gsave
false false false false 208.000000 [(PAGE) ] 0 53700 39200 144.444443 text
grestore
gsave
false false false false 208.000000 [(OF) ] 0 55400 39200 144.444443 text
grestore
gsave
false false false false 208.000000 [(TITLE) ] 0 53700 39800 144.444443 text
grestore
53600 39100 61200 39100 10 line
61200 39100 61200 40500 10 line
61200 40500 53600 40500 10 line
53600 40500 53600 39100 10 line
53600 39700 61200 39700 10 line
grestore
gsave
false false false false 260.000000 [(Z-BOARD) ] 0 54400 39800 180.555557 text
grestore
gsave
false false false false 260.000000 [(6) ] 0 54700 39200 180.555557 text
grestore
gsave
false false false false 260.000000 [(7) ] 0 56400 39200 180.555557 text
grestore
gsave
false false false false 260.000000 [(Aaron Storey) ] 0 58300 39200 180.555557 text
grestore
gsave
40600 53900 42200 53900 10 line
42200 53900 42200 41700 10 line
43100 53400 42200 53400 10 line
gsave
false true false false 260.000000 [(P4) ] 0 43645 53395 180.555557 text
grestore
gsave
false false false false 260.000000 [(VCCO_3) ] 0 41300 53400 180.555557 text
grestore
gsave
false false false false 260.000000 [(VCCO_3) ] 0 41300 53000 180.555557 text
grestore
gsave
false false false false 260.000000 [(VCCO_3) ] 0 41300 52600 180.555557 text
grestore
gsave
false false false false 260.000000 [(IO_L1P_3) ] 0 41200 52200 180.555557 text
grestore
gsave
false false false false 260.000000 [(IO_L1N_VREF_3) ] 0 40600 51800 180.555557 text
grestore
gsave
false false false false 260.000000 [(IO_L2P_3) ] 0 41200 51400 180.555557 text
grestore
gsave
false false false false 260.000000 [(IO_L2N_3) ] 0 41200 51000 180.555557 text
grestore
gsave
false false false false 260.000000 [(IO_L36P_3) ] 0 41100 50600 180.555557 text
grestore
gsave
false false false false 260.000000 [(IO_L36N_3) ] 0 41100 50200 180.555557 text
grestore
gsave
false false false false 260.000000 [(IO_L37P_3) ] 0 41100 49800 180.555557 text
grestore
gsave
false false false false 260.000000 [(IO_L37N_3) ] 0 41100 49400 180.555557 text
grestore
gsave
false false false false 260.000000 [(IO_L41P_GCLK27_3) ] 0 40300 49000 180.555557 text
grestore
gsave
false false false false 260.000000 [(IO_L41N_GCLK26_3) ] 0 40300 48600 180.555557 text
grestore
gsave
false false false false 260.000000 [(IO_L42P_GCLK25_TRDY2_3) ] 0 39600 48200 180.555557 text
grestore
gsave
false false false false 260.000000 [(IO_L42N_GCLK24_3) ] 0 40300 47800 180.555557 text
grestore
gsave
false false false false 260.000000 [(IO_L43P_GCLK23_3) ] 0 40300 47400 180.555557 text
grestore
gsave
false false false false 260.000000 [(IO_L43N_GCLK22_IRDY2_3) ] 0 39700 47000 180.555557 text
grestore
gsave
false false false false 260.000000 [(IO_L44P_GCLK21_3) ] 0 40300 46600 180.555557 text
grestore
gsave
false false false false 260.000000 [(IO_L44N_GCLK20_3) ] 0 40300 46200 180.555557 text
grestore
gsave
false false false false 260.000000 [(IO_L49P_3) ] 0 41100 45800 180.555557 text
grestore
gsave
false false false false 260.000000 [(IO_L49N_3) ] 0 41100 45400 180.555557 text
grestore
gsave
false false false false 260.000000 [(IO_L50P_3) ] 0 41100 45000 180.555557 text
grestore
gsave
false false false false 260.000000 [(IO_L50N_3) ] 0 41100 44600 180.555557 text
grestore
gsave
false false false false 260.000000 [(IO_L51P_3) ] 0 41100 44200 180.555557 text
grestore
gsave
false false false false 260.000000 [(IO_L51N_3) ] 0 41100 43800 180.555557 text
grestore
42200 41700 39800 41700 10 line
43100 43800 42200 43800 10 line
gsave
false true false false 260.000000 [(P7) ] 0 43645 43795 180.555557 text
grestore
43100 44200 42200 44200 10 line
gsave
false true false false 260.000000 [(P8) ] 0 43645 44195 180.555557 text
grestore
43100 44600 42200 44600 10 line
gsave
false true false false 260.000000 [(P9) ] 0 43645 44595 180.555557 text
grestore
43100 45000 42200 45000 10 line
gsave
false true false false 260.000000 [(P10) ] 0 43645 44995 180.555557 text
grestore
43100 45400 42200 45400 10 line
gsave
false true false false 260.000000 [(P11) ] 0 43645 45395 180.555557 text
grestore
43100 45800 42200 45800 10 line
gsave
false true false false 260.000000 [(P12) ] 0 43645 45795 180.555557 text
grestore
43100 46200 42200 46200 10 line
gsave
false true false false 260.000000 [(P14) ] 0 43645 46195 180.555557 text
grestore
43100 46600 42200 46600 10 line
gsave
false true false false 260.000000 [(P15) ] 0 43645 46595 180.555557 text
grestore
43100 47000 42200 47000 10 line
gsave
false true false false 260.000000 [(P16) ] 0 43645 46995 180.555557 text
grestore
43100 47400 42200 47400 10 line
gsave
false true false false 260.000000 [(P17) ] 0 43645 47395 180.555557 text
grestore
43100 47800 42200 47800 10 line
gsave
false true false false 260.000000 [(P21) ] 0 43645 47795 180.555557 text
grestore
43100 48200 42200 48200 10 line
gsave
false true false false 260.000000 [(P22) ] 0 43645 48195 180.555557 text
grestore
43100 48600 42200 48600 10 line
gsave
false true false false 260.000000 [(P23) ] 0 43645 48595 180.555557 text
grestore
43100 49000 42200 49000 10 line
gsave
false true false false 260.000000 [(P24) ] 0 43645 48995 180.555557 text
grestore
43100 49400 42200 49400 10 line
gsave
false true false false 260.000000 [(P26) ] 0 43645 49395 180.555557 text
grestore
43100 49800 42200 49800 10 line
gsave
false true false false 260.000000 [(P27) ] 0 43645 49795 180.555557 text
grestore
43100 50200 42200 50200 10 line
gsave
false true false false 260.000000 [(P29) ] 0 43645 50195 180.555557 text
grestore
43100 50600 42200 50600 10 line
gsave
false true false false 260.000000 [(P30) ] 0 43645 50595 180.555557 text
grestore
43100 51000 42200 51000 10 line
gsave
false true false false 260.000000 [(P32) ] 0 43645 50995 180.555557 text
grestore
43100 51400 42200 51400 10 line
gsave
false true false false 260.000000 [(P33) ] 0 43645 51395 180.555557 text
grestore
43100 51800 42200 51800 10 line
gsave
false true false false 260.000000 [(P34) ] 0 43645 51795 180.555557 text
grestore
43100 52200 42200 52200 10 line
gsave
false true false false 260.000000 [(P35) ] 0 43645 52195 180.555557 text
grestore
43100 52600 42200 52600 10 line
gsave
false true false false 260.000000 [(P31) ] 0 43645 52595 180.555557 text
grestore
43100 53000 42200 53000 10 line
gsave
false true false false 260.000000 [(P18) ] 0 43645 52995 180.555557 text
grestore
43100 42200 42200 42200 10 line
gsave
false true false false 260.000000 [(P1) ] 0 43645 42195 180.555557 text
grestore
43100 42600 42200 42600 10 line
gsave
false true false false 260.000000 [(P2) ] 0 43645 42595 180.555557 text
grestore
43100 43000 42200 43000 10 line
gsave
false true false false 260.000000 [(P5) ] 0 43645 42995 180.555557 text
grestore
43100 43400 42200 43400 10 line
gsave
false true false false 260.000000 [(P6) ] 0 43645 43395 180.555557 text
grestore
gsave
false false false false 260.000000 [(IO_L52P_3) ] 0 41100 43400 180.555557 text
grestore
gsave
false false false false 260.000000 [(IO_L52N_3) ] 0 41100 43000 180.555557 text
grestore
gsave
false false false false 260.000000 [(IO_L83P_3) ] 0 41100 42600 180.555557 text
grestore
gsave
false false false false 260.000000 [(IO_L83N_VREF_3) ] 0 40500 42200 180.555557 text
grestore
grestore
gsave
false false false false 260.000000 [(6SLX9TQG144) ] 0 40700 41300 180.555557 text
grestore
gsave
false false false false 260.000000 [(U1B3) ] 0 41500 54066 180.555557 text
grestore
gsave
47600 53200 49200 53200 10 line
49200 53200 49200 50800 10 line
50100 52700 49200 52700 10 line
gsave
false true false false 260.000000 [(P20) ] 0 50645 52695 180.555557 text
grestore
gsave
false false false false 260.000000 [(VCCAUX) ] 0 48300 52700 180.555557 text
grestore
49200 50800 47600 50800 10 line
50100 51100 49200 51100 10 line
gsave
false true false false 260.000000 [(P129) ] 0 50645 51095 180.555557 text
grestore
50100 51500 49200 51500 10 line
gsave
false true false false 260.000000 [(P90) ] 0 50645 51495 180.555557 text
grestore
50100 51900 49200 51900 10 line
gsave
false true false false 260.000000 [(P53) ] 0 50645 51895 180.555557 text
grestore
50100 52300 49200 52300 10 line
gsave
false true false false 260.000000 [(P36) ] 0 50645 52295 180.555557 text
grestore
gsave
false false false false 260.000000 [(VCCAUX) ] 0 48300 52300 180.555557 text
grestore
gsave
false false false false 260.000000 [(VCCAUX) ] 0 48300 51900 180.555557 text
grestore
gsave
false false false false 260.000000 [(VCCAUX) ] 0 48300 51500 180.555557 text
grestore
gsave
false false false false 260.000000 [(VCCAUX) ] 0 48300 51100 180.555557 text
grestore
grestore
gsave
false false false false 260.000000 [(6SLX9TQG144) ] 0 47800 50500 180.555557 text
grestore
gsave
false false false false 260.000000 [(U1BVCCAUX) ] 0 47900 53366 180.555557 text
grestore
gsave
54600 53200 56200 53200 10 line
56200 53200 56200 50800 10 line
57100 52700 56200 52700 10 line
gsave
false true false false 260.000000 [(P19) ] 0 57645 52695 180.555557 text
grestore
gsave
false false false false 260.000000 [(VCCINT) ] 0 55400 52700 180.555557 text
grestore
56200 50800 54600 50800 10 line
57100 51100 56200 51100 10 line
gsave
false true false false 260.000000 [(P128) ] 0 57645 51095 180.555557 text
grestore
57100 51500 56200 51500 10 line
gsave
false true false false 260.000000 [(P89) ] 0 57645 51495 180.555557 text
grestore
57100 51900 56200 51900 10 line
gsave
false true false false 260.000000 [(P52) ] 0 57645 51895 180.555557 text
grestore
57100 52300 56200 52300 10 line
gsave
false true false false 260.000000 [(P28) ] 0 57645 52295 180.555557 text
grestore
gsave
false false false false 260.000000 [(VCCINT) ] 0 55400 52300 180.555557 text
grestore
gsave
false false false false 260.000000 [(VCCINT) ] 0 55400 51900 180.555557 text
grestore
gsave
false false false false 260.000000 [(VCCINT) ] 0 55400 51500 180.555557 text
grestore
gsave
false false false false 260.000000 [(VCCINT) ] 0 55400 51100 180.555557 text
grestore
grestore
gsave
false false false false 260.000000 [(6SLX9TQG144) ] 0 54800 50500 180.555557 text
grestore
gsave
false false false false 260.000000 [(U1BVCCINT) ] 0 54900 53366 180.555557 text
grestore
gsave
47600 48200 49200 48200 10 line
49200 48200 49200 42600 10 line
50100 47700 49200 47700 10 line
gsave
false true false false 260.000000 [(P3) ] 0 50645 47695 180.555557 text
grestore
gsave
false false false false 260.000000 [(GND) ] 0 48600 47700 180.555557 text
grestore
49200 42600 47600 42600 10 line
50100 47300 49200 47300 10 line
gsave
false true false false 260.000000 [(P13) ] 0 50645 47295 180.555557 text
grestore
gsave
false false false false 260.000000 [(GND) ] 0 48600 47300 180.555557 text
grestore
50100 46900 49200 46900 10 line
gsave
false true false false 260.000000 [(P25) ] 0 50645 46895 180.555557 text
grestore
50100 46500 49200 46500 10 line
gsave
false true false false 260.000000 [(P49) ] 0 50645 46495 180.555557 text
grestore
gsave
false false false false 260.000000 [(GND) ] 0 48600 46900 180.555557 text
grestore
gsave
false false false false 260.000000 [(GND) ] 0 48600 46500 180.555557 text
grestore
50100 46100 49200 46100 10 line
gsave
false true false false 260.000000 [(P54) ] 0 50645 46095 180.555557 text
grestore
50100 45700 49200 45700 10 line
gsave
false true false false 260.000000 [(P68) ] 0 50645 45695 180.555557 text
grestore
gsave
false false false false 260.000000 [(GND) ] 0 48600 46100 180.555557 text
grestore
gsave
false false false false 260.000000 [(GND) ] 0 48600 45700 180.555557 text
grestore
50100 45300 49200 45300 10 line
gsave
false true false false 260.000000 [(P77) ] 0 50645 45295 180.555557 text
grestore
50100 44900 49200 44900 10 line
gsave
false true false false 260.000000 [(P91) ] 0 50645 44895 180.555557 text
grestore
gsave
false false false false 260.000000 [(GND) ] 0 48600 45300 180.555557 text
grestore
gsave
false false false false 260.000000 [(GND) ] 0 48600 44900 180.555557 text
grestore
50100 44500 49200 44500 10 line
gsave
false true false false 260.000000 [(P96) ] 0 50645 44495 180.555557 text
grestore
50100 44100 49200 44100 10 line
gsave
false true false false 260.000000 [(P108) ] 0 50645 44095 180.555557 text
grestore
gsave
false false false false 260.000000 [(GND) ] 0 48600 44500 180.555557 text
grestore
gsave
false false false false 260.000000 [(GND) ] 0 48600 44100 180.555557 text
grestore
50100 43700 49200 43700 10 line
gsave
false true false false 260.000000 [(P113) ] 0 50645 43695 180.555557 text
grestore
50100 43300 49200 43300 10 line
gsave
false true false false 260.000000 [(P130) ] 0 50645 43295 180.555557 text
grestore
gsave
false false false false 260.000000 [(GND) ] 0 48600 43700 180.555557 text
grestore
gsave
false false false false 260.000000 [(GND) ] 0 48600 43300 180.555557 text
grestore
50100 42900 49200 42900 10 line
gsave
false true false false 260.000000 [(P136) ] 0 50645 42895 180.555557 text
grestore
gsave
false false false false 260.000000 [(GND) ] 0 48600 42900 180.555557 text
grestore
grestore
gsave
false false false false 260.000000 [(6SLX9TQG144) ] 0 47700 42300 180.555557 text
grestore
gsave
false false false false 260.000000 [(U1BGND) ] 0 48300 48366 180.555557 text
grestore
gsave
53700 46700 55300 46700 10 line
55300 46700 55300 44300 10 line
56200 46200 55300 46200 10 line
gsave
false true false false 260.000000 [(P73) ] 0 56745 46195 180.555557 text
grestore
gsave
false false false false 260.000000 [(SUSPEND) ] 0 54300 46200 180.555557 text
grestore
55300 44300 53700 44300 10 line
56200 44600 55300 44600 10 line
gsave
false true false false 260.000000 [(P107) ] 0 56745 44595 180.555557 text
grestore
56200 45000 55300 45000 10 line
gsave
false true false false 260.000000 [(P106) ] 0 56745 44995 180.555557 text
grestore
56200 45400 55300 45400 10 line
gsave
false true false false 260.000000 [(P110) ] 0 56745 45395 180.555557 text
grestore
56200 45800 55300 45800 10 line
gsave
false true false false 260.000000 [(P109) ] 0 56745 45795 180.555557 text
grestore
gsave
false false false false 260.000000 [(TCK) ] 0 54800 45800 180.555557 text
grestore
gsave
false false false false 260.000000 [(TDI) ] 0 54900 45400 180.555557 text
grestore
gsave
false false false false 260.000000 [(TDO) ] 0 54800 45000 180.555557 text
grestore
gsave
false false false false 260.000000 [(TMS) ] 0 54800 44600 180.555557 text
grestore
grestore
gsave
false false false false 260.000000 [(6SLX9TQG144) ] 0 53900 44000 180.555557 text
grestore
gsave
false false false false 260.000000 [(U1BNA) ] 0 54300 46866 180.555557 text
grestore
50100 47700 51600 47700 10 line
51600 47700 51600 42100 10 line
50100 47300 51600 47300 10 line
50100 46900 51600 46900 10 line
50100 46500 51600 46500 10 line
50100 46100 51600 46100 10 line
50100 45700 51600 45700 10 line
50100 45300 51600 45300 10 line
50100 44900 51600 44900 10 line
50100 44500 51600 44500 10 line
50100 44100 51600 44100 10 line
50100 43700 51600 43700 10 line
50100 43300 51600 43300 10 line
50100 42900 51600 42900 10 line
gsave
51100 53400 51100 53600 10 line
50950 53600 51250 53600 10 line
gsave
false false false false 208.000000 [(+3.3V) ] 0 50975 53650 144.444443 text
grestore
grestore
50100 51100 51100 51100 10 line
51100 51100 51100 53400 10 line
50100 52700 51100 52700 10 line
50100 52300 51100 52300 10 line
50100 51900 51100 51900 10 line
50100 51500 51100 51500 10 line
56200 45400 57300 45400 10 line
gsave
false false false false 260.000000 [(TDI) ] 0 57400 45400 180.555557 text
grestore
56200 45800 57300 45800 10 line
gsave
false false false false 260.000000 [(TCK) ] 0 57400 45800 180.555557 text
grestore
56200 46200 58700 46200 10 line
gsave
false false false false 260.000000 [(SUSPEND) ] 0 57400 46200 180.555557 text
grestore
56200 44600 57300 44600 10 line
gsave
false false false false 260.000000 [(TMS) ] 0 57400 44600 180.555557 text
grestore
56200 45000 57300 45000 10 line
gsave
false false false false 260.000000 [(TDO) ] 0 57400 45000 180.555557 text
grestore
gsave
58100 53400 58100 53600 10 line
57950 53600 58250 53600 10 line
gsave
false false false false 208.000000 [(Vcc) ] 0 57975 53650 144.444443 text
grestore
grestore
57100 51100 58100 51100 10 line
58100 51100 58100 53400 10 line
57100 51500 58100 51500 10 line
57100 51900 58100 51900 10 line
57100 52300 58100 52300 10 line
57100 52700 58100 52700 10 line
gsave
58700 43900 58700 44100 10 line
58600 43900 58800 43900 10 line
58655 43850 58745 43850 10 line
58680 43810 58720 43810 10 line
grestore
gsave
false false false false 260.000000 [(GND) ] 0 58500 43600 180.555557 text
grestore
gsave
58700 45000 58700 45150 10 line
58700 45900 58700 45750 10 line
58600 45150 58800 45150 10 line
58800 45150 58800 45750 10 line
58800 45750 58600 45750 10 line
58600 45750 58600 45150 10 line
grestore
gsave
false false false false 260.000000 [(R8) ] 270 59100 45700 180.555557 text
grestore
gsave
false false false false 260.000000 [(10K) ] 270 58900 45700 180.555557 text
grestore
58700 46200 58700 45900 10 line
58700 45000 58700 44100 10 line
newpath
44200 53400
25
0 360 arc
fill
newpath
44200 53400
25
0 360 arc
fill
newpath
44200 53400
25
0 360 arc
fill
newpath
44200 53000
25
0 360 arc
fill
newpath
44200 53000
25
0 360 arc
fill
newpath
44200 53000
25
0 360 arc
fill
60 60 44170 52170 fbox
60 60 44170 51770 fbox
60 60 44170 51370 fbox
60 60 44170 50170 fbox
60 60 44170 50570 fbox
60 60 44170 50970 fbox
60 60 44170 48970 fbox
60 60 44170 49370 fbox
60 60 44170 49770 fbox
60 60 44170 47770 fbox
60 60 44170 48170 fbox
60 60 44170 48570 fbox
60 60 44170 46570 fbox
60 60 44170 46970 fbox
60 60 44170 47370 fbox
60 60 44170 45370 fbox
60 60 44170 45770 fbox
60 60 44170 46170 fbox
60 60 44170 44170 fbox
60 60 44170 44570 fbox
60 60 44170 44970 fbox
60 60 44170 42970 fbox
60 60 44170 43370 fbox
60 60 44170 43770 fbox
60 60 44170 42170 fbox
60 60 44170 42570 fbox
newpath
51600 47300
25
0 360 arc
fill
newpath
51600 46900
25
0 360 arc
fill
newpath
51600 46500
25
0 360 arc
fill
newpath
51600 46100
25
0 360 arc
fill
newpath
51600 45700
25
0 360 arc
fill
newpath
51600 45300
25
0 360 arc
fill
newpath
51600 44900
25
0 360 arc
fill
newpath
51600 44500
25
0 360 arc
fill
newpath
51600 44100
25
0 360 arc
fill
newpath
51600 43700
25
0 360 arc
fill
newpath
51600 43300
25
0 360 arc
fill
newpath
51600 42900
25
0 360 arc
fill
newpath
51600 47300
25
0 360 arc
fill
newpath
51600 47300
25
0 360 arc
fill
newpath
51600 46900
25
0 360 arc
fill
newpath
51600 46900
25
0 360 arc
fill
newpath
51600 46500
25
0 360 arc
fill
newpath
51600 46500
25
0 360 arc
fill
newpath
51600 46100
25
0 360 arc
fill
newpath
51600 46100
25
0 360 arc
fill
newpath
51600 45700
25
0 360 arc
fill
newpath
51600 45700
25
0 360 arc
fill
newpath
51600 45300
25
0 360 arc
fill
newpath
51600 45300
25
0 360 arc
fill
newpath
51600 44900
25
0 360 arc
fill
newpath
51600 44900
25
0 360 arc
fill
newpath
51600 44500
25
0 360 arc
fill
newpath
51600 44500
25
0 360 arc
fill
newpath
51600 44100
25
0 360 arc
fill
newpath
51600 44100
25
0 360 arc
fill
newpath
51600 43700
25
0 360 arc
fill
newpath
51600 43700
25
0 360 arc
fill
newpath
51600 43300
25
0 360 arc
fill
newpath
51600 43300
25
0 360 arc
fill
newpath
51600 42900
25
0 360 arc
fill
newpath
51600 42900
25
0 360 arc
fill
newpath
51100 52700
25
0 360 arc
fill
newpath
51100 52300
25
0 360 arc
fill
newpath
51100 51900
25
0 360 arc
fill
newpath
51100 51500
25
0 360 arc
fill
newpath
51100 52700
25
0 360 arc
fill
newpath
51100 52700
25
0 360 arc
fill
newpath
51100 52300
25
0 360 arc
fill
newpath
51100 52300
25
0 360 arc
fill
newpath
51100 51900
25
0 360 arc
fill
newpath
51100 51900
25
0 360 arc
fill
newpath
51100 51500
25
0 360 arc
fill
newpath
51100 51500
25
0 360 arc
fill
60 60 57270 45370 fbox
60 60 57270 45770 fbox
60 60 57270 44570 fbox
60 60 57270 44970 fbox
newpath
58100 51500
25
0 360 arc
fill
newpath
58100 51900
25
0 360 arc
fill
newpath
58100 52300
25
0 360 arc
fill
newpath
58100 52700
25
0 360 arc
fill
newpath
58100 51500
25
0 360 arc
fill
newpath
58100 51500
25
0 360 arc
fill
newpath
58100 51900
25
0 360 arc
fill
newpath
58100 51900
25
0 360 arc
fill
newpath
58100 52300
25
0 360 arc
fill
newpath
58100 52300
25
0 360 arc
fill
newpath
58100 52700
25
0 360 arc
fill
newpath
58100 52700
25
0 360 arc
fill
showpage
%%End
