%!PS-Adobe-3.0 EPSF-3.0
%%Creator: gEDA gschem 1.6.1-20100214-22-ga30f00b
%%CreationDate: Wed Oct 22 16:33:37 2014
%%Title: /home/freaktm/mojo/mojo-schematics/mojo_5.sch
%%Author: freaktm
%%BoundingBox: 0 0 1677 1188
%%Orientation: Portrait
%%Pages: 1
%%Endcomments
%%BeginProlog
% Prolog for gEDA, define all the functions needed for rendering
% schematics on Postscript devices


% Draw a line from the second coordinate to the first
% x2 y2 x1 y1 width line -
/line {
    setlinewidth
    % pop off first element and moveto
    moveto
    % pop off remaining elements and draw a line segment
    lineto
    % draw it
    stroke
} bind def


% Draw a dot
% x y r dot -
/dot {
    0 360 arc fill
} bind def

% Draw a dot-dashed line, a bunch of lined segments,
% if the array element only has length two, draw a dot.
% [ [x2 y2 x1 y1] [x4 y4 x3 y3] [x5 y5] ... ] width dashed -
/width 0 def
/dashed {
    dup 2.0 div /width exch def
    setlinewidth
    % pop off each line segment and draw it as a dot or as a line
    {
	aload length 2 gt
	{ moveto lineto stroke}
	{ width dot } ifelse
    } forall
} bind def

% Draw an arc segment
% x y r ang1 ang2 width darc -
/darc {
    setlinewidth
    arc stroke
} bind def

% Draw a series of arc segment bits, if the array element only has a single
% element in it, draw a dot.
% [ [sa1 ea1] [sa2 ea2] ... ] x y r width dashedarc -
/x 0 def
/y 0 def
/dashedarc {
    dup /width exch def
    setlinewidth
    /r exch def  
    /y exch def
    /x exch def
    { aload length 1 gt
	{
	    % this element had two angles in it
	    % extract start and stop angles
	    x y r   % drop x y and r onto stack
		    % at this point we have: sa ea x y r
		    % we need                      x y r sa ea
		    % so..
	    5 -2 roll
	    % and add it to the current path, and draw it
	    arc stroke
	} {
	    % this element only had one angle in it, place a
	    % filled dot at the appropriate place
	    % compute center point of the arc using the angle
	    % that is on the top of the stack
	    dup   		% angle angle
	    cos r mul x add 	% angle x
	    exch		% x angle
	    sin r mul y add	% x y
	    width		% x y width/2
	    dot			% draw the dot
	} ifelse
    } forall

    % Now draw it
    stroke
} bind def

% Draw a box
% width height x y linethickness box -
/box {
    setlinewidth
    moveto
    exch dup 0 rlineto	 % w h, h w w 0      -- Draw bottom line
    exch 0 exch rlineto	 % h w, w h 0, w 0 h -- Draw right line 
    neg 0 rlineto	 % w, -w 0           -- Draw Top line
    closepath		 % finish and draw it
    stroke
} bind def			     

% Draw a filled box
% width height x y fbox -
/fbox {
    moveto
    exch dup 0 rlineto	
    exch 0 exch rlineto	
    neg 0 rlineto		
    closepath			
    fill			
} bind def

% Font reincoding utilities

% ISOLatin1Encoding, extended with remaining uncoded glyphs
/ISOLatin1Extended [
    /.notdef /Lslash /lslash /OE /oe /Scaron /scaron /Zcaron /zcaron
    /Ydieresis /trademark /bullet /dagger /daggerdbl /ellipsis /emdash
    /endash /fi /fl /florin /fraction /guilsinglleft /guilsinglright
    /perthousand /quotedblbase /quotedblleft /quotedblright
    /quotesinglbase /quotesingle /.notdef /.notdef /.notdef /space
    /exclam /quotedbl /numbersign /dollar /percent /ampersand
    /quoteright /parenleft /parenright /asterisk /plus /comma /minus
    /period /slash /zero /one /two /three /four /five /six /seven /eight
    /nine /colon /semicolon /less /equal /greater /question /at /A /B /C
    /D /E /F /G /H /I /J /K /L /M /N /O /P /Q /R /S /T /U /V /W /X /Y /Z
    /bracketleft /backslash /bracketright /asciicircum /underscore
    /quoteleft /a /b /c /d /e /f /g /h /i /j /k /l /m /n /o /p /q /r /s
    /t /u /v /w /x /y /z /braceleft /bar /braceright /asciitilde
    /.notdef /.notdef /.notdef /.notdef /.notdef /.notdef /.notdef
    /.notdef /.notdef /.notdef /.notdef /.notdef /.notdef /.notdef
    /.notdef /.notdef /.notdef /dotlessi /grave /acute /circumflex
    /tilde /macron /breve /dotaccent /dieresis /.notdef /ring /cedilla
    /.notdef /hungarumlaut /ogonek /caron /space /exclamdown /cent
    /sterling /currency /yen /brokenbar /section /dieresis /copyright
    /ordfeminine /guillemotleft /logicalnot /hyphen /registered /macron
    /degree /plusminus /twosuperior /threesuperior /acute /mu /paragraph
    /periodcentered /cedilla /onesuperior /ordmasculine /guillemotright
    /onequarter /onehalf /threequarters /questiondown /Agrave /Aacute
    /Acircumflex /Atilde /Adieresis /Aring /AE /Ccedilla /Egrave /Eacute
    /Ecircumflex /Edieresis /Igrave /Iacute /Icircumflex /Idieresis /Eth
    /Ntilde /Ograve /Oacute /Ocircumflex /Otilde /Odieresis /multiply
    /Oslash /Ugrave /Uacute /Ucircumflex /Udieresis /Yacute /Thorn
    /germandbls /agrave /aacute /acircumflex /atilde /adieresis /aring
    /ae /ccedilla /egrave /eacute /ecircumflex /edieresis /igrave
    /iacute /icircumflex /idieresis /eth /ntilde /ograve /oacute
    /ocircumflex /otilde /odieresis /divide /oslash /ugrave /uacute
    /ucircumflex /udieresis /yacute /thorn /ydieresis
] def

% `new-font-name' `encoding-vector' `old-font-name' RE -
/RE {
    findfont
    dup maxlength dict begin {
        1 index /FID ne { def } { pop pop } ifelse
    } forall
    /Encoding exch def
    dup /FontName exch def
    currentdict end definefont pop
} bind def

% Text handling functions, select the font and scale it, then we need
% only to apply the appropriate transformations to get the text
% justified into the right spots.  The bad thing here is that we don't
% do any kerning, so the output may look a bit strange.

% compute the height of one character and return lly and ury
% (char) charheight lly ury
/charheight {
    gsave			% push graphics state
	newpath			% clear current path
	0 0 moveto		% Set current point
	false charpath		% get path
	flattenpath		% flatten path
	pathbbox		% stack = llx lly urx ury
	exch pop		% stack = llx lly ury
	3 -1 roll pop		% stack = lly ury
    grestore			% pop graphics state
} bind def

% compute the height of a string, one character at a time
% (string) stringheight lly ury
/lly 0.0 def
/ury 0.0 def

/stringheight {
    /lly 0.0 def			% initial value of heightmin
    /ury 0.0 def			% initial value of heightmax
    {				% work through string
	( ) dup 0 4 -1 roll put	% create one character string
	charheight		% measure it's height
	dup ury gt {		% if ury gt heightmax
	    /ury exch def	% update with new value
	} {
	    pop			% else discard ury
	} ifelse
	dup lly lt {		% if lly lt heightmin
	    /lly exch def	% update with new value
	} {
	    pop			% else discard lly
	} ifelse
    } forall
    lly ury			% Return the results
} bind def

% calculate the string width taking into account the escapes.
/mystrx 0.0 def
/mystry 0.0 def
/mystresc false def

/mystringwidth {
    /mystrx 0.0 def
    /mystry 0.0 def
    /mystresc false def
    {				% work through string
	% did we process the escape character last?
	mystresc {
	    % last character was escape
	    % handle the escape
	    % is it an _ = 95?
	    dup 95 eq {
		pop  % we don't need the character anymore
		% toggle drawing overbars
		0.0 0.0 % make it like it never happened...
	    } {
		% otherwise measure the character 
		(\\ ) dup 1 4 -1 roll put % count a \ and the character
		stringwidth
	    } ifelse
	    % and reset the flag
	    /mystresc false def
	} {
	    % last character was not escape
	    % is this escape
	    dup 92 eq {
		% yes, escape character, set flag
		/mystresc true def
		pop % drop character
		0.0 0.0 % make like this character has no width and height
	    } {
		( ) dup 0 4 -1 roll put	% create one character string
		stringwidth		% measure it's height/width
	    } ifelse
	} ifelse
	% accumulate x and y movements
	mystry add /mystry exch def
	mystrx add /mystrx exch def
    } forall
    mystrx mystry % drop results on stack
} bind def

% Render a string with overbars
%
/escaped false def
/drawoverbar false def
/fontsize 0.0 def

%string1 string2 append -
/append {
    2 copy length exch length add % find new length
    string dup % string1 string2 string string
    4 2 roll % string string string1 string2
    2 index 0 3 index
    % string string string1 string2 string 0 string1
    putinterval % string string string1 string2
    exch length exch putinterval
} bind def

% If drawoverbar is set, draw a line of the same length as the given string
% string overbarshowline -
/overbarshowline {
    % print overbar if necessary
    stringwidth pop 0
    drawoverbar {
        rlineto
        gsave stroke grestore
    } {
        rmoveto
    } ifelse
} bind def

% Draws overbars for the given string, then shows the string itself
% string overbarshow
/overbarshow {
    /overbarshowacc () def
    /overbarshowtxt () def

    gsave
    fontsize 10.0 div setlinewidth
    0 fontsize rmoveto  % move to (0,overbarheight)

    {				% work through string
	escaped {
	    % the last character was the escape
	    % handle the escape
	    % is it an _ = 95?
	    dup 95 eq {
		pop  % we don't need the character anymore
                overbarshowacc overbarshowline
                % toggle drawing overbars
		/drawoverbar drawoverbar not def

                % Append the contents off the accumulator to the text
                % string we're eventually going to show
                /overbarshowtxt overbarshowtxt overbarshowacc append def

                % clear accumulator
                /overbarshowacc () def
	    } {
                % add to accumulator
                (\\ ) dup 1 4 -1 roll put
                overbarshowacc exch append
                /overbarshowacc exch def
	    } ifelse
	    % and reset the flag
	    /escaped false def
	} {
	    % check for escape character \ = 92
	    dup 92 eq {
		% yes, escape character, set flag
		/escaped true def
		pop % drop character
	    } {
                % add to accumulator
                ( ) dup 0 4 -1 roll put
                overbarshowacc exch append
                /overbarshowacc exch def
	    } ifelse
	} ifelse
    } forall
    % Catch any leftovers
    overbarshowacc overbarshowline
    overbarshowtxt overbarshowacc append

    grestore
    show
} bind def

% 
% hcenter rjustify vcenter vjustify spacing [(line1) (line2) ... ] rot x y size text -
/stringw 0.0 def
/stringh 0.0 def
/spacing 0.0 def
/strings [ ] def
/stringtxt ( ) def
/stringcount 0 def
/rot 0.0 def

/text {
    gsave	        % save state for later
    /drawoverbar false def      % start by not drawing overbars

    dup /fontsize exch def  % save font size for corrections later
    % do font selection 
    /gEDAFont findfont
    exch scalefont
    setfont

    % set up coordinates
    translate           % move origin to given point
    rotate		% rotate so that text is drawn
    0 0 moveto
    dup length /stringcount exch def			% Get number of strings
    /strings exch def     				% save strings
    /spacing exch def
    % do we have more than 1 string to render?
    stringcount 1 eq {
	/stringtxt strings aload pop def		% get the string 
	/stringw stringtxt mystringwidth pop neg def	% get the -width
	/stringh stringtxt stringheight exch pop neg def% get the -height

	% First do vertical calculations
	% hcenter rjustify vcenter vjustify 
	% vertical justification
	{ 0 stringh rmoveto } if 
	% vertical center
	{ 0 stringh 0.3571425 mul rmoveto } if  % not 0.5, so that
						% it looks nicer
	% Then do horizontal calculations
	% right justify
	{ stringw 0 rmoveto } if
	% center
	{ stringw 2.0 div 0 rmoveto } if
	% Draw the text
	stringtxt overbarshow
    } {
	% More than one line, compute bounding box for the text

	% vertical height, don't use the actual hieght of the characters
	% assume that the user wants to make the baselines line up with two
	% text boxes placed side by side
	/stringh stringcount spacing mul neg def
	% Now figure out horizontal size, this amounts to keeping track
	% of the longest string
	/stringw 0.0 def
	strings {
	    mystringwidth pop
	    dup stringw gt {
		/stringw exch def
	    } {
		pop
	    } ifelse
	} forall
	/stringw stringw neg def 	% get the -width
	
	% First do vertical calculations
	% hcenter rjustify vcenter vjustify 
	% vertical justification
	{ 0 stringh fontsize add rmoveto } if 
	% vertical center
	{ 0 stringh 0.5 mul rmoveto } if 
	% Then do horizontal calculations
	% right justify
	{ stringw 0 rmoveto } if
	% center
	{ stringw 2.0 div 0 rmoveto } if
	% now move up to the first line and begin rendering
	0 stringcount 1 sub spacing mul rmoveto
	strings {
	    gsave		% Save starting point
	    overbarshow		% render the text
	    grestore
	    0 spacing neg rmoveto
	} forall
    } ifelse
    grestore 	% Restore old state
} bind def


%%EndProlog
%%Page: 1 1
/gEDAFont ISOLatin1Extended /Helvetica RE
2 setlinecap
0.072000 0.072000 scale
0 0 translate
1.000000 1.000000 scale
-38000 -39100 translate
gsave
45500 40800 45500 41000 10 line
45400 40800 45600 40800 10 line
45455 40750 45545 40750 10 line
45480 40710 45520 40710 10 line
grestore
gsave
false false false false 260.000000 [(GND) ] 0 45300 40500 180.555557 text
grestore
gsave
51200 54100 51200 54300 10 line
51050 54300 51350 54300 10 line
gsave
false false false false 208.000000 [(+3.3V) ] 0 51075 54350 144.444443 text
grestore
grestore
50100 53600 51200 53600 10 line
51200 52800 51200 54100 10 line
50100 53200 51200 53200 10 line
50100 52800 51200 52800 10 line
50100 52400 51200 52400 10 line
gsave
false false false false 260.000000 [(L1P_0) ] 0 51300 52400 180.555557 text
grestore
50100 52000 51200 52000 10 line
gsave
false false false false 260.000000 [(L1N_0) ] 0 51300 52000 180.555557 text
grestore
50100 51600 51200 51600 10 line
gsave
false false false false 260.000000 [(L2P_0) ] 0 51300 51600 180.555557 text
grestore
50100 50400 51200 50400 10 line
gsave
false false false false 260.000000 [(L3N_0) ] 0 51300 50400 180.555557 text
grestore
50100 50800 51200 50800 10 line
gsave
false false false false 260.000000 [(L3P_0) ] 0 51300 50800 180.555557 text
grestore
50100 51200 51200 51200 10 line
gsave
false false false false 260.000000 [(L2N_0) ] 0 51300 51200 180.555557 text
grestore
50100 49200 51200 49200 10 line
gsave
false false false false 260.000000 [(L34P_0) ] 0 51300 49200 180.555557 text
grestore
50100 49600 51200 49600 10 line
gsave
false false false false 260.000000 [(L4N_0) ] 0 51300 49600 180.555557 text
grestore
50100 50000 51200 50000 10 line
gsave
false false false false 260.000000 [(L4P_0) ] 0 51300 50000 180.555557 text
grestore
50100 48000 51200 48000 10 line
gsave
false false false false 260.000000 [(L35N_0) ] 0 51300 48000 180.555557 text
grestore
50100 48400 51200 48400 10 line
gsave
false false false false 260.000000 [(L35P_0) ] 0 51300 48400 180.555557 text
grestore
50100 48800 51200 48800 10 line
gsave
false false false false 260.000000 [(L34N_0) ] 0 51300 48800 180.555557 text
grestore
50100 46800 51200 46800 10 line
gsave
false false false false 260.000000 [(L37P_0) ] 0 51300 46800 180.555557 text
grestore
50100 47200 51200 47200 10 line
gsave
false false false false 260.000000 [(L36N_0) ] 0 51300 47200 180.555557 text
grestore
50100 47600 51200 47600 10 line
gsave
false false false false 260.000000 [(L36P_0) ] 0 51300 47600 180.555557 text
grestore
50100 45600 51200 45600 10 line
gsave
false false false false 260.000000 [(L62N_0) ] 0 51300 45600 180.555557 text
grestore
50100 46000 51200 46000 10 line
gsave
false false false false 260.000000 [(L62P_0) ] 0 51300 46000 180.555557 text
grestore
50100 46400 51200 46400 10 line
gsave
false false false false 260.000000 [(L37N_0) ] 0 51300 46400 180.555557 text
grestore
50100 44400 51200 44400 10 line
gsave
false false false false 260.000000 [(L64P_0) ] 0 51300 44400 180.555557 text
grestore
50100 44800 51200 44800 10 line
gsave
false false false false 260.000000 [(L63N_0) ] 0 51300 44800 180.555557 text
grestore
50100 45200 51200 45200 10 line
gsave
false false false false 260.000000 [(L63P_0) ] 0 51300 45200 180.555557 text
grestore
50100 43200 51200 43200 10 line
gsave
false false false false 260.000000 [(L65N_0) ] 0 51300 43200 180.555557 text
grestore
50100 43600 51200 43600 10 line
gsave
false false false false 260.000000 [(L65P_0) ] 0 51300 43600 180.555557 text
grestore
50100 44000 51200 44000 10 line
gsave
false false false false 260.000000 [(L64N_0) ] 0 51300 44000 180.555557 text
grestore
50100 42400 51200 42400 10 line
gsave
false false false false 260.000000 [(L66N_0) ] 0 51300 42400 180.555557 text
grestore
50100 42800 51200 42800 10 line
gsave
false false false false 260.000000 [(L66P_0) ] 0 51300 42800 180.555557 text
grestore
gsave
38000 39100 61300 39100 10 line
61300 39100 61300 55600 10 line
61300 55600 38000 55600 10 line
38000 55600 38000 39100 10 line
57200 39700 57200 39100 10 line
gsave
false false false false 208.000000 [(FILE:) ] 0 53800 39500 144.444443 text
grestore
gsave
false false false false 208.000000 [(REVISION:) ] 0 57300 39500 144.444443 text
grestore
gsave
false false false false 208.000000 [(DRAWN BY: ) ] 0 57300 39200 144.444443 text
grestore
gsave
false false false false 208.000000 [(PAGE) ] 0 53800 39200 144.444443 text
grestore
gsave
false false false false 208.000000 [(OF) ] 0 55500 39200 144.444443 text
grestore
gsave
false false false false 208.000000 [(TITLE) ] 0 53800 39800 144.444443 text
grestore
53700 39100 61300 39100 10 line
61300 39100 61300 40500 10 line
61300 40500 53700 40500 10 line
53700 40500 53700 39100 10 line
53700 39700 61300 39700 10 line
grestore
gsave
58300 54100 58300 54300 10 line
58150 54300 58450 54300 10 line
gsave
false false false false 208.000000 [(+3.3V) ] 0 58175 54350 144.444443 text
grestore
grestore
57200 53600 58300 53600 10 line
58300 52800 58300 54100 10 line
57200 53200 58300 53200 10 line
57200 52800 58300 52800 10 line
57200 52400 58300 52400 10 line
gsave
false false false false 260.000000 [(L1P_1) ] 0 58400 52400 180.555557 text
grestore
57200 52000 58300 52000 10 line
gsave
false false false false 260.000000 [(L1N_1) ] 0 58400 52000 180.555557 text
grestore
57200 51600 58300 51600 10 line
gsave
false false false false 260.000000 [(L32P_1) ] 0 58400 51600 180.555557 text
grestore
57200 50400 58300 50400 10 line
gsave
false false false false 260.000000 [(L33N_1) ] 0 58400 50400 180.555557 text
grestore
57200 50800 58300 50800 10 line
gsave
false false false false 260.000000 [(L33P_1) ] 0 58400 50800 180.555557 text
grestore
57200 51200 58300 51200 10 line
gsave
false false false false 260.000000 [(L32N_1) ] 0 58400 51200 180.555557 text
grestore
57200 49200 58300 49200 10 line
gsave
false false false false 260.000000 [(L40P_1) ] 0 58400 49200 180.555557 text
grestore
57200 49600 58300 49600 10 line
gsave
false false false false 260.000000 [(L34N_1) ] 0 58400 49600 180.555557 text
grestore
57200 50000 58300 50000 10 line
gsave
false false false false 260.000000 [(L34P_1) ] 0 58400 50000 180.555557 text
grestore
57200 48000 58300 48000 10 line
gsave
false false false false 260.000000 [(L41N_1) ] 0 58400 48000 180.555557 text
grestore
57200 48400 58300 48400 10 line
gsave
false false false false 260.000000 [(L41P_1) ] 0 58400 48400 180.555557 text
grestore
57200 48800 58300 48800 10 line
gsave
false false false false 260.000000 [(L40N_1) ] 0 58400 48800 180.555557 text
grestore
57200 46800 58300 46800 10 line
gsave
false false false false 260.000000 [(L43P_1) ] 0 58400 46800 180.555557 text
grestore
57200 47200 58300 47200 10 line
gsave
false false false false 260.000000 [(L42N_1) ] 0 58400 47200 180.555557 text
grestore
57200 47600 58300 47600 10 line
gsave
false false false false 260.000000 [(L42P_1) ] 0 58400 47600 180.555557 text
grestore
57200 45600 58300 45600 10 line
gsave
false false false false 260.000000 [(L45N_1) ] 0 58400 45600 180.555557 text
grestore
57200 46000 58300 46000 10 line
gsave
false false false false 260.000000 [(L45P_1) ] 0 58400 46000 180.555557 text
grestore
57200 46400 58300 46400 10 line
gsave
false false false false 260.000000 [(L43N_1) ] 0 58400 46400 180.555557 text
grestore
57200 44400 58300 44400 10 line
gsave
false false false false 260.000000 [(L47P_1) ] 0 58400 44400 180.555557 text
grestore
57200 44800 58300 44800 10 line
gsave
false false false false 260.000000 [(L46N_1) ] 0 58400 44800 180.555557 text
grestore
57200 45200 58300 45200 10 line
gsave
false false false false 260.000000 [(L46P_1) ] 0 58400 45200 180.555557 text
grestore
57200 43200 58300 43200 10 line
gsave
false false false false 260.000000 [(L74N_1) ] 0 58400 43200 180.555557 text
grestore
57200 43600 58300 43600 10 line
gsave
false false false false 260.000000 [(L74P_1) ] 0 58400 43600 180.555557 text
grestore
57200 44000 58300 44000 10 line
gsave
false false false false 260.000000 [(L47N_1) ] 0 58400 44000 180.555557 text
grestore
gsave
47600 54100 49200 54100 10 line
49200 54100 49200 42000 10 line
50100 53600 49200 53600 10 line
gsave
false true false false 260.000000 [(P122) ] 0 50645 53595 180.555557 text
grestore
50100 42400 49200 42400 10 line
gsave
false true false false 260.000000 [(P125) ] 0 50645 42395 180.555557 text
grestore
50100 42800 49200 42800 10 line
gsave
false true false false 260.000000 [(P135) ] 0 50645 42795 180.555557 text
grestore
50100 43200 49200 43200 10 line
gsave
false true false false 260.000000 [(P144) ] 0 50645 43195 180.555557 text
grestore
gsave
false false false false 260.000000 [(VCCO_0) ] 0 48300 53600 180.555557 text
grestore
gsave
false false false false 260.000000 [(VCCO_0) ] 0 48300 53200 180.555557 text
grestore
gsave
false false false false 260.000000 [(VCCO_0) ] 0 48300 52800 180.555557 text
grestore
gsave
false false false false 260.000000 [(IO_L1P_HSWAPEN_0) ] 0 47200 52400 180.555557 text
grestore
gsave
false false false false 260.000000 [(IO_L1N_VREF_0) ] 0 47600 52000 180.555557 text
grestore
gsave
false false false false 260.000000 [(IO_L2P_0) ] 0 48200 51600 180.555557 text
grestore
gsave
false false false false 260.000000 [(IO_L2N_0) ] 0 48200 51200 180.555557 text
grestore
gsave
false false false false 260.000000 [(IO_L3P_0) ] 0 48200 50800 180.555557 text
grestore
gsave
false false false false 260.000000 [(IO_L3N_0) ] 0 48200 50400 180.555557 text
grestore
gsave
false false false false 260.000000 [(IO_L4P_0) ] 0 48200 50000 180.555557 text
grestore
gsave
false false false false 260.000000 [(IO_L4N_0) ] 0 48200 49600 180.555557 text
grestore
gsave
false false false false 260.000000 [(IO_L34P_GCLK19_0) ] 0 47300 49200 180.555557 text
grestore
gsave
false false false false 260.000000 [(IO_L34N_GCLK18_0) ] 0 47300 48800 180.555557 text
grestore
gsave
false false false false 260.000000 [(IO_L35P_GCLK17_0) ] 0 47300 48400 180.555557 text
grestore
gsave
false false false false 260.000000 [(IO_L35N_GCLK16_0) ] 0 47300 48000 180.555557 text
grestore
gsave
false false false false 260.000000 [(IO_L36P_GCLK15_0) ] 0 47300 47600 180.555557 text
grestore
gsave
false false false false 260.000000 [(IO_L36N_GCLK14_0) ] 0 47300 47200 180.555557 text
grestore
gsave
false false false false 260.000000 [(IO_L37P_GCLK13_0) ] 0 47300 46800 180.555557 text
grestore
gsave
false false false false 260.000000 [(IO_L37N_GCLK12_0) ] 0 47300 46400 180.555557 text
grestore
gsave
false false false false 260.000000 [(IO_L62P_0) ] 0 48100 46000 180.555557 text
grestore
gsave
false false false false 260.000000 [(IO_L62N_VREF_0) ] 0 47500 45600 180.555557 text
grestore
gsave
false false false false 260.000000 [(IO_L63P_SCP7_0) ] 0 47500 45200 180.555557 text
grestore
gsave
false false false false 260.000000 [(IO_L63N_SCP6_0) ] 0 47500 44800 180.555557 text
grestore
gsave
false false false false 260.000000 [(IO_L64P_SCP5_0) ] 0 47500 44400 180.555557 text
grestore
gsave
false false false false 260.000000 [(IO_L64N_SCP4_0) ] 0 47500 44000 180.555557 text
grestore
gsave
false false false false 260.000000 [(IO_L65P_SCP3_0) ] 0 47500 43600 180.555557 text
grestore
gsave
false false false false 260.000000 [(IO_L65N_SCP2_0) ] 0 47500 43200 180.555557 text
grestore
gsave
false false false false 260.000000 [(IO_L66P_SCP1_0) ] 0 47500 42800 180.555557 text
grestore
gsave
false false false false 260.000000 [(IO_L66N_SCP0_0) ] 0 47500 42400 180.555557 text
grestore
49200 42000 46600 42000 10 line
50100 43600 49200 43600 10 line
gsave
false true false false 260.000000 [(P143) ] 0 50645 43595 180.555557 text
grestore
50100 44000 49200 44000 10 line
gsave
false true false false 260.000000 [(P142) ] 0 50645 43995 180.555557 text
grestore
50100 44400 49200 44400 10 line
gsave
false true false false 260.000000 [(P141) ] 0 50645 44395 180.555557 text
grestore
50100 44800 49200 44800 10 line
gsave
false true false false 260.000000 [(P140) ] 0 50645 44795 180.555557 text
grestore
50100 45200 49200 45200 10 line
gsave
false true false false 260.000000 [(P139) ] 0 50645 45195 180.555557 text
grestore
50100 45600 49200 45600 10 line
gsave
false true false false 260.000000 [(P138) ] 0 50645 45595 180.555557 text
grestore
50100 46000 49200 46000 10 line
gsave
false true false false 260.000000 [(P137) ] 0 50645 45995 180.555557 text
grestore
50100 46400 49200 46400 10 line
gsave
false true false false 260.000000 [(P134) ] 0 50645 46395 180.555557 text
grestore
50100 46800 49200 46800 10 line
gsave
false true false false 260.000000 [(P133) ] 0 50645 46795 180.555557 text
grestore
50100 47200 49200 47200 10 line
gsave
false true false false 260.000000 [(P132) ] 0 50645 47195 180.555557 text
grestore
50100 47600 49200 47600 10 line
gsave
false true false false 260.000000 [(P131) ] 0 50645 47595 180.555557 text
grestore
50100 48000 49200 48000 10 line
gsave
false true false false 260.000000 [(P127) ] 0 50645 47995 180.555557 text
grestore
50100 48400 49200 48400 10 line
gsave
false true false false 260.000000 [(P126) ] 0 50645 48395 180.555557 text
grestore
50100 48800 49200 48800 10 line
gsave
false true false false 260.000000 [(P124) ] 0 50645 48795 180.555557 text
grestore
50100 49200 49200 49200 10 line
gsave
false true false false 260.000000 [(P123) ] 0 50645 49195 180.555557 text
grestore
50100 49600 49200 49600 10 line
gsave
false true false false 260.000000 [(P121) ] 0 50645 49595 180.555557 text
grestore
50100 50000 49200 50000 10 line
gsave
false true false false 260.000000 [(P120) ] 0 50645 49995 180.555557 text
grestore
50100 50400 49200 50400 10 line
gsave
false true false false 260.000000 [(P119) ] 0 50645 50395 180.555557 text
grestore
50100 50800 49200 50800 10 line
gsave
false true false false 260.000000 [(P118) ] 0 50645 50795 180.555557 text
grestore
50100 51200 49200 51200 10 line
gsave
false true false false 260.000000 [(P117) ] 0 50645 51195 180.555557 text
grestore
50100 51600 49200 51600 10 line
gsave
false true false false 260.000000 [(P116) ] 0 50645 51595 180.555557 text
grestore
50100 52000 49200 52000 10 line
gsave
false true false false 260.000000 [(P115) ] 0 50645 51995 180.555557 text
grestore
50100 52400 49200 52400 10 line
gsave
false true false false 260.000000 [(P114) ] 0 50645 52395 180.555557 text
grestore
50100 52800 49200 52800 10 line
gsave
false true false false 260.000000 [(P112) ] 0 50645 52795 180.555557 text
grestore
50100 53200 49200 53200 10 line
gsave
false true false false 260.000000 [(P111) ] 0 50645 53195 180.555557 text
grestore
grestore
gsave
false false false false 260.000000 [(6SLX9TQG144) ] 0 47800 41700 180.555557 text
grestore
gsave
false false false false 260.000000 [(U1B0) ] 0 48500 54266 180.555557 text
grestore
gsave
54700 54100 56300 54100 10 line
56300 54100 56300 42600 10 line
57200 53600 56300 53600 10 line
gsave
false true false false 260.000000 [(P76) ] 0 57745 53595 180.555557 text
grestore
57200 43200 56300 43200 10 line
gsave
false true false false 260.000000 [(P74) ] 0 57745 43195 180.555557 text
grestore
gsave
false false false false 260.000000 [(VCCO_1) ] 0 55400 53600 180.555557 text
grestore
gsave
false false false false 260.000000 [(VCCO_1) ] 0 55400 53200 180.555557 text
grestore
gsave
false false false false 260.000000 [(VCCO_1) ] 0 55400 52800 180.555557 text
grestore
gsave
false false false false 260.000000 [(IO_L1P_1) ] 0 55300 52400 180.555557 text
grestore
gsave
false false false false 260.000000 [(IO_L1N_VREF_1) ] 0 54700 52000 180.555557 text
grestore
gsave
false false false false 260.000000 [(IO_L32P_1) ] 0 55200 51600 180.555557 text
grestore
gsave
false false false false 260.000000 [(IO_L32N_1) ] 0 55200 51200 180.555557 text
grestore
gsave
false false false false 260.000000 [(IO_L33P_1) ] 0 55200 50800 180.555557 text
grestore
gsave
false false false false 260.000000 [(IO_L33N_1) ] 0 55200 50400 180.555557 text
grestore
gsave
false false false false 260.000000 [(IO_L34P_1) ] 0 55200 50000 180.555557 text
grestore
gsave
false false false false 260.000000 [(IO_L34N_1) ] 0 55200 49600 180.555557 text
grestore
gsave
false false false false 260.000000 [(IO_L40P_GCLK11_1) ] 0 54400 49200 180.555557 text
grestore
gsave
false false false false 260.000000 [(IO_L40N_GCLK10_1) ] 0 54400 48800 180.555557 text
grestore
gsave
false false false false 260.000000 [(IO_L41P_GCLK9_IRDY1_1) ] 0 53900 48400 180.555557 text
grestore
gsave
false false false false 260.000000 [(IO_L41N_GCLK8_1) ] 0 54500 48000 180.555557 text
grestore
gsave
false false false false 260.000000 [(IO_L42P_GCLK7_1) ] 0 54500 47600 180.555557 text
grestore
gsave
false false false false 260.000000 [(IO_L42N_GCLK6_TRDY1_1) ] 0 53800 47200 180.555557 text
grestore
gsave
false false false false 260.000000 [(IO_L43P_GCLK5_1) ] 0 54500 46800 180.555557 text
grestore
gsave
false false false false 260.000000 [(IO_L43N_GCLK4_1) ] 0 54500 46400 180.555557 text
grestore
gsave
false false false false 260.000000 [(IO_L45P_1) ] 0 55200 46000 180.555557 text
grestore
gsave
false false false false 260.000000 [(IO_L45N_1) ] 0 55200 45600 180.555557 text
grestore
gsave
false false false false 260.000000 [(IO_L46P_1) ] 0 55200 45200 180.555557 text
grestore
gsave
false false false false 260.000000 [(IO_L46N_1) ] 0 55200 44800 180.555557 text
grestore
gsave
false false false false 260.000000 [(IO_L47P_1) ] 0 55200 44400 180.555557 text
grestore
gsave
false false false false 260.000000 [(IO_L47N_1) ] 0 55200 44000 180.555557 text
grestore
gsave
false false false false 260.000000 [(IO_L74P_AWAKE_1) ] 0 54500 43600 180.555557 text
grestore
gsave
false false false false 260.000000 [(IO_L74N_DOUT_BUSY_1) ] 0 54000 43200 180.555557 text
grestore
56300 42600 53900 42600 10 line
57200 43600 56300 43600 10 line
gsave
false true false false 260.000000 [(P75) ] 0 57745 43595 180.555557 text
grestore
57200 44000 56300 44000 10 line
gsave
false true false false 260.000000 [(P78) ] 0 57745 43995 180.555557 text
grestore
57200 44400 56300 44400 10 line
gsave
false true false false 260.000000 [(P79) ] 0 57745 44395 180.555557 text
grestore
57200 44800 56300 44800 10 line
gsave
false true false false 260.000000 [(P80) ] 0 57745 44795 180.555557 text
grestore
57200 45200 56300 45200 10 line
gsave
false true false false 260.000000 [(P81) ] 0 57745 45195 180.555557 text
grestore
57200 45600 56300 45600 10 line
gsave
false true false false 260.000000 [(P82) ] 0 57745 45595 180.555557 text
grestore
57200 46000 56300 46000 10 line
gsave
false true false false 260.000000 [(P83) ] 0 57745 45995 180.555557 text
grestore
57200 46400 56300 46400 10 line
gsave
false true false false 260.000000 [(P84) ] 0 57745 46395 180.555557 text
grestore
57200 46800 56300 46800 10 line
gsave
false true false false 260.000000 [(P85) ] 0 57745 46795 180.555557 text
grestore
57200 47200 56300 47200 10 line
gsave
false true false false 260.000000 [(P87) ] 0 57745 47195 180.555557 text
grestore
57200 47600 56300 47600 10 line
gsave
false true false false 260.000000 [(P88) ] 0 57745 47595 180.555557 text
grestore
57200 48000 56300 48000 10 line
gsave
false true false false 260.000000 [(P92) ] 0 57745 47995 180.555557 text
grestore
57200 48400 56300 48400 10 line
gsave
false true false false 260.000000 [(P93) ] 0 57745 48395 180.555557 text
grestore
57200 48800 56300 48800 10 line
gsave
false true false false 260.000000 [(P94) ] 0 57745 48795 180.555557 text
grestore
57200 49200 56300 49200 10 line
gsave
false true false false 260.000000 [(P95) ] 0 57745 49195 180.555557 text
grestore
57200 49600 56300 49600 10 line
gsave
false true false false 260.000000 [(P97) ] 0 57745 49595 180.555557 text
grestore
57200 50000 56300 50000 10 line
gsave
false true false false 260.000000 [(P98) ] 0 57745 49995 180.555557 text
grestore
57200 50400 56300 50400 10 line
gsave
false true false false 260.000000 [(P99) ] 0 57745 50395 180.555557 text
grestore
57200 50800 56300 50800 10 line
gsave
false true false false 260.000000 [(P100) ] 0 57745 50795 180.555557 text
grestore
57200 51200 56300 51200 10 line
gsave
false true false false 260.000000 [(P101) ] 0 57745 51195 180.555557 text
grestore
57200 51600 56300 51600 10 line
gsave
false true false false 260.000000 [(P102) ] 0 57745 51595 180.555557 text
grestore
57200 52000 56300 52000 10 line
gsave
false true false false 260.000000 [(P104) ] 0 57745 51995 180.555557 text
grestore
57200 52400 56300 52400 10 line
gsave
false true false false 260.000000 [(P105) ] 0 57745 52395 180.555557 text
grestore
57200 52800 56300 52800 10 line
gsave
false true false false 260.000000 [(P103) ] 0 57745 52795 180.555557 text
grestore
57200 53200 56300 53200 10 line
gsave
false true false false 260.000000 [(P86) ] 0 57745 53195 180.555557 text
grestore
grestore
gsave
false false false false 260.000000 [(6SLX9TQG144) ] 0 54800 42200 180.555557 text
grestore
gsave
false false false false 260.000000 [(U1B1) ] 0 55600 54266 180.555557 text
grestore
gsave
40700 54100 42300 54100 10 line
42300 54100 42300 40900 10 line
43200 53600 42300 53600 10 line
gsave
false true false false 260.000000 [(P42) ] 0 43745 53595 180.555557 text
grestore
43200 43200 42300 43200 10 line
gsave
false true false false 260.000000 [(P43) ] 0 43745 43195 180.555557 text
grestore
gsave
false false false false 260.000000 [(VCCO_2) ] 0 41400 53600 180.555557 text
grestore
gsave
false false false false 260.000000 [(VCCO_2) ] 0 41400 53200 180.555557 text
grestore
gsave
false false false false 260.000000 [(CMPCS_B_2) ] 0 41100 52800 180.555557 text
grestore
gsave
false false false false 260.000000 [(DONE_2) ] 0 41400 52400 180.555557 text
grestore
gsave
false false false false 260.000000 [(PROGRAM_B_2) ] 0 40800 52000 180.555557 text
grestore
gsave
false false false false 260.000000 [(IO_L1P_CCLK_2) ] 0 40800 51600 180.555557 text
grestore
gsave
false false false false 260.000000 [(IO_L1N_M0_CMPMISO_2) ] 0 40100 51200 180.555557 text
grestore
gsave
false false false false 260.000000 [(IO_L2P_CMPCLK_2) ] 0 40500 50800 180.555557 text
grestore
gsave
false false false false 260.000000 [(IO_L2N_CMPMOSI_2) ] 0 40400 50400 180.555557 text
grestore
gsave
false false false false 260.000000 [(IO_L3P_D0_DIN_MISO_MISO1_2) ] 0 39400 50000 180.555557 text
grestore
gsave
false false false false 260.000000 [(IO_L3N_MOSI_CSI_B_MISO0_2) ] 0 39500 49600 180.555557 text
grestore
gsave
false false false false 260.000000 [(IO_L12P_D1_MISO2_2) ] 0 40300 49200 180.555557 text
grestore
gsave
false false false false 260.000000 [(IO_L12N_D2_MISO3_2) ] 0 40300 48800 180.555557 text
grestore
gsave
false false false false 260.000000 [(IO_L13P_M1_2) ] 0 40900 48400 180.555557 text
grestore
gsave
false false false false 260.000000 [(IO_L13N_D10_2) ] 0 40800 48000 180.555557 text
grestore
gsave
false false false false 260.000000 [(IO_L14P_D11_2) ] 0 40800 47600 180.555557 text
grestore
gsave
false false false false 260.000000 [(IO_L14N_D12_2) ] 0 40800 47200 180.555557 text
grestore
gsave
false false false false 260.000000 [(IO_L30P_GCLK1_D13_2) ] 0 40200 46800 180.555557 text
grestore
gsave
false false false false 260.000000 [(IO_L30N_GCLK0_USERCCLK_2) ] 0 39500 46400 180.555557 text
grestore
gsave
false false false false 260.000000 [(IO_L31P_GCLK31_D14_2) ] 0 40000 46000 180.555557 text
grestore
gsave
false false false false 260.000000 [(IO_L31N_GCLK30_D15_2) ] 0 40000 45600 180.555557 text
grestore
gsave
false false false false 260.000000 [(IO_L48P_D7_2) ] 0 40900 45200 180.555557 text
grestore
gsave
false false false false 260.000000 [(IO_L48N_RDWR_B_VREF_2) ] 0 39800 44800 180.555557 text
grestore
gsave
false false false false 260.000000 [(IO_L49P_D3_2) ] 0 40900 44400 180.555557 text
grestore
gsave
false false false false 260.000000 [(IO_L49N_D4_2) ] 0 40900 44000 180.555557 text
grestore
gsave
false false false false 260.000000 [(IO_L62P_D5_2) ] 0 40900 43600 180.555557 text
grestore
gsave
false false false false 260.000000 [(IO_L62N_D6_2) ] 0 40900 43200 180.555557 text
grestore
43200 43600 42300 43600 10 line
gsave
false true false false 260.000000 [(P44) ] 0 43745 43595 180.555557 text
grestore
43200 44000 42300 44000 10 line
gsave
false true false false 260.000000 [(P45) ] 0 43745 43995 180.555557 text
grestore
43200 44400 42300 44400 10 line
gsave
false true false false 260.000000 [(P46) ] 0 43745 44395 180.555557 text
grestore
43200 44800 42300 44800 10 line
gsave
false true false false 260.000000 [(P47) ] 0 43745 44795 180.555557 text
grestore
43200 45200 42300 45200 10 line
gsave
false true false false 260.000000 [(P48) ] 0 43745 45195 180.555557 text
grestore
43200 45600 42300 45600 10 line
gsave
false true false false 260.000000 [(P50) ] 0 43745 45595 180.555557 text
grestore
43200 46000 42300 46000 10 line
gsave
false true false false 260.000000 [(P51) ] 0 43745 45995 180.555557 text
grestore
43200 46400 42300 46400 10 line
gsave
false true false false 260.000000 [(P55) ] 0 43745 46395 180.555557 text
grestore
43200 46800 42300 46800 10 line
gsave
false true false false 260.000000 [(P56) ] 0 43745 46795 180.555557 text
grestore
43200 47200 42300 47200 10 line
gsave
false true false false 260.000000 [(P57) ] 0 43745 47195 180.555557 text
grestore
43200 47600 42300 47600 10 line
gsave
false true false false 260.000000 [(P58) ] 0 43745 47595 180.555557 text
grestore
43200 48000 42300 48000 10 line
gsave
false true false false 260.000000 [(P59) ] 0 43745 47995 180.555557 text
grestore
43200 48400 42300 48400 10 line
gsave
false true false false 260.000000 [(P60) ] 0 43745 48395 180.555557 text
grestore
43200 48800 42300 48800 10 line
gsave
false true false false 260.000000 [(P61) ] 0 43745 48795 180.555557 text
grestore
43200 49200 42300 49200 10 line
gsave
false true false false 260.000000 [(P62) ] 0 43745 49195 180.555557 text
grestore
43200 49600 42300 49600 10 line
gsave
false true false false 260.000000 [(P64) ] 0 43745 49595 180.555557 text
grestore
43200 50000 42300 50000 10 line
gsave
false true false false 260.000000 [(P65) ] 0 43745 49995 180.555557 text
grestore
43200 50400 42300 50400 10 line
gsave
false true false false 260.000000 [(P66) ] 0 43745 50395 180.555557 text
grestore
43200 50800 42300 50800 10 line
gsave
false true false false 260.000000 [(P67) ] 0 43745 50795 180.555557 text
grestore
43200 51200 42300 51200 10 line
gsave
false true false false 260.000000 [(P69) ] 0 43745 51195 180.555557 text
grestore
43200 51600 42300 51600 10 line
gsave
false true false false 260.000000 [(P70) ] 0 43745 51595 180.555557 text
grestore
43200 52000 42300 52000 10 line
gsave
false true false false 260.000000 [(P37) ] 0 43745 51995 180.555557 text
grestore
43200 52400 42300 52400 10 line
gsave
false true false false 260.000000 [(P71) ] 0 43745 52395 180.555557 text
grestore
43200 52800 42300 52800 10 line
gsave
false true false false 260.000000 [(P72) ] 0 43745 52795 180.555557 text
grestore
43200 53200 42300 53200 10 line
gsave
false true false false 260.000000 [(P63) ] 0 43745 53195 180.555557 text
grestore
42300 40900 39900 40900 10 line
43200 41600 42300 41600 10 line
gsave
false true false false 260.000000 [(P38) ] 0 43745 41595 180.555557 text
grestore
43200 42000 42300 42000 10 line
gsave
false true false false 260.000000 [(P39) ] 0 43745 41995 180.555557 text
grestore
43200 42400 42300 42400 10 line
gsave
false true false false 260.000000 [(P40) ] 0 43745 42395 180.555557 text
grestore
43200 42800 42300 42800 10 line
gsave
false true false false 260.000000 [(P41) ] 0 43745 42795 180.555557 text
grestore
gsave
false false false false 260.000000 [(IO_L64N_D9_2) ] 0 40900 42400 180.555557 text
grestore
gsave
false false false false 260.000000 [(IO_L65P_INIT_B_2) ] 0 40600 42000 180.555557 text
grestore
gsave
false false false false 260.000000 [(IO_L65N_CSO_B_2) ] 0 40500 41600 180.555557 text
grestore
gsave
false false false false 260.000000 [(IO_L64P_D8_2) ] 0 40900 42800 180.555557 text
grestore
grestore
gsave
false false false false 260.000000 [(6SLX9TQG144) ] 0 40800 40600 180.555557 text
grestore
gsave
false false false false 260.000000 [(U1B2) ] 0 41600 54266 180.555557 text
grestore
gsave
44300 54100 44300 54300 10 line
44150 54300 44450 54300 10 line
gsave
false false false false 208.000000 [(+3.3V) ] 0 44175 54350 144.444443 text
grestore
grestore
43200 53600 44300 53600 10 line
44300 53200 44300 54100 10 line
43200 53200 44300 53200 10 line
43200 52400 44300 52400 10 line
gsave
false false false false 260.000000 [(DONE) ] 0 44400 52400 180.555557 text
grestore
43200 52000 44300 52000 10 line
gsave
false false false false 260.000000 [(PROGRAM_B) ] 0 44400 52000 180.555557 text
grestore
43200 50800 44300 50800 10 line
gsave
false false false false 260.000000 [(L2P_2) ] 0 44400 50800 180.555557 text
grestore
43200 51200 45500 51200 10 line
43200 51600 44300 51600 10 line
gsave
false false false false 260.000000 [(CCLK) ] 0 44400 51600 180.555557 text
grestore
43200 49600 45500 49600 10 line
43200 50000 44300 50000 10 line
gsave
false false false false 260.000000 [(D0) ] 0 44400 50000 180.555557 text
grestore
43200 50400 44300 50400 10 line
gsave
false false false false 260.000000 [(L2N_2) ] 0 44400 50400 180.555557 text
grestore
43200 48400 46000 48400 10 line
43200 48800 44300 48800 10 line
gsave
false false false false 260.000000 [(D2) ] 0 44400 48800 180.555557 text
grestore
43200 49200 44300 49200 10 line
gsave
false false false false 260.000000 [(D1) ] 0 44400 49200 180.555557 text
grestore
43200 47200 44300 47200 10 line
gsave
false false false false 260.000000 [(L14N_2) ] 0 44400 47200 180.555557 text
grestore
43200 47600 44300 47600 10 line
gsave
false false false false 260.000000 [(L14P_2) ] 0 44400 47600 180.555557 text
grestore
43200 48000 44300 48000 10 line
gsave
false false false false 260.000000 [(AVR_RX) ] 0 44400 48000 180.555557 text
grestore
43200 46000 44300 46000 10 line
gsave
false false false false 260.000000 [(L31P_2) ] 0 44400 46000 180.555557 text
grestore
43200 46400 44300 46400 10 line
gsave
false false false false 260.000000 [(AVR_TX) ] 0 44400 46400 180.555557 text
grestore
43200 46800 44300 46800 10 line
gsave
false false false false 260.000000 [(CLK) ] 0 44400 46800 180.555557 text
grestore
43200 44800 45500 44800 10 line
43200 45200 44300 45200 10 line
gsave
false false false false 260.000000 [(SS) ] 0 44400 45200 180.555557 text
grestore
43200 45600 44300 45600 10 line
gsave
false false false false 260.000000 [(L31N_2) ] 0 44400 45600 180.555557 text
grestore
43200 43600 44300 43600 10 line
gsave
false false false false 260.000000 [(MOSI) ] 0 44400 43600 180.555557 text
grestore
43200 44000 44300 44000 10 line
gsave
false false false false 260.000000 [(MISO) ] 0 44400 44000 180.555557 text
grestore
43200 44400 44300 44400 10 line
gsave
false false false false 260.000000 [(D3) ] 0 44400 44400 180.555557 text
grestore
43200 42800 44300 42800 10 line
gsave
false false false false 260.000000 [(L64P_2) ] 0 44400 42800 180.555557 text
grestore
43200 43200 44300 43200 10 line
gsave
false false false false 260.000000 [(SCK) ] 0 44400 43200 180.555557 text
grestore
43200 42400 44300 42400 10 line
gsave
false false false false 260.000000 [(L64N_2) ] 0 44400 42400 180.555557 text
grestore
43200 41600 44300 41600 10 line
gsave
false false false false 260.000000 [(L65N_2) ] 0 44400 41600 180.555557 text
grestore
43200 42000 44300 42000 10 line
gsave
false false false false 260.000000 [(INIT_B) ] 0 44400 42000 180.555557 text
grestore
gsave
46000 48900 46000 49100 10 line
45850 49100 46150 49100 10 line
gsave
false false false false 208.000000 [(+3.3V) ] 0 45875 49150 144.444443 text
grestore
grestore
46000 48400 46000 48900 10 line
45500 41000 45500 51200 10 line
gsave
false false false false 260.000000 [(Z-BOARD) ] 0 54400 39800 180.555557 text
grestore
gsave
false false false false 260.000000 [(5) ] 0 54700 39200 180.555557 text
grestore
gsave
false false false false 260.000000 [(7) ] 0 56400 39200 180.555557 text
grestore
gsave
false false false false 260.000000 [(Aaron Storey) ] 0 58200 39200 180.555557 text
grestore
newpath
51200 53600
25
0 360 arc
fill
newpath
51200 53600
25
0 360 arc
fill
newpath
51200 53600
25
0 360 arc
fill
newpath
51200 53200
25
0 360 arc
fill
newpath
51200 53200
25
0 360 arc
fill
newpath
51200 53200
25
0 360 arc
fill
60 60 51170 52370 fbox
60 60 51170 51970 fbox
60 60 51170 51570 fbox
60 60 51170 50370 fbox
60 60 51170 50770 fbox
60 60 51170 51170 fbox
60 60 51170 49170 fbox
60 60 51170 49570 fbox
60 60 51170 49970 fbox
60 60 51170 47970 fbox
60 60 51170 48370 fbox
60 60 51170 48770 fbox
60 60 51170 46770 fbox
60 60 51170 47170 fbox
60 60 51170 47570 fbox
60 60 51170 45570 fbox
60 60 51170 45970 fbox
60 60 51170 46370 fbox
60 60 51170 44370 fbox
60 60 51170 44770 fbox
60 60 51170 45170 fbox
60 60 51170 43170 fbox
60 60 51170 43570 fbox
60 60 51170 43970 fbox
60 60 51170 42370 fbox
60 60 51170 42770 fbox
newpath
58300 53600
25
0 360 arc
fill
newpath
58300 53600
25
0 360 arc
fill
newpath
58300 53600
25
0 360 arc
fill
newpath
58300 53200
25
0 360 arc
fill
newpath
58300 53200
25
0 360 arc
fill
newpath
58300 53200
25
0 360 arc
fill
60 60 58270 52370 fbox
60 60 58270 51970 fbox
60 60 58270 51570 fbox
60 60 58270 50370 fbox
60 60 58270 50770 fbox
60 60 58270 51170 fbox
60 60 58270 49170 fbox
60 60 58270 49570 fbox
60 60 58270 49970 fbox
60 60 58270 47970 fbox
60 60 58270 48370 fbox
60 60 58270 48770 fbox
60 60 58270 46770 fbox
60 60 58270 47170 fbox
60 60 58270 47570 fbox
60 60 58270 45570 fbox
60 60 58270 45970 fbox
60 60 58270 46370 fbox
60 60 58270 44370 fbox
60 60 58270 44770 fbox
60 60 58270 45170 fbox
60 60 58270 43170 fbox
60 60 58270 43570 fbox
60 60 58270 43970 fbox
newpath
44300 53600
25
0 360 arc
fill
newpath
44300 53600
25
0 360 arc
fill
newpath
44300 53600
25
0 360 arc
fill
60 60 44270 52370 fbox
60 60 44270 51970 fbox
60 60 44270 50770 fbox
60 60 44270 51570 fbox
newpath
45500 49600
25
0 360 arc
fill
newpath
45500 49600
25
0 360 arc
fill
60 60 44270 49970 fbox
60 60 44270 50370 fbox
60 60 44270 48770 fbox
60 60 44270 49170 fbox
60 60 44270 47170 fbox
60 60 44270 47570 fbox
60 60 44270 47970 fbox
60 60 44270 45970 fbox
60 60 44270 46370 fbox
60 60 44270 46770 fbox
newpath
45500 44800
25
0 360 arc
fill
newpath
45500 44800
25
0 360 arc
fill
60 60 44270 45170 fbox
60 60 44270 45570 fbox
60 60 44270 43570 fbox
60 60 44270 43970 fbox
60 60 44270 44370 fbox
60 60 44270 42770 fbox
60 60 44270 43170 fbox
60 60 44270 42370 fbox
60 60 44270 41570 fbox
60 60 44270 41970 fbox
newpath
45500 44800
25
0 360 arc
fill
newpath
45500 49600
25
0 360 arc
fill
showpage
%%End
