%!PS-Adobe-3.0 EPSF-3.0
%%Creator: gEDA gschem 1.6.1-20100214-22-ga30f00b
%%CreationDate: Wed Oct 22 16:32:50 2014
%%Title: /home/freaktm/mojo/mojo-schematics/mojo_2.sch
%%Author: freaktm
%%BoundingBox: 0 0 1224 792
%%Orientation: Portrait
%%Pages: 1
%%Endcomments
%%BeginProlog
% Prolog for gEDA, define all the functions needed for rendering
% schematics on Postscript devices


% Draw a line from the second coordinate to the first
% x2 y2 x1 y1 width line -
/line {
    setlinewidth
    % pop off first element and moveto
    moveto
    % pop off remaining elements and draw a line segment
    lineto
    % draw it
    stroke
} bind def


% Draw a dot
% x y r dot -
/dot {
    0 360 arc fill
} bind def

% Draw a dot-dashed line, a bunch of lined segments,
% if the array element only has length two, draw a dot.
% [ [x2 y2 x1 y1] [x4 y4 x3 y3] [x5 y5] ... ] width dashed -
/width 0 def
/dashed {
    dup 2.0 div /width exch def
    setlinewidth
    % pop off each line segment and draw it as a dot or as a line
    {
	aload length 2 gt
	{ moveto lineto stroke}
	{ width dot } ifelse
    } forall
} bind def

% Draw an arc segment
% x y r ang1 ang2 width darc -
/darc {
    setlinewidth
    arc stroke
} bind def

% Draw a series of arc segment bits, if the array element only has a single
% element in it, draw a dot.
% [ [sa1 ea1] [sa2 ea2] ... ] x y r width dashedarc -
/x 0 def
/y 0 def
/dashedarc {
    dup /width exch def
    setlinewidth
    /r exch def  
    /y exch def
    /x exch def
    { aload length 1 gt
	{
	    % this element had two angles in it
	    % extract start and stop angles
	    x y r   % drop x y and r onto stack
		    % at this point we have: sa ea x y r
		    % we need                      x y r sa ea
		    % so..
	    5 -2 roll
	    % and add it to the current path, and draw it
	    arc stroke
	} {
	    % this element only had one angle in it, place a
	    % filled dot at the appropriate place
	    % compute center point of the arc using the angle
	    % that is on the top of the stack
	    dup   		% angle angle
	    cos r mul x add 	% angle x
	    exch		% x angle
	    sin r mul y add	% x y
	    width		% x y width/2
	    dot			% draw the dot
	} ifelse
    } forall

    % Now draw it
    stroke
} bind def

% Draw a box
% width height x y linethickness box -
/box {
    setlinewidth
    moveto
    exch dup 0 rlineto	 % w h, h w w 0      -- Draw bottom line
    exch 0 exch rlineto	 % h w, w h 0, w 0 h -- Draw right line 
    neg 0 rlineto	 % w, -w 0           -- Draw Top line
    closepath		 % finish and draw it
    stroke
} bind def			     

% Draw a filled box
% width height x y fbox -
/fbox {
    moveto
    exch dup 0 rlineto	
    exch 0 exch rlineto	
    neg 0 rlineto		
    closepath			
    fill			
} bind def

% Font reincoding utilities

% ISOLatin1Encoding, extended with remaining uncoded glyphs
/ISOLatin1Extended [
    /.notdef /Lslash /lslash /OE /oe /Scaron /scaron /Zcaron /zcaron
    /Ydieresis /trademark /bullet /dagger /daggerdbl /ellipsis /emdash
    /endash /fi /fl /florin /fraction /guilsinglleft /guilsinglright
    /perthousand /quotedblbase /quotedblleft /quotedblright
    /quotesinglbase /quotesingle /.notdef /.notdef /.notdef /space
    /exclam /quotedbl /numbersign /dollar /percent /ampersand
    /quoteright /parenleft /parenright /asterisk /plus /comma /minus
    /period /slash /zero /one /two /three /four /five /six /seven /eight
    /nine /colon /semicolon /less /equal /greater /question /at /A /B /C
    /D /E /F /G /H /I /J /K /L /M /N /O /P /Q /R /S /T /U /V /W /X /Y /Z
    /bracketleft /backslash /bracketright /asciicircum /underscore
    /quoteleft /a /b /c /d /e /f /g /h /i /j /k /l /m /n /o /p /q /r /s
    /t /u /v /w /x /y /z /braceleft /bar /braceright /asciitilde
    /.notdef /.notdef /.notdef /.notdef /.notdef /.notdef /.notdef
    /.notdef /.notdef /.notdef /.notdef /.notdef /.notdef /.notdef
    /.notdef /.notdef /.notdef /dotlessi /grave /acute /circumflex
    /tilde /macron /breve /dotaccent /dieresis /.notdef /ring /cedilla
    /.notdef /hungarumlaut /ogonek /caron /space /exclamdown /cent
    /sterling /currency /yen /brokenbar /section /dieresis /copyright
    /ordfeminine /guillemotleft /logicalnot /hyphen /registered /macron
    /degree /plusminus /twosuperior /threesuperior /acute /mu /paragraph
    /periodcentered /cedilla /onesuperior /ordmasculine /guillemotright
    /onequarter /onehalf /threequarters /questiondown /Agrave /Aacute
    /Acircumflex /Atilde /Adieresis /Aring /AE /Ccedilla /Egrave /Eacute
    /Ecircumflex /Edieresis /Igrave /Iacute /Icircumflex /Idieresis /Eth
    /Ntilde /Ograve /Oacute /Ocircumflex /Otilde /Odieresis /multiply
    /Oslash /Ugrave /Uacute /Ucircumflex /Udieresis /Yacute /Thorn
    /germandbls /agrave /aacute /acircumflex /atilde /adieresis /aring
    /ae /ccedilla /egrave /eacute /ecircumflex /edieresis /igrave
    /iacute /icircumflex /idieresis /eth /ntilde /ograve /oacute
    /ocircumflex /otilde /odieresis /divide /oslash /ugrave /uacute
    /ucircumflex /udieresis /yacute /thorn /ydieresis
] def

% `new-font-name' `encoding-vector' `old-font-name' RE -
/RE {
    findfont
    dup maxlength dict begin {
        1 index /FID ne { def } { pop pop } ifelse
    } forall
    /Encoding exch def
    dup /FontName exch def
    currentdict end definefont pop
} bind def

% Text handling functions, select the font and scale it, then we need
% only to apply the appropriate transformations to get the text
% justified into the right spots.  The bad thing here is that we don't
% do any kerning, so the output may look a bit strange.

% compute the height of one character and return lly and ury
% (char) charheight lly ury
/charheight {
    gsave			% push graphics state
	newpath			% clear current path
	0 0 moveto		% Set current point
	false charpath		% get path
	flattenpath		% flatten path
	pathbbox		% stack = llx lly urx ury
	exch pop		% stack = llx lly ury
	3 -1 roll pop		% stack = lly ury
    grestore			% pop graphics state
} bind def

% compute the height of a string, one character at a time
% (string) stringheight lly ury
/lly 0.0 def
/ury 0.0 def

/stringheight {
    /lly 0.0 def			% initial value of heightmin
    /ury 0.0 def			% initial value of heightmax
    {				% work through string
	( ) dup 0 4 -1 roll put	% create one character string
	charheight		% measure it's height
	dup ury gt {		% if ury gt heightmax
	    /ury exch def	% update with new value
	} {
	    pop			% else discard ury
	} ifelse
	dup lly lt {		% if lly lt heightmin
	    /lly exch def	% update with new value
	} {
	    pop			% else discard lly
	} ifelse
    } forall
    lly ury			% Return the results
} bind def

% calculate the string width taking into account the escapes.
/mystrx 0.0 def
/mystry 0.0 def
/mystresc false def

/mystringwidth {
    /mystrx 0.0 def
    /mystry 0.0 def
    /mystresc false def
    {				% work through string
	% did we process the escape character last?
	mystresc {
	    % last character was escape
	    % handle the escape
	    % is it an _ = 95?
	    dup 95 eq {
		pop  % we don't need the character anymore
		% toggle drawing overbars
		0.0 0.0 % make it like it never happened...
	    } {
		% otherwise measure the character 
		(\\ ) dup 1 4 -1 roll put % count a \ and the character
		stringwidth
	    } ifelse
	    % and reset the flag
	    /mystresc false def
	} {
	    % last character was not escape
	    % is this escape
	    dup 92 eq {
		% yes, escape character, set flag
		/mystresc true def
		pop % drop character
		0.0 0.0 % make like this character has no width and height
	    } {
		( ) dup 0 4 -1 roll put	% create one character string
		stringwidth		% measure it's height/width
	    } ifelse
	} ifelse
	% accumulate x and y movements
	mystry add /mystry exch def
	mystrx add /mystrx exch def
    } forall
    mystrx mystry % drop results on stack
} bind def

% Render a string with overbars
%
/escaped false def
/drawoverbar false def
/fontsize 0.0 def

%string1 string2 append -
/append {
    2 copy length exch length add % find new length
    string dup % string1 string2 string string
    4 2 roll % string string string1 string2
    2 index 0 3 index
    % string string string1 string2 string 0 string1
    putinterval % string string string1 string2
    exch length exch putinterval
} bind def

% If drawoverbar is set, draw a line of the same length as the given string
% string overbarshowline -
/overbarshowline {
    % print overbar if necessary
    stringwidth pop 0
    drawoverbar {
        rlineto
        gsave stroke grestore
    } {
        rmoveto
    } ifelse
} bind def

% Draws overbars for the given string, then shows the string itself
% string overbarshow
/overbarshow {
    /overbarshowacc () def
    /overbarshowtxt () def

    gsave
    fontsize 10.0 div setlinewidth
    0 fontsize rmoveto  % move to (0,overbarheight)

    {				% work through string
	escaped {
	    % the last character was the escape
	    % handle the escape
	    % is it an _ = 95?
	    dup 95 eq {
		pop  % we don't need the character anymore
                overbarshowacc overbarshowline
                % toggle drawing overbars
		/drawoverbar drawoverbar not def

                % Append the contents off the accumulator to the text
                % string we're eventually going to show
                /overbarshowtxt overbarshowtxt overbarshowacc append def

                % clear accumulator
                /overbarshowacc () def
	    } {
                % add to accumulator
                (\\ ) dup 1 4 -1 roll put
                overbarshowacc exch append
                /overbarshowacc exch def
	    } ifelse
	    % and reset the flag
	    /escaped false def
	} {
	    % check for escape character \ = 92
	    dup 92 eq {
		% yes, escape character, set flag
		/escaped true def
		pop % drop character
	    } {
                % add to accumulator
                ( ) dup 0 4 -1 roll put
                overbarshowacc exch append
                /overbarshowacc exch def
	    } ifelse
	} ifelse
    } forall
    % Catch any leftovers
    overbarshowacc overbarshowline
    overbarshowtxt overbarshowacc append

    grestore
    show
} bind def

% 
% hcenter rjustify vcenter vjustify spacing [(line1) (line2) ... ] rot x y size text -
/stringw 0.0 def
/stringh 0.0 def
/spacing 0.0 def
/strings [ ] def
/stringtxt ( ) def
/stringcount 0 def
/rot 0.0 def

/text {
    gsave	        % save state for later
    /drawoverbar false def      % start by not drawing overbars

    dup /fontsize exch def  % save font size for corrections later
    % do font selection 
    /gEDAFont findfont
    exch scalefont
    setfont

    % set up coordinates
    translate           % move origin to given point
    rotate		% rotate so that text is drawn
    0 0 moveto
    dup length /stringcount exch def			% Get number of strings
    /strings exch def     				% save strings
    /spacing exch def
    % do we have more than 1 string to render?
    stringcount 1 eq {
	/stringtxt strings aload pop def		% get the string 
	/stringw stringtxt mystringwidth pop neg def	% get the -width
	/stringh stringtxt stringheight exch pop neg def% get the -height

	% First do vertical calculations
	% hcenter rjustify vcenter vjustify 
	% vertical justification
	{ 0 stringh rmoveto } if 
	% vertical center
	{ 0 stringh 0.3571425 mul rmoveto } if  % not 0.5, so that
						% it looks nicer
	% Then do horizontal calculations
	% right justify
	{ stringw 0 rmoveto } if
	% center
	{ stringw 2.0 div 0 rmoveto } if
	% Draw the text
	stringtxt overbarshow
    } {
	% More than one line, compute bounding box for the text

	% vertical height, don't use the actual hieght of the characters
	% assume that the user wants to make the baselines line up with two
	% text boxes placed side by side
	/stringh stringcount spacing mul neg def
	% Now figure out horizontal size, this amounts to keeping track
	% of the longest string
	/stringw 0.0 def
	strings {
	    mystringwidth pop
	    dup stringw gt {
		/stringw exch def
	    } {
		pop
	    } ifelse
	} forall
	/stringw stringw neg def 	% get the -width
	
	% First do vertical calculations
	% hcenter rjustify vcenter vjustify 
	% vertical justification
	{ 0 stringh fontsize add rmoveto } if 
	% vertical center
	{ 0 stringh 0.5 mul rmoveto } if 
	% Then do horizontal calculations
	% right justify
	{ stringw 0 rmoveto } if
	% center
	{ stringw 2.0 div 0 rmoveto } if
	% now move up to the first line and begin rendering
	0 stringcount 1 sub spacing mul rmoveto
	strings {
	    gsave		% Save starting point
	    overbarshow		% render the text
	    grestore
	    0 spacing neg rmoveto
	} forall
    } ifelse
    grestore 	% Restore old state
} bind def


%%EndProlog
%%Page: 1 1
/gEDAFont ISOLatin1Extended /Helvetica RE
2 setlinecap
0.072000 0.072000 scale
0 0 translate
1.000000 1.000000 scale
-40000 -40000 translate
gsave
40000 40000 57000 40000 10 line
57000 40000 57000 51000 10 line
57000 51000 40000 51000 10 line
40000 51000 40000 40000 10 line
52900 40600 52900 40000 10 line
gsave
false false false false 208.000000 [(FILE:) ] 0 49500 40400 144.444443 text
grestore
gsave
false false false false 208.000000 [(REVISION:) ] 0 53000 40400 144.444443 text
grestore
gsave
false false false false 208.000000 [(DRAWN BY: ) ] 0 53000 40100 144.444443 text
grestore
gsave
false false false false 208.000000 [(PAGE) ] 0 49500 40100 144.444443 text
grestore
gsave
false false false false 208.000000 [(OF) ] 0 51200 40100 144.444443 text
grestore
gsave
false false false false 208.000000 [(TITLE) ] 0 49500 40700 144.444443 text
grestore
49400 40000 57000 40000 10 line
57000 40000 57000 41400 10 line
57000 41400 49400 41400 10 line
49400 41400 49400 40000 10 line
49400 40600 57000 40600 10 line
grestore
gsave
44700 40800 48200 40800 10 line
48200 40800 48200 49300 10 line
48200 49300 44700 49300 10 line
44700 49300 44700 40800 10 line
gsave
false false true false 624.000000 [(ATmega32U4TQFP) ] 270 46200 48500 433.333344 text
grestore
44600 49100 44700 49100 10 line
gsave
false false false false 260.000000 [(RESET) ] 0 44800 49100 180.555557 text
grestore
gsave
false true true false 260.000000 [(13) ] 0 44650 49200 180.555557 text
grestore
44600 48800 44700 48800 10 line
gsave
false false false false 260.000000 [(VCC) ] 0 44800 48800 180.555557 text
grestore
gsave
false true true false 260.000000 [(14) ] 0 44650 48900 180.555557 text
grestore
44600 48500 44700 48500 10 line
gsave
false false false false 260.000000 [(VCC) ] 0 44800 48500 180.555557 text
grestore
gsave
false true true false 260.000000 [(34) ] 0 44650 48600 180.555557 text
grestore
44600 48200 44700 48200 10 line
gsave
false false false false 260.000000 [(AVCC) ] 0 44800 48200 180.555557 text
grestore
gsave
false true true false 260.000000 [(24) ] 0 44650 48300 180.555557 text
grestore
44600 47900 44700 47900 10 line
gsave
false false false false 260.000000 [(AVCC) ] 0 44800 47900 180.555557 text
grestore
gsave
false true true false 260.000000 [(44) ] 0 44650 48000 180.555557 text
grestore
44600 47600 44700 47600 10 line
gsave
false false false false 260.000000 [(AREF) ] 0 44800 47600 180.555557 text
grestore
gsave
false true true false 260.000000 [(42) ] 0 44650 47700 180.555557 text
grestore
44600 46700 44700 46700 10 line
gsave
false false false false 260.000000 [(VBUS) ] 0 44800 46700 180.555557 text
grestore
gsave
false true true false 260.000000 [(7) ] 0 44650 46800 180.555557 text
grestore
44600 46400 44700 46400 10 line
gsave
false false false false 260.000000 [(UVCC) ] 0 44800 46400 180.555557 text
grestore
gsave
false true true false 260.000000 [(2) ] 0 44650 46500 180.555557 text
grestore
44600 46100 44700 46100 10 line
gsave
false false false false 260.000000 [(UCAP) ] 0 44800 46100 180.555557 text
grestore
gsave
false true true false 260.000000 [(6) ] 0 44650 46200 180.555557 text
grestore
44600 45400 44700 45400 10 line
gsave
false false false false 260.000000 [(D+) ] 0 44800 45400 180.555557 text
grestore
gsave
false true true false 260.000000 [(4) ] 0 44650 45500 180.555557 text
grestore
44600 45100 44700 45100 10 line
gsave
false false false false 260.000000 [(D-) ] 0 44800 45100 180.555557 text
grestore
gsave
false true true false 260.000000 [(3) ] 0 44650 45200 180.555557 text
grestore
44600 44500 44700 44500 10 line
gsave
false false false false 260.000000 [(XTAL1) ] 0 44800 44500 180.555557 text
grestore
gsave
false true true false 260.000000 [(17) ] 0 44650 44600 180.555557 text
grestore
44600 44200 44700 44200 10 line
gsave
false false false false 260.000000 [(XTAL2) ] 0 44800 44200 180.555557 text
grestore
gsave
false true true false 260.000000 [(16) ] 0 44650 44300 180.555557 text
grestore
44600 43900 44700 43900 10 line
gsave
false false false false 260.000000 [(PE2/HWB) ] 0 44800 43900 180.555557 text
grestore
gsave
false true true false 260.000000 [(33) ] 0 44650 44000 180.555557 text
grestore
44600 41000 44700 41000 10 line
gsave
false false false false 260.000000 [(GND) ] 0 44800 41000 180.555557 text
grestore
gsave
false true true false 260.000000 [(43) ] 0 44650 41100 180.555557 text
grestore
44600 41200 44700 41200 10 line
gsave
false false false false 260.000000 [(GND) ] 0 44800 41200 180.555557 text
grestore
gsave
false true true false 260.000000 [(35) ] 0 44650 41300 180.555557 text
grestore
44600 41400 44700 41400 10 line
gsave
false false false false 260.000000 [(GND) ] 0 44800 41400 180.555557 text
grestore
gsave
false true true false 260.000000 [(23) ] 0 44650 41500 180.555557 text
grestore
44600 41600 44700 41600 10 line
gsave
false false false false 260.000000 [(GND) ] 0 44800 41600 180.555557 text
grestore
gsave
false true true false 260.000000 [(15) ] 0 44650 41700 180.555557 text
grestore
44600 41800 44700 41800 10 line
gsave
false false false false 260.000000 [(UGND) ] 0 44800 41800 180.555557 text
grestore
gsave
false true true false 260.000000 [(5) ] 0 44650 41900 180.555557 text
grestore
48300 49100 48200 49100 10 line
gsave
false false false false 260.000000 [(PF7\(ADC7\)) ] 0 47200 49100 180.555557 text
grestore
gsave
false true true false 260.000000 [(36) ] 0 48450 49200 180.555557 text
grestore
48300 49100 48200 49100 10 line
gsave
false false false false 260.000000 [(PF7\(ADC7\)) ] 0 47200 49100 180.555557 text
grestore
gsave
false true true false 260.000000 [(36) ] 0 48450 49200 180.555557 text
grestore
48300 48800 48200 48800 10 line
gsave
false false false false 260.000000 [(PF6\(ADC6\)) ] 0 47200 48800 180.555557 text
grestore
gsave
false true true false 260.000000 [(37) ] 0 48450 48900 180.555557 text
grestore
48300 48500 48200 48500 10 line
gsave
false false false false 260.000000 [(PF5\(ADC5\)) ] 0 47200 48500 180.555557 text
grestore
gsave
false true true false 260.000000 [(38) ] 0 48450 48600 180.555557 text
grestore
48300 48200 48200 48200 10 line
gsave
false false false false 260.000000 [(PF4\(ADC4\)) ] 0 47200 48200 180.555557 text
grestore
gsave
false true true false 260.000000 [(39) ] 0 48450 48300 180.555557 text
grestore
48300 47900 48200 47900 10 line
gsave
false false false false 260.000000 [(PF1\(ADC1\)) ] 0 47200 47900 180.555557 text
grestore
gsave
false true true false 260.000000 [(40) ] 0 48450 48000 180.555557 text
grestore
48300 47600 48200 47600 10 line
gsave
false false false false 260.000000 [(PF0\(ADC0\)) ] 0 47200 47600 180.555557 text
grestore
gsave
false true true false 260.000000 [(41) ] 0 48450 47700 180.555557 text
grestore
48300 46600 48200 46600 10 line
gsave
false false false false 260.000000 [(PD2\(RX\)) ] 0 47400 46600 180.555557 text
grestore
gsave
false true true false 260.000000 [(20) ] 0 48450 46700 180.555557 text
grestore
48300 46300 48200 46300 10 line
gsave
false false false false 260.000000 [(PD3\(TX\)) ] 0 47400 46300 180.555557 text
grestore
gsave
false true true false 260.000000 [(21) ] 0 48450 46400 180.555557 text
grestore
48300 46000 48200 46000 10 line
gsave
false false false false 260.000000 [(PD1\(SDA\)) ] 0 47200 46000 180.555557 text
grestore
gsave
false true true false 260.000000 [(19) ] 0 48450 46100 180.555557 text
grestore
48300 45700 48200 45700 10 line
gsave
false false false false 260.000000 [(PD0\(SCL\)) ] 0 47200 45700 180.555557 text
grestore
gsave
false true true false 260.000000 [(18) ] 0 48450 45800 180.555557 text
grestore
48300 45400 48200 45400 10 line
gsave
false false false false 260.000000 [(PD4\(ADC8\)) ] 0 47100 45400 180.555557 text
grestore
gsave
false true true false 260.000000 [(25) ] 0 48450 45500 180.555557 text
grestore
48300 45100 48200 45100 10 line
gsave
false false false false 260.000000 [(PC6) ] 0 47700 45100 180.555557 text
grestore
gsave
false true true false 260.000000 [(31) ] 0 48450 45200 180.555557 text
grestore
48300 44800 48200 44800 10 line
gsave
false false false false 260.000000 [(PD7\(ADC10\)) ] 0 47000 44800 180.555557 text
grestore
gsave
false true true false 260.000000 [(27) ] 0 48450 44900 180.555557 text
grestore
48300 44500 48200 44500 10 line
gsave
false false false false 260.000000 [(PE6) ] 0 47700 44500 180.555557 text
grestore
gsave
false true true false 260.000000 [(1) ] 0 48450 44600 180.555557 text
grestore
48300 44200 48200 44200 10 line
gsave
false false false false 260.000000 [(PB4\(ADC11\)) ] 0 47000 44200 180.555557 text
grestore
gsave
false true true false 260.000000 [(28) ] 0 48450 44300 180.555557 text
grestore
48300 43900 48200 43900 10 line
gsave
false false false false 260.000000 [(PB5\(ADC12\)) ] 0 47000 43900 180.555557 text
grestore
gsave
false true true false 260.000000 [(29) ] 0 48450 44000 180.555557 text
grestore
48300 43600 48200 43600 10 line
gsave
false false false false 260.000000 [(PB6\(ADC13\)) ] 0 47000 43600 180.555557 text
grestore
gsave
false true true false 260.000000 [(30) ] 0 48450 43700 180.555557 text
grestore
48300 43300 48200 43300 10 line
gsave
false false false false 260.000000 [(PB7) ] 0 47700 43300 180.555557 text
grestore
gsave
false true true false 260.000000 [(12) ] 0 48450 43400 180.555557 text
grestore
48300 43000 48200 43000 10 line
gsave
false false false false 260.000000 [(PD6\(ADC9\)) ] 0 47100 43000 180.555557 text
grestore
gsave
false true true false 260.000000 [(26) ] 0 48450 43100 180.555557 text
grestore
48300 42700 48200 42700 10 line
gsave
false false false false 260.000000 [(PC7) ] 0 47700 42700 180.555557 text
grestore
gsave
false true true false 260.000000 [(32) ] 0 48450 42800 180.555557 text
grestore
48300 42400 48200 42400 10 line
gsave
false false false false 260.000000 [(PB0\(SS\)) ] 0 47300 42400 180.555557 text
grestore
gsave
false true true false 260.000000 [(8) ] 0 48450 42500 180.555557 text
grestore
48300 42100 48200 42100 10 line
gsave
false false false false 260.000000 [(PB1\(SCK\)) ] 0 47200 42100 180.555557 text
grestore
gsave
false true true false 260.000000 [(9) ] 0 48450 42200 180.555557 text
grestore
48300 41800 48200 41800 10 line
gsave
false false false false 260.000000 [(PB2\(MOSI\)) ] 0 47100 41800 180.555557 text
grestore
gsave
false true true false 260.000000 [(10) ] 0 48450 41900 180.555557 text
grestore
48300 41500 48200 41500 10 line
gsave
false false false false 260.000000 [(PB3\(MISO\)) ] 0 47100 41500 180.555557 text
grestore
gsave
false true true false 260.000000 [(11) ] 0 48450 41600 180.555557 text
grestore
48300 41000 48200 41000 10 line
gsave
false false false false 260.000000 [(PD5) ] 0 47700 41000 180.555557 text
grestore
gsave
false true true false 260.000000 [(22) ] 0 48450 41100 180.555557 text
grestore
grestore
gsave
false false false false 208.000000 [(TQFP44_10) ] 0 44700 49500 144.444443 text
grestore
gsave
false false false false 260.000000 [(IC1) ] 0 44700 49900 180.555557 text
grestore
gsave
false false false false 260.000000 [(ATMEGA32U4) ] 0 44700 49700 180.555557 text
grestore
44600 43900 44200 43900 10 line
44200 40700 44200 43900 10 line
44200 41000 44600 41000 10 line
44200 41200 44600 41200 10 line
44200 41400 44600 41400 10 line
44200 41600 44600 41600 10 line
44600 41800 44200 41800 10 line
gsave
42800 49400 42800 49550 10 line
42800 50300 42800 50150 10 line
42700 49550 42900 49550 10 line
42900 49550 42900 50150 10 line
42900 50150 42700 50150 10 line
42700 50150 42700 49550 10 line
grestore
gsave
false false false false 260.000000 [(R1) ] 270 43200 50100 180.555557 text
grestore
gsave
false false false false 260.000000 [(10K) ] 270 43000 50100 180.555557 text
grestore
44600 49100 41600 49100 10 line
42800 49400 42800 49100 10 line
44600 48800 41100 48800 10 line
41100 48800 41100 50400 10 line
44600 48500 44200 48500 10 line
44200 48500 44200 48800 10 line
gsave
false false false false 260.000000 [(RESET_AVR) ] 0 41400 49200 180.555557 text
grestore
44600 47900 44600 48200 10 line
44600 48200 43400 48200 10 line
44600 47900 44000 47900 10 line
44000 47900 44000 48200 10 line
44600 47600 43400 47600 10 line
gsave
false false false false 260.000000 [(AVCC) ] 0 42700 48200 180.555557 text
grestore
gsave
false false false false 260.000000 [(AREF) ] 0 42700 47600 180.555557 text
grestore
44600 46700 43400 46700 10 line
gsave
false false false false 260.000000 [(VBUS) ] 0 42700 46700 180.555557 text
grestore
44600 46100 42300 46100 10 line
42300 46100 42300 47100 10 line
42300 47100 41500 47100 10 line
41500 46900 41500 47400 10 line
gsave
41500 46000 41500 46200 10 line
41500 46900 41500 46700 10 line
41300 46400 41700 46400 10 line
41300 46500 41700 46500 10 line
41500 46700 41500 46500 10 line
41500 46400 41500 46200 10 line
grestore
gsave
false false false false 260.000000 [(C5) ] 90 41200 46200 180.555557 text
grestore
gsave
false false false false 260.000000 [(1uF) ] 0 41700 46000 180.555557 text
grestore
41500 46000 41500 45400 10 line
44600 45400 43400 45400 10 line
44600 45100 43400 45100 10 line
gsave
false false false false 260.000000 [(D+) ] 0 43000 45300 180.555557 text
grestore
gsave
false false false false 260.000000 [(D -) ] 0 43000 45000 180.555557 text
grestore
41200 44500 44600 44500 10 line
48300 49100 49200 49100 10 line
48300 48800 49200 48800 10 line
48300 48500 49200 48500 10 line
48300 48200 49200 48200 10 line
48300 47900 49200 47900 10 line
48300 47600 49200 47600 10 line
48300 46600 49200 46600 10 line
48300 46300 49200 46300 10 line
48300 46000 49200 46000 10 line
48300 45700 49200 45700 10 line
48300 45400 49200 45400 10 line
48300 45100 49200 45100 10 line
48300 44200 49200 44200 10 line
48300 43900 49200 43900 10 line
48300 43600 49200 43600 10 line
48300 43300 49200 43300 10 line
48300 43000 49200 43000 10 line
48300 42700 49200 42700 10 line
48300 42400 49200 42400 10 line
48300 42100 49200 42100 10 line
48300 41800 49200 41800 10 line
48300 41500 49200 41500 10 line
48300 41000 49200 41000 10 line
gsave
false false false false 260.000000 [(ADC7) ] 0 49300 49100 180.555557 text
grestore
gsave
false false false false 260.000000 [(ADC6) ] 0 49300 48800 180.555557 text
grestore
gsave
false false false false 260.000000 [(ADC5) ] 0 49300 48500 180.555557 text
grestore
gsave
false false false false 260.000000 [(ADC4) ] 0 49300 48200 180.555557 text
grestore
gsave
false false false false 260.000000 [(ADC1) ] 0 49300 47900 180.555557 text
grestore
gsave
false false false false 260.000000 [(ADC0) ] 0 49300 47600 180.555557 text
grestore
gsave
false false false false 260.000000 [(AVR_RX) ] 0 49300 46600 180.555557 text
grestore
gsave
false false false false 260.000000 [(AVR_TX) ] 0 49300 46300 180.555557 text
grestore
gsave
false false false false 260.000000 [(CS_FLASH) ] 0 49300 46000 180.555557 text
grestore
gsave
false false false false 260.000000 [(CCLK) ] 0 49300 45700 180.555557 text
grestore
gsave
false false false false 260.000000 [(ADC8) ] 0 49300 45400 180.555557 text
grestore
gsave
false false false false 260.000000 [(DONE) ] 0 49300 45100 180.555557 text
grestore
gsave
false false false false 260.000000 [(D3) ] 0 49300 44200 180.555557 text
grestore
gsave
false false false false 260.000000 [(D2) ] 0 49300 43900 180.555557 text
grestore
gsave
false false false false 260.000000 [(D1) ] 0 49300 43600 180.555557 text
grestore
gsave
false false false false 260.000000 [(D0) ] 0 49300 43300 180.555557 text
grestore
gsave
false false false false 260.000000 [(ADC9) ] 0 49300 43000 180.555557 text
grestore
gsave
false false false false 260.000000 [(PROGRAM_B) ] 0 49300 42700 180.555557 text
grestore
gsave
false false false false 260.000000 [(SS) ] 0 49300 42400 180.555557 text
grestore
gsave
false false false false 260.000000 [(SCK) ] 0 49300 42100 180.555557 text
grestore
gsave
false false false false 260.000000 [(MOSI) ] 0 49300 41800 180.555557 text
grestore
gsave
false false false false 260.000000 [(MISO) ] 0 49300 41500 180.555557 text
grestore
gsave
false false false false 260.000000 [(INIT_B) ] 0 48600 40800 180.555557 text
grestore
gsave
41500 47400 41500 47600 10 line
41350 47600 41650 47600 10 line
gsave
false false false false 208.000000 [(+3.3V) ] 0 41375 47650 144.444443 text
grestore
grestore
gsave
41100 50400 41100 50600 10 line
40950 50600 41250 50600 10 line
gsave
false false false false 208.000000 [(+3.3V) ] 0 40975 50650 144.444443 text
grestore
grestore
gsave
42800 50400 42800 50600 10 line
42650 50600 42950 50600 10 line
gsave
false false false false 208.000000 [(+3.3V) ] 0 42675 50650 144.444443 text
grestore
grestore
42800 50300 42800 50400 10 line
gsave
41500 45200 41500 45400 10 line
41400 45200 41600 45200 10 line
41455 45150 41545 45150 10 line
41480 45110 41520 45110 10 line
grestore
gsave
44200 40500 44200 40700 10 line
44100 40500 44300 40500 10 line
44155 40450 44245 40450 10 line
44180 40410 44220 40410 10 line
grestore
gsave
42500 42300 42500 42500 10 line
42500 43200 42500 43000 10 line
42300 42700 42700 42700 10 line
42300 42800 42700 42800 10 line
42500 43000 42500 42800 10 line
42500 42700 42500 42500 10 line
grestore
gsave
false false false false 260.000000 [(C7) ] 90 42200 42500 180.555557 text
grestore
gsave
false false false false 260.000000 [(18pF) ] 0 42700 42300 180.555557 text
grestore
gsave
41200 42300 41200 42500 10 line
41200 43200 41200 43000 10 line
41000 42700 41400 42700 10 line
41000 42800 41400 42800 10 line
41200 43000 41200 42800 10 line
41200 42700 41200 42500 10 line
grestore
gsave
false false false false 260.000000 [(C6) ] 90 40900 42500 180.555557 text
grestore
gsave
false false false false 260.000000 [(18pF) ] 0 41400 42300 180.555557 text
grestore
gsave
41200 41600 41200 41800 10 line
41100 41600 41300 41600 10 line
41155 41550 41245 41550 10 line
41180 41510 41220 41510 10 line
grestore
gsave
42500 41600 42500 41800 10 line
42400 41600 42600 41600 10 line
42455 41550 42545 41550 10 line
42480 41510 42520 41510 10 line
grestore
42500 41800 42500 42300 10 line
41200 42300 41200 41800 10 line
41200 44500 41200 43200 10 line
gsave
42500 43500 42500 43700 10 line
42500 44000 42500 44200 10 line
42400 43750 42600 43750 10 line
42600 43750 42600 43950 10 line
42600 43950 42400 43950 10 line
42400 43950 42400 43750 10 line
42360 43700 42640 43700 10 line
42360 44000 42640 44000 10 line
grestore
gsave
false false false false 260.000000 [(Q2) ] 90 42300 43700 180.555557 text
grestore
gsave
false false false false 260.000000 [(8MHz) ] 0 42600 43500 180.555557 text
grestore
42500 43500 42500 43200 10 line
42500 44200 42500 44500 10 line
44600 44200 43500 44200 10 line
43500 44200 43500 43300 10 line
43500 43300 42500 43300 10 line
gsave
52900 50200 52900 50400 10 line
52750 50400 53050 50400 10 line
gsave
false false false false 208.000000 [(+3.3V) ] 0 52775 50450 144.444443 text
grestore
grestore
gsave
52900 48300 52900 48500 10 line
52800 48300 53000 48300 10 line
52855 48250 52945 48250 10 line
52880 48210 52920 48210 10 line
grestore
gsave
52900 49000 52900 49200 10 line
52900 49900 52900 49700 10 line
52700 49400 53100 49400 10 line
52700 49500 53100 49500 10 line
52900 49700 52900 49500 10 line
52900 49400 52900 49200 10 line
grestore
gsave
false false false false 260.000000 [(C8) ] 90 52600 49200 180.555557 text
grestore
gsave
false false false false 260.000000 [(1uF) ] 0 53100 49000 180.555557 text
grestore
gsave
54100 49000 54100 49200 10 line
54100 49900 54100 49700 10 line
53900 49400 54300 49400 10 line
53900 49500 54300 49500 10 line
54100 49700 54100 49500 10 line
54100 49400 54100 49200 10 line
grestore
gsave
false false false false 260.000000 [(C9) ] 90 53800 49200 180.555557 text
grestore
gsave
false false false false 260.000000 [(1uF) ] 0 54300 49000 180.555557 text
grestore
52900 50200 52900 49900 10 line
52900 49900 54100 49900 10 line
52900 49000 52900 48500 10 line
52900 49000 54100 49000 10 line
gsave
52900 46300 52900 46500 10 line
52900 47200 52900 47000 10 line
52700 46700 53100 46700 10 line
52700 46800 53100 46800 10 line
52900 47000 52900 46800 10 line
52900 46700 52900 46500 10 line
grestore
gsave
false false false false 260.000000 [(C10) ] 90 52600 46500 180.555557 text
grestore
gsave
false false false false 260.000000 [(1uF) ] 0 53100 46300 180.555557 text
grestore
gsave
52900 45600 52900 45800 10 line
52800 45600 53000 45600 10 line
52855 45550 52945 45550 10 line
52880 45510 52920 45510 10 line
grestore
52900 46300 52900 45800 10 line
52900 47200 54000 47200 10 line
gsave
false false false false 260.000000 [(AREF) ] 0 54100 47200 180.555557 text
grestore
gsave
52900 42400 52900 42600 10 line
52900 43300 52900 43100 10 line
52700 42800 53100 42800 10 line
52700 42900 53100 42900 10 line
52900 43100 52900 42900 10 line
52900 42800 52900 42600 10 line
grestore
gsave
false false false false 260.000000 [(C11) ] 90 52600 42600 180.555557 text
grestore
gsave
false false false false 260.000000 [(1uF) ] 0 53100 42400 180.555557 text
grestore
gsave
52900 41900 52900 42100 10 line
52800 41900 53000 41900 10 line
52855 41850 52945 41850 10 line
52880 41810 52920 41810 10 line
grestore
52900 42100 52900 42400 10 line
gsave
54100 44600 54100 44800 10 line
53950 44800 54250 44800 10 line
gsave
false false false false 208.000000 [(+3.3V) ] 0 53975 44850 144.444443 text
grestore
grestore
gsave
53300 44200 53100 44200 10 line
53900 44200 54100 44200 10 line
53400 44200 100 0 180 10 darc
53600 44200 100 0 180 10 darc
53800 44200 100 0 180 10 darc
grestore
gsave
false false false false 260.000000 [(L1) ] 0 53300 44400 180.555557 text
grestore
gsave
false false false false 260.000000 [(10uH) ] 0 53200 43900 180.555557 text
grestore
53100 44200 52900 44200 10 line
52900 44200 52900 43300 10 line
54100 44200 54100 44600 10 line
52900 43300 54700 43300 10 line
gsave
false false false false 260.000000 [(AVCC) ] 0 54800 43300 180.555557 text
grestore
gsave
false false false false 260.000000 [(Aaron Storey) ] 0 53900 40100 180.555557 text
grestore
gsave
false false false false 260.000000 [(2) ] 0 50100 40100 180.555557 text
grestore
gsave
false false false false 260.000000 [(7) ] 0 52000 40100 180.555557 text
grestore
gsave
false false false false 260.000000 [(Z-BOARD) ] 0 50000 40700 180.555557 text
grestore
newpath
44200 41000
25
0 360 arc
fill
newpath
44200 41200
25
0 360 arc
fill
newpath
44200 41400
25
0 360 arc
fill
newpath
44200 41600
25
0 360 arc
fill
newpath
44200 41800
25
0 360 arc
fill
newpath
44200 41000
25
0 360 arc
fill
newpath
44200 41000
25
0 360 arc
fill
newpath
44200 41200
25
0 360 arc
fill
newpath
44200 41200
25
0 360 arc
fill
newpath
44200 41400
25
0 360 arc
fill
newpath
44200 41400
25
0 360 arc
fill
newpath
44200 41600
25
0 360 arc
fill
newpath
44200 41600
25
0 360 arc
fill
newpath
44200 41800
25
0 360 arc
fill
newpath
44200 41800
25
0 360 arc
fill
60 60 41570 49070 fbox
newpath
42800 49100
25
0 360 arc
fill
newpath
42800 49100
25
0 360 arc
fill
newpath
42800 49100
25
0 360 arc
fill
newpath
44200 48800
25
0 360 arc
fill
newpath
44200 48800
25
0 360 arc
fill
newpath
44200 48800
25
0 360 arc
fill
newpath
44600 47900
25
0 360 arc
fill
newpath
44600 48200
25
0 360 arc
fill
newpath
44600 48200
25
0 360 arc
fill
60 60 43370 48170 fbox
newpath
44000 48200
25
0 360 arc
fill
newpath
44600 47900
25
0 360 arc
fill
newpath
44000 48200
25
0 360 arc
fill
newpath
44000 48200
25
0 360 arc
fill
60 60 43370 47570 fbox
60 60 43370 46670 fbox
newpath
41500 47100
25
0 360 arc
fill
newpath
41500 47100
25
0 360 arc
fill
newpath
41500 47100
25
0 360 arc
fill
60 60 43370 45370 fbox
60 60 43370 45070 fbox
newpath
42500 44500
25
0 360 arc
fill
newpath
48300 49100
25
0 360 arc
fill
60 60 49170 49070 fbox
60 60 49170 48770 fbox
60 60 49170 48470 fbox
60 60 49170 48170 fbox
60 60 49170 47870 fbox
60 60 49170 47570 fbox
60 60 49170 46570 fbox
60 60 49170 46270 fbox
60 60 49170 45970 fbox
60 60 49170 45670 fbox
60 60 49170 45370 fbox
60 60 49170 45070 fbox
60 60 49170 44170 fbox
60 60 49170 43870 fbox
60 60 49170 43570 fbox
60 60 49170 43270 fbox
60 60 49170 42970 fbox
60 60 49170 42670 fbox
60 60 49170 42370 fbox
60 60 49170 42070 fbox
60 60 49170 41770 fbox
60 60 49170 41470 fbox
60 60 49170 40970 fbox
newpath
42500 43300
25
0 360 arc
fill
newpath
42500 44500
25
0 360 arc
fill
newpath
42500 44500
25
0 360 arc
fill
newpath
42500 43300
25
0 360 arc
fill
newpath
42500 43300
25
0 360 arc
fill
newpath
52900 49900
25
0 360 arc
fill
newpath
52900 49900
25
0 360 arc
fill
newpath
52900 49000
25
0 360 arc
fill
newpath
52900 49000
25
0 360 arc
fill
60 60 53970 47170 fbox
newpath
52900 43300
25
0 360 arc
fill
newpath
52900 43300
25
0 360 arc
fill
60 60 54670 43270 fbox
showpage
%%End
