%!PS-Adobe-3.0 EPSF-3.0
%%Creator: gEDA gschem 1.6.1-20100214-22-ga30f00b
%%CreationDate: Wed Oct 22 16:33:24 2014
%%Title: /home/freaktm/mojo/mojo-schematics/mojo_4.sch
%%Author: freaktm
%%BoundingBox: 0 0 1677 1188
%%Orientation: Portrait
%%Pages: 1
%%Endcomments
%%BeginProlog
% Prolog for gEDA, define all the functions needed for rendering
% schematics on Postscript devices


% Draw a line from the second coordinate to the first
% x2 y2 x1 y1 width line -
/line {
    setlinewidth
    % pop off first element and moveto
    moveto
    % pop off remaining elements and draw a line segment
    lineto
    % draw it
    stroke
} bind def


% Draw a dot
% x y r dot -
/dot {
    0 360 arc fill
} bind def

% Draw a dot-dashed line, a bunch of lined segments,
% if the array element only has length two, draw a dot.
% [ [x2 y2 x1 y1] [x4 y4 x3 y3] [x5 y5] ... ] width dashed -
/width 0 def
/dashed {
    dup 2.0 div /width exch def
    setlinewidth
    % pop off each line segment and draw it as a dot or as a line
    {
	aload length 2 gt
	{ moveto lineto stroke}
	{ width dot } ifelse
    } forall
} bind def

% Draw an arc segment
% x y r ang1 ang2 width darc -
/darc {
    setlinewidth
    arc stroke
} bind def

% Draw a series of arc segment bits, if the array element only has a single
% element in it, draw a dot.
% [ [sa1 ea1] [sa2 ea2] ... ] x y r width dashedarc -
/x 0 def
/y 0 def
/dashedarc {
    dup /width exch def
    setlinewidth
    /r exch def  
    /y exch def
    /x exch def
    { aload length 1 gt
	{
	    % this element had two angles in it
	    % extract start and stop angles
	    x y r   % drop x y and r onto stack
		    % at this point we have: sa ea x y r
		    % we need                      x y r sa ea
		    % so..
	    5 -2 roll
	    % and add it to the current path, and draw it
	    arc stroke
	} {
	    % this element only had one angle in it, place a
	    % filled dot at the appropriate place
	    % compute center point of the arc using the angle
	    % that is on the top of the stack
	    dup   		% angle angle
	    cos r mul x add 	% angle x
	    exch		% x angle
	    sin r mul y add	% x y
	    width		% x y width/2
	    dot			% draw the dot
	} ifelse
    } forall

    % Now draw it
    stroke
} bind def

% Draw a box
% width height x y linethickness box -
/box {
    setlinewidth
    moveto
    exch dup 0 rlineto	 % w h, h w w 0      -- Draw bottom line
    exch 0 exch rlineto	 % h w, w h 0, w 0 h -- Draw right line 
    neg 0 rlineto	 % w, -w 0           -- Draw Top line
    closepath		 % finish and draw it
    stroke
} bind def			     

% Draw a filled box
% width height x y fbox -
/fbox {
    moveto
    exch dup 0 rlineto	
    exch 0 exch rlineto	
    neg 0 rlineto		
    closepath			
    fill			
} bind def

% Font reincoding utilities

% ISOLatin1Encoding, extended with remaining uncoded glyphs
/ISOLatin1Extended [
    /.notdef /Lslash /lslash /OE /oe /Scaron /scaron /Zcaron /zcaron
    /Ydieresis /trademark /bullet /dagger /daggerdbl /ellipsis /emdash
    /endash /fi /fl /florin /fraction /guilsinglleft /guilsinglright
    /perthousand /quotedblbase /quotedblleft /quotedblright
    /quotesinglbase /quotesingle /.notdef /.notdef /.notdef /space
    /exclam /quotedbl /numbersign /dollar /percent /ampersand
    /quoteright /parenleft /parenright /asterisk /plus /comma /minus
    /period /slash /zero /one /two /three /four /five /six /seven /eight
    /nine /colon /semicolon /less /equal /greater /question /at /A /B /C
    /D /E /F /G /H /I /J /K /L /M /N /O /P /Q /R /S /T /U /V /W /X /Y /Z
    /bracketleft /backslash /bracketright /asciicircum /underscore
    /quoteleft /a /b /c /d /e /f /g /h /i /j /k /l /m /n /o /p /q /r /s
    /t /u /v /w /x /y /z /braceleft /bar /braceright /asciitilde
    /.notdef /.notdef /.notdef /.notdef /.notdef /.notdef /.notdef
    /.notdef /.notdef /.notdef /.notdef /.notdef /.notdef /.notdef
    /.notdef /.notdef /.notdef /dotlessi /grave /acute /circumflex
    /tilde /macron /breve /dotaccent /dieresis /.notdef /ring /cedilla
    /.notdef /hungarumlaut /ogonek /caron /space /exclamdown /cent
    /sterling /currency /yen /brokenbar /section /dieresis /copyright
    /ordfeminine /guillemotleft /logicalnot /hyphen /registered /macron
    /degree /plusminus /twosuperior /threesuperior /acute /mu /paragraph
    /periodcentered /cedilla /onesuperior /ordmasculine /guillemotright
    /onequarter /onehalf /threequarters /questiondown /Agrave /Aacute
    /Acircumflex /Atilde /Adieresis /Aring /AE /Ccedilla /Egrave /Eacute
    /Ecircumflex /Edieresis /Igrave /Iacute /Icircumflex /Idieresis /Eth
    /Ntilde /Ograve /Oacute /Ocircumflex /Otilde /Odieresis /multiply
    /Oslash /Ugrave /Uacute /Ucircumflex /Udieresis /Yacute /Thorn
    /germandbls /agrave /aacute /acircumflex /atilde /adieresis /aring
    /ae /ccedilla /egrave /eacute /ecircumflex /edieresis /igrave
    /iacute /icircumflex /idieresis /eth /ntilde /ograve /oacute
    /ocircumflex /otilde /odieresis /divide /oslash /ugrave /uacute
    /ucircumflex /udieresis /yacute /thorn /ydieresis
] def

% `new-font-name' `encoding-vector' `old-font-name' RE -
/RE {
    findfont
    dup maxlength dict begin {
        1 index /FID ne { def } { pop pop } ifelse
    } forall
    /Encoding exch def
    dup /FontName exch def
    currentdict end definefont pop
} bind def

% Text handling functions, select the font and scale it, then we need
% only to apply the appropriate transformations to get the text
% justified into the right spots.  The bad thing here is that we don't
% do any kerning, so the output may look a bit strange.

% compute the height of one character and return lly and ury
% (char) charheight lly ury
/charheight {
    gsave			% push graphics state
	newpath			% clear current path
	0 0 moveto		% Set current point
	false charpath		% get path
	flattenpath		% flatten path
	pathbbox		% stack = llx lly urx ury
	exch pop		% stack = llx lly ury
	3 -1 roll pop		% stack = lly ury
    grestore			% pop graphics state
} bind def

% compute the height of a string, one character at a time
% (string) stringheight lly ury
/lly 0.0 def
/ury 0.0 def

/stringheight {
    /lly 0.0 def			% initial value of heightmin
    /ury 0.0 def			% initial value of heightmax
    {				% work through string
	( ) dup 0 4 -1 roll put	% create one character string
	charheight		% measure it's height
	dup ury gt {		% if ury gt heightmax
	    /ury exch def	% update with new value
	} {
	    pop			% else discard ury
	} ifelse
	dup lly lt {		% if lly lt heightmin
	    /lly exch def	% update with new value
	} {
	    pop			% else discard lly
	} ifelse
    } forall
    lly ury			% Return the results
} bind def

% calculate the string width taking into account the escapes.
/mystrx 0.0 def
/mystry 0.0 def
/mystresc false def

/mystringwidth {
    /mystrx 0.0 def
    /mystry 0.0 def
    /mystresc false def
    {				% work through string
	% did we process the escape character last?
	mystresc {
	    % last character was escape
	    % handle the escape
	    % is it an _ = 95?
	    dup 95 eq {
		pop  % we don't need the character anymore
		% toggle drawing overbars
		0.0 0.0 % make it like it never happened...
	    } {
		% otherwise measure the character 
		(\\ ) dup 1 4 -1 roll put % count a \ and the character
		stringwidth
	    } ifelse
	    % and reset the flag
	    /mystresc false def
	} {
	    % last character was not escape
	    % is this escape
	    dup 92 eq {
		% yes, escape character, set flag
		/mystresc true def
		pop % drop character
		0.0 0.0 % make like this character has no width and height
	    } {
		( ) dup 0 4 -1 roll put	% create one character string
		stringwidth		% measure it's height/width
	    } ifelse
	} ifelse
	% accumulate x and y movements
	mystry add /mystry exch def
	mystrx add /mystrx exch def
    } forall
    mystrx mystry % drop results on stack
} bind def

% Render a string with overbars
%
/escaped false def
/drawoverbar false def
/fontsize 0.0 def

%string1 string2 append -
/append {
    2 copy length exch length add % find new length
    string dup % string1 string2 string string
    4 2 roll % string string string1 string2
    2 index 0 3 index
    % string string string1 string2 string 0 string1
    putinterval % string string string1 string2
    exch length exch putinterval
} bind def

% If drawoverbar is set, draw a line of the same length as the given string
% string overbarshowline -
/overbarshowline {
    % print overbar if necessary
    stringwidth pop 0
    drawoverbar {
        rlineto
        gsave stroke grestore
    } {
        rmoveto
    } ifelse
} bind def

% Draws overbars for the given string, then shows the string itself
% string overbarshow
/overbarshow {
    /overbarshowacc () def
    /overbarshowtxt () def

    gsave
    fontsize 10.0 div setlinewidth
    0 fontsize rmoveto  % move to (0,overbarheight)

    {				% work through string
	escaped {
	    % the last character was the escape
	    % handle the escape
	    % is it an _ = 95?
	    dup 95 eq {
		pop  % we don't need the character anymore
                overbarshowacc overbarshowline
                % toggle drawing overbars
		/drawoverbar drawoverbar not def

                % Append the contents off the accumulator to the text
                % string we're eventually going to show
                /overbarshowtxt overbarshowtxt overbarshowacc append def

                % clear accumulator
                /overbarshowacc () def
	    } {
                % add to accumulator
                (\\ ) dup 1 4 -1 roll put
                overbarshowacc exch append
                /overbarshowacc exch def
	    } ifelse
	    % and reset the flag
	    /escaped false def
	} {
	    % check for escape character \ = 92
	    dup 92 eq {
		% yes, escape character, set flag
		/escaped true def
		pop % drop character
	    } {
                % add to accumulator
                ( ) dup 0 4 -1 roll put
                overbarshowacc exch append
                /overbarshowacc exch def
	    } ifelse
	} ifelse
    } forall
    % Catch any leftovers
    overbarshowacc overbarshowline
    overbarshowtxt overbarshowacc append

    grestore
    show
} bind def

% 
% hcenter rjustify vcenter vjustify spacing [(line1) (line2) ... ] rot x y size text -
/stringw 0.0 def
/stringh 0.0 def
/spacing 0.0 def
/strings [ ] def
/stringtxt ( ) def
/stringcount 0 def
/rot 0.0 def

/text {
    gsave	        % save state for later
    /drawoverbar false def      % start by not drawing overbars

    dup /fontsize exch def  % save font size for corrections later
    % do font selection 
    /gEDAFont findfont
    exch scalefont
    setfont

    % set up coordinates
    translate           % move origin to given point
    rotate		% rotate so that text is drawn
    0 0 moveto
    dup length /stringcount exch def			% Get number of strings
    /strings exch def     				% save strings
    /spacing exch def
    % do we have more than 1 string to render?
    stringcount 1 eq {
	/stringtxt strings aload pop def		% get the string 
	/stringw stringtxt mystringwidth pop neg def	% get the -width
	/stringh stringtxt stringheight exch pop neg def% get the -height

	% First do vertical calculations
	% hcenter rjustify vcenter vjustify 
	% vertical justification
	{ 0 stringh rmoveto } if 
	% vertical center
	{ 0 stringh 0.3571425 mul rmoveto } if  % not 0.5, so that
						% it looks nicer
	% Then do horizontal calculations
	% right justify
	{ stringw 0 rmoveto } if
	% center
	{ stringw 2.0 div 0 rmoveto } if
	% Draw the text
	stringtxt overbarshow
    } {
	% More than one line, compute bounding box for the text

	% vertical height, don't use the actual hieght of the characters
	% assume that the user wants to make the baselines line up with two
	% text boxes placed side by side
	/stringh stringcount spacing mul neg def
	% Now figure out horizontal size, this amounts to keeping track
	% of the longest string
	/stringw 0.0 def
	strings {
	    mystringwidth pop
	    dup stringw gt {
		/stringw exch def
	    } {
		pop
	    } ifelse
	} forall
	/stringw stringw neg def 	% get the -width
	
	% First do vertical calculations
	% hcenter rjustify vcenter vjustify 
	% vertical justification
	{ 0 stringh fontsize add rmoveto } if 
	% vertical center
	{ 0 stringh 0.5 mul rmoveto } if 
	% Then do horizontal calculations
	% right justify
	{ stringw 0 rmoveto } if
	% center
	{ stringw 2.0 div 0 rmoveto } if
	% now move up to the first line and begin rendering
	0 stringcount 1 sub spacing mul rmoveto
	strings {
	    gsave		% Save starting point
	    overbarshow		% render the text
	    grestore
	    0 spacing neg rmoveto
	} forall
    } ifelse
    grestore 	% Restore old state
} bind def


%%EndProlog
%%Page: 1 1
/gEDAFont ISOLatin1Extended /Helvetica RE
2 setlinecap
0.072000 0.072000 scale
0 0 translate
1.000000 1.000000 scale
-27400 -35000 translate
gsave
48400 40600 48400 40800 10 line
48300 40600 48500 40600 10 line
48355 40550 48445 40550 10 line
48380 40510 48420 40510 10 line
grestore
gsave
false false false false 260.000000 [(GND) ] 0 48200 40300 180.555557 text
grestore
gsave
40300 41400 40300 41600 10 line
40150 41600 40450 41600 10 line
gsave
false false false false 208.000000 [(+5V) ] 0 40175 41650 144.444443 text
grestore
grestore
gsave
40700 41400 40700 41600 10 line
40550 41600 40850 41600 10 line
gsave
false false false false 208.000000 [(+3.3V) ] 0 40575 41650 144.444443 text
grestore
grestore
44500 50400 42000 50400 10 line
gsave
false false false false 260.000000 [(L37N_0) ] 0 41200 50300 180.555557 text
grestore
44500 50000 42000 50000 10 line
gsave
false false false false 260.000000 [(L36N_0) ] 0 41200 49900 180.555557 text
grestore
44500 49600 42000 49600 10 line
gsave
false false false false 260.000000 [(L35N_0) ] 0 41200 49500 180.555557 text
grestore
44500 49200 42000 49200 10 line
gsave
false false false false 260.000000 [(L34N_0) ] 0 41200 49100 180.555557 text
grestore
44500 48800 42000 48800 10 line
gsave
false false false false 260.000000 [(L4N_0) ] 0 41300 48700 180.555557 text
grestore
44500 48400 42000 48400 10 line
gsave
false false false false 260.000000 [(L3N_0) ] 0 41300 48300 180.555557 text
grestore
44500 48000 42000 48000 10 line
gsave
false false false false 260.000000 [(L2N_0) ] 0 41300 47900 180.555557 text
grestore
44500 47600 42000 47600 10 line
gsave
false false false false 260.000000 [(L1N_0) ] 0 41300 47500 180.555557 text
grestore
44500 47200 42000 47200 10 line
gsave
false false false false 260.000000 [(L83N_3) ] 0 41200 47100 180.555557 text
grestore
44500 46800 42000 46800 10 line
gsave
false false false false 260.000000 [(L52N_3) ] 0 41200 46700 180.555557 text
grestore
44500 46400 42000 46400 10 line
gsave
false false false false 260.000000 [(L51N_3) ] 0 41200 46300 180.555557 text
grestore
44500 46000 42000 46000 10 line
gsave
false false false false 260.000000 [(L50N_3) ] 0 41200 45900 180.555557 text
grestore
44500 45600 42000 45600 10 line
gsave
false false false false 260.000000 [(L49N_3) ] 0 41200 45500 180.555557 text
grestore
44500 45200 42000 45200 10 line
gsave
false false false false 260.000000 [(L44N_3) ] 0 41200 45100 180.555557 text
grestore
44500 44800 42000 44800 10 line
gsave
false false false false 260.000000 [(L43N_3) ] 0 41200 44700 180.555557 text
grestore
44500 44400 42000 44400 10 line
gsave
false false false false 260.000000 [(L42N_3) ] 0 41200 44300 180.555557 text
grestore
44500 44000 42000 44000 10 line
gsave
false false false false 260.000000 [(L41N_3) ] 0 41200 43900 180.555557 text
grestore
44500 43600 42000 43600 10 line
gsave
false false false false 260.000000 [(L37N_3) ] 0 41200 43500 180.555557 text
grestore
44500 43200 42000 43200 10 line
gsave
false false false false 260.000000 [(L36N_3) ] 0 41200 43100 180.555557 text
grestore
44500 42800 42000 42800 10 line
gsave
false false false false 260.000000 [(L2N_3) ] 0 41300 42700 180.555557 text
grestore
44500 42400 42000 42400 10 line
gsave
false false false false 260.000000 [(L1N_3) ] 0 41300 42300 180.555557 text
grestore
44500 42000 42000 42000 10 line
gsave
false false false false 260.000000 [(L64N_2) ] 0 41200 41900 180.555557 text
grestore
44500 41600 42000 41600 10 line
gsave
false false false false 260.000000 [(L31N_2) ] 0 41200 41500 180.555557 text
grestore
40700 41200 44500 41200 10 line
40300 40800 44500 40800 10 line
48400 50400 45900 50400 10 line
gsave
false false false false 260.000000 [(L37P_0) ] 0 48600 50300 180.555557 text
grestore
48400 50000 45900 50000 10 line
gsave
false false false false 260.000000 [(L36P_0) ] 0 48600 49900 180.555557 text
grestore
48400 49600 45900 49600 10 line
gsave
false false false false 260.000000 [(L35P_0) ] 0 48600 49500 180.555557 text
grestore
48400 49200 45900 49200 10 line
gsave
false false false false 260.000000 [(L34P_0) ] 0 48600 49100 180.555557 text
grestore
48400 48800 45900 48800 10 line
gsave
false false false false 260.000000 [(L4P_0) ] 0 48600 48700 180.555557 text
grestore
48400 48400 45900 48400 10 line
gsave
false false false false 260.000000 [(L3P_0) ] 0 48600 48300 180.555557 text
grestore
48400 48000 45900 48000 10 line
gsave
false false false false 260.000000 [(L2P_0) ] 0 48600 47900 180.555557 text
grestore
48400 47600 45900 47600 10 line
gsave
false false false false 260.000000 [(L1P_0) ] 0 48600 47500 180.555557 text
grestore
48400 47200 45900 47200 10 line
gsave
false false false false 260.000000 [(L83P_3) ] 0 48600 47100 180.555557 text
grestore
48400 46800 45900 46800 10 line
gsave
false false false false 260.000000 [(L52P_3) ] 0 48600 46700 180.555557 text
grestore
48400 46400 45900 46400 10 line
gsave
false false false false 260.000000 [(L51P_3) ] 0 48600 46300 180.555557 text
grestore
48400 46000 45900 46000 10 line
gsave
false false false false 260.000000 [(L50P_3) ] 0 48600 45900 180.555557 text
grestore
48400 45600 45900 45600 10 line
gsave
false false false false 260.000000 [(L49P_3) ] 0 48600 45500 180.555557 text
grestore
48400 45200 45900 45200 10 line
gsave
false false false false 260.000000 [(L44P_3) ] 0 48600 45100 180.555557 text
grestore
48400 44800 45900 44800 10 line
gsave
false false false false 260.000000 [(L43P_3) ] 0 48600 44700 180.555557 text
grestore
48400 44400 45900 44400 10 line
gsave
false false false false 260.000000 [(L42P_3) ] 0 48600 44300 180.555557 text
grestore
48400 44000 45900 44000 10 line
gsave
false false false false 260.000000 [(L41P_3) ] 0 48600 43900 180.555557 text
grestore
48400 43600 45900 43600 10 line
gsave
false false false false 260.000000 [(L37P_3) ] 0 48600 43500 180.555557 text
grestore
48400 43200 45900 43200 10 line
gsave
false false false false 260.000000 [(L36P_3) ] 0 48600 43100 180.555557 text
grestore
48400 42800 45900 42800 10 line
gsave
false false false false 260.000000 [(L2P_3) ] 0 48600 42700 180.555557 text
grestore
48400 42400 45900 42400 10 line
gsave
false false false false 260.000000 [(L1P_3) ] 0 48600 42300 180.555557 text
grestore
48400 42000 45900 42000 10 line
gsave
false false false false 260.000000 [(L64P_2) ] 0 48600 41900 180.555557 text
grestore
48400 41600 45900 41600 10 line
gsave
false false false false 260.000000 [(L31P_2) ] 0 48600 41500 180.555557 text
grestore
48400 41200 45900 41200 10 line
48400 40800 45900 40800 10 line
48400 41200 48400 40800 10 line
40300 40800 40300 41400 10 line
40700 41200 40700 41400 10 line
gsave
33200 37200 32900 37200 10 line
gsave
false true false true 208.000000 [(2) ] 0 33100 37150 144.444443 text
grestore
34300 37600 34000 37600 10 line
gsave
false true false true 208.000000 [(3) ] 0 34200 37550 144.444443 text
grestore
33200 37600 32900 37600 10 line
gsave
false true false true 208.000000 [(4) ] 0 33100 37550 144.444443 text
grestore
34300 37200 34000 37200 10 line
gsave
false true false true 208.000000 [(1) ] 0 34200 37150 144.444443 text
grestore
34300 38000 34000 38000 10 line
gsave
false true false true 208.000000 [(5) ] 0 34200 37950 144.444443 text
grestore
34000 37800 33200 37800 10 line
34000 38200 33200 38200 10 line
34000 37400 33200 37400 10 line
33600 37000 33600 39000 10 line
34000 38600 33200 38600 10 line
33200 37000 34000 37000 10 line
34000 37000 34000 39000 10 line
34000 39000 33200 39000 10 line
33200 39000 33200 37000 10 line
33200 38800 32900 38800 10 line
gsave
false true false true 208.000000 [(10) ] 0 33050 38750 144.444443 text
grestore
34300 38800 34000 38800 10 line
gsave
false true false true 208.000000 [(9) ] 0 34150 38750 144.444443 text
grestore
33200 38400 32900 38400 10 line
gsave
false true false true 208.000000 [(8) ] 0 33050 38350 144.444443 text
grestore
34300 38400 34000 38400 10 line
gsave
false true false true 208.000000 [(7) ] 0 34150 38350 144.444443 text
grestore
33200 38000 32900 38000 10 line
gsave
false true false true 208.000000 [(6) ] 0 33050 37950 144.444443 text
grestore
grestore
gsave
false true false true 260.000000 [(JP2) ] 0 33700 36900 180.555557 text
grestore
gsave
35100 36600 35100 36800 10 line
35000 36600 35200 36600 10 line
35055 36550 35145 36550 10 line
35080 36510 35120 36510 10 line
grestore
gsave
false false false false 260.000000 [(GND) ] 0 34900 36300 180.555557 text
grestore
34300 38800 35100 38800 10 line
gsave
false false false false 260.000000 [(ADC0) ] 0 35300 38800 180.555557 text
grestore
34300 38400 35100 38400 10 line
gsave
false false false false 260.000000 [(ADC4) ] 0 35300 38400 180.555557 text
grestore
34300 38000 35100 38000 10 line
gsave
false false false false 260.000000 [(ADC6) ] 0 35300 38000 180.555557 text
grestore
34300 37600 35100 37600 10 line
gsave
false false false false 260.000000 [(ADC8) ] 0 35300 37600 180.555557 text
grestore
34300 37200 35100 37200 10 line
32100 38800 32900 38800 10 line
gsave
false false false false 260.000000 [(ADC1) ] 0 31500 38800 180.555557 text
grestore
32100 38400 32900 38400 10 line
gsave
false false false false 260.000000 [(ADC5) ] 0 31500 38400 180.555557 text
grestore
32100 38000 32900 38000 10 line
gsave
false false false false 260.000000 [(ADC7) ] 0 31500 38000 180.555557 text
grestore
32100 37600 32900 37600 10 line
gsave
false false false false 260.000000 [(ADC9) ] 0 31500 37600 180.555557 text
grestore
32100 37200 32900 37200 10 line
gsave
false false false false 260.000000 [(AREF) ] 0 31500 37200 180.555557 text
grestore
35100 37200 35100 36800 10 line
gsave
36800 40600 36800 40800 10 line
36700 40600 36900 40600 10 line
36755 40550 36845 40550 10 line
36780 40510 36820 40510 10 line
grestore
gsave
28700 41400 28700 41600 10 line
28550 41600 28850 41600 10 line
gsave
false false false false 208.000000 [(+5V) ] 0 28575 41650 144.444443 text
grestore
grestore
gsave
29100 41400 29100 41600 10 line
28950 41600 29250 41600 10 line
gsave
false false false false 208.000000 [(+3.3V) ] 0 28975 41650 144.444443 text
grestore
grestore
29100 41200 32900 41200 10 line
28700 40800 32900 40800 10 line
36800 41200 34300 41200 10 line
36800 40800 34300 40800 10 line
36800 41200 36800 40800 10 line
28700 40800 28700 41400 10 line
29100 41200 29100 41400 10 line
32900 42000 30400 42000 10 line
gsave
false false false false 260.000000 [(L14N_2) ] 0 29600 41900 180.555557 text
grestore
32900 41600 30400 41600 10 line
gsave
false false false false 260.000000 [(DONE) ] 0 29700 41500 180.555557 text
grestore
32900 42400 30400 42400 10 line
gsave
false false false false 260.000000 [(L2N_2) ] 0 29700 42300 180.555557 text
grestore
32900 43200 30400 43200 10 line
gsave
false false false false 260.000000 [(L47N_1) ] 0 29600 43100 180.555557 text
grestore
32900 42800 30400 42800 10 line
gsave
false false false false 260.000000 [(L74N_1) ] 0 29600 42700 180.555557 text
grestore
32900 43600 30400 43600 10 line
gsave
false false false false 260.000000 [(L46N_1) ] 0 29600 43500 180.555557 text
grestore
32900 44400 30400 44400 10 line
gsave
false false false false 260.000000 [(L43N_1) ] 0 29600 44300 180.555557 text
grestore
32900 44000 30400 44000 10 line
gsave
false false false false 260.000000 [(L45N_1) ] 0 29600 43900 180.555557 text
grestore
32900 44800 30400 44800 10 line
gsave
false false false false 260.000000 [(L42N_1) ] 0 29600 44700 180.555557 text
grestore
32900 45600 30400 45600 10 line
gsave
false false false false 260.000000 [(L40N_1) ] 0 29600 45500 180.555557 text
grestore
32900 45200 30400 45200 10 line
gsave
false false false false 260.000000 [(L41N_1) ] 0 29600 45100 180.555557 text
grestore
32900 46000 30400 46000 10 line
gsave
false false false false 260.000000 [(L34N_1) ] 0 29600 45900 180.555557 text
grestore
32900 46800 30400 46800 10 line
gsave
false false false false 260.000000 [(L32N_1) ] 0 29600 46700 180.555557 text
grestore
32900 46400 30400 46400 10 line
gsave
false false false false 260.000000 [(L33N_1) ] 0 29600 46300 180.555557 text
grestore
32900 47200 30400 47200 10 line
gsave
false false false false 260.000000 [(L1N_1) ] 0 29700 47100 180.555557 text
grestore
32900 48000 30400 48000 10 line
gsave
false false false false 260.000000 [(L65N_0) ] 0 29600 47900 180.555557 text
grestore
32900 47600 30400 47600 10 line
gsave
false false false false 260.000000 [(L66N_0) ] 0 29600 47500 180.555557 text
grestore
32900 48400 30400 48400 10 line
gsave
false false false false 260.000000 [(L64N_0) ] 0 29600 48300 180.555557 text
grestore
32900 49200 30400 49200 10 line
gsave
false false false false 260.000000 [(L62N_0) ] 0 29600 49100 180.555557 text
grestore
32900 48800 30400 48800 10 line
gsave
false false false false 260.000000 [(L63N_0) ] 0 29600 48700 180.555557 text
grestore
32900 49600 30400 49600 10 line
gsave
false false false false 260.000000 [(TDO) ] 0 29800 49500 180.555557 text
grestore
32900 50000 30400 50000 10 line
gsave
false false false false 260.000000 [(TCK) ] 0 29800 49900 180.555557 text
grestore
36800 42000 34300 42000 10 line
gsave
false false false false 260.000000 [(L14P_2) ] 0 36900 41900 180.555557 text
grestore
36800 41600 34300 41600 10 line
gsave
false false false false 260.000000 [(SUSPEND) ] 0 36900 41500 180.555557 text
grestore
36800 42400 34300 42400 10 line
gsave
false false false false 260.000000 [(L2P_2) ] 0 36900 42300 180.555557 text
grestore
36800 43200 34300 43200 10 line
gsave
false false false false 260.000000 [(L47P_1) ] 0 36900 43100 180.555557 text
grestore
36800 42800 34300 42800 10 line
gsave
false false false false 260.000000 [(L74P_1) ] 0 36900 42700 180.555557 text
grestore
36800 43600 34300 43600 10 line
gsave
false false false false 260.000000 [(L46P_1) ] 0 36900 43500 180.555557 text
grestore
36800 44400 34300 44400 10 line
gsave
false false false false 260.000000 [(L43P_1) ] 0 36900 44300 180.555557 text
grestore
36800 44000 34300 44000 10 line
gsave
false false false false 260.000000 [(L45P_1) ] 0 36900 43900 180.555557 text
grestore
36800 44800 34300 44800 10 line
gsave
false false false false 260.000000 [(L42P_1) ] 0 36900 44700 180.555557 text
grestore
36800 45600 34300 45600 10 line
gsave
false false false false 260.000000 [(L40P_1) ] 0 36900 45500 180.555557 text
grestore
36800 45200 34300 45200 10 line
gsave
false false false false 260.000000 [(L41P_1) ] 0 36900 45100 180.555557 text
grestore
36800 46000 34300 46000 10 line
gsave
false false false false 260.000000 [(L34P_1) ] 0 36900 45900 180.555557 text
grestore
36800 46800 34300 46800 10 line
gsave
false false false false 260.000000 [(L32P_1) ] 0 36900 46700 180.555557 text
grestore
36800 46400 34300 46400 10 line
gsave
false false false false 260.000000 [(L33P_1) ] 0 36900 46300 180.555557 text
grestore
36800 47200 34300 47200 10 line
gsave
false false false false 260.000000 [(L1P_1) ] 0 36900 47100 180.555557 text
grestore
36800 48000 34300 48000 10 line
gsave
false false false false 260.000000 [(L65P_0) ] 0 36900 47900 180.555557 text
grestore
36800 47600 34300 47600 10 line
gsave
false false false false 260.000000 [(L66P_0) ] 0 36900 47500 180.555557 text
grestore
36800 48400 34300 48400 10 line
gsave
false false false false 260.000000 [(L64P_0) ] 0 36900 48300 180.555557 text
grestore
36800 49200 34300 49200 10 line
gsave
false false false false 260.000000 [(L62P_0) ] 0 36900 49100 180.555557 text
grestore
36800 48800 34300 48800 10 line
gsave
false false false false 260.000000 [(L63P_0) ] 0 36900 48700 180.555557 text
grestore
36800 49600 34300 49600 10 line
gsave
false false false false 260.000000 [(TMS) ] 0 36900 49500 180.555557 text
grestore
36800 50400 34300 50400 10 line
gsave
false false false false 260.000000 [(L65N_2) ] 0 36900 50300 180.555557 text
grestore
36800 50000 34300 50000 10 line
gsave
false false false false 260.000000 [(TDI) ] 0 36900 49900 180.555557 text
grestore
gsave
29000 50000 29000 50200 10 line
28900 50000 29100 50000 10 line
28955 49950 29045 49950 10 line
28980 49910 29020 49910 10 line
grestore
32900 50400 29000 50400 10 line
29000 50400 29000 50200 10 line
gsave
false false false false 260.000000 [(GND) ] 0 36600 40300 180.555557 text
grestore
gsave
false false false false 260.000000 [(GND) ] 0 28800 49700 180.555557 text
grestore
gsave
27400 35000 50700 35000 10 line
50700 35000 50700 51500 10 line
50700 51500 27400 51500 10 line
27400 51500 27400 35000 10 line
46600 35600 46600 35000 10 line
gsave
false false false false 208.000000 [(FILE:) ] 0 43200 35400 144.444443 text
grestore
gsave
false false false false 208.000000 [(REVISION:) ] 0 46700 35400 144.444443 text
grestore
gsave
false false false false 208.000000 [(DRAWN BY: ) ] 0 46700 35100 144.444443 text
grestore
gsave
false false false false 208.000000 [(PAGE) ] 0 43200 35100 144.444443 text
grestore
gsave
false false false false 208.000000 [(OF) ] 0 44900 35100 144.444443 text
grestore
gsave
false false false false 208.000000 [(TITLE) ] 0 43200 35700 144.444443 text
grestore
43100 35000 50700 35000 10 line
50700 35000 50700 36400 10 line
50700 36400 43100 36400 10 line
43100 36400 43100 35000 10 line
43100 35600 50700 35600 10 line
grestore
gsave
false false false false 260.000000 [(Z-BOARD) ] 0 43700 35700 180.555557 text
grestore
gsave
false false false false 260.000000 [(Aaron Storey) ] 0 47600 35100 180.555557 text
grestore
gsave
false false false false 260.000000 [(4) ] 0 44200 35100 180.555557 text
grestore
gsave
false false false false 260.000000 [(7) ] 0 45800 35100 180.555557 text
grestore
gsave
32900 40800 33200 40800 10 line
gsave
false true false true 208.000000 [(1) ] 0 33105 40755 144.444443 text
grestore
34000 40800 34300 40800 10 line
gsave
false false false true 208.000000 [(2) ] 0 34095 40755 144.444443 text
grestore
32900 41200 33200 41200 10 line
gsave
false true false true 208.000000 [(3) ] 0 33105 41155 144.444443 text
grestore
34000 41200 34300 41200 10 line
gsave
false false false true 208.000000 [(4) ] 0 34095 41155 144.444443 text
grestore
32900 41600 33200 41600 10 line
gsave
false true false true 208.000000 [(5) ] 0 33105 41555 144.444443 text
grestore
34000 41600 34300 41600 10 line
gsave
false false false true 208.000000 [(6) ] 0 34095 41555 144.444443 text
grestore
32900 42000 33200 42000 10 line
gsave
false true false true 208.000000 [(7) ] 0 33105 41955 144.444443 text
grestore
34000 42000 34300 42000 10 line
gsave
false false false true 208.000000 [(8) ] 0 34095 41955 144.444443 text
grestore
32900 42400 33200 42400 10 line
gsave
false true false true 208.000000 [(9) ] 0 33105 42355 144.444443 text
grestore
34000 42400 34300 42400 10 line
gsave
false false false true 208.000000 [(10) ] 0 34095 42355 144.444443 text
grestore
32900 42800 33200 42800 10 line
gsave
false true false true 208.000000 [(11) ] 0 33105 42755 144.444443 text
grestore
34000 42800 34300 42800 10 line
gsave
false false false true 208.000000 [(12) ] 0 34095 42755 144.444443 text
grestore
32900 43200 33200 43200 10 line
gsave
false true false true 208.000000 [(13) ] 0 33105 43155 144.444443 text
grestore
34000 43200 34300 43200 10 line
gsave
false false false true 208.000000 [(14) ] 0 34095 43155 144.444443 text
grestore
32900 43600 33200 43600 10 line
gsave
false true false true 208.000000 [(15) ] 0 33105 43555 144.444443 text
grestore
34000 43600 34300 43600 10 line
gsave
false false false true 208.000000 [(16) ] 0 34095 43555 144.444443 text
grestore
32900 44000 33200 44000 10 line
gsave
false true false true 208.000000 [(17) ] 0 33105 43955 144.444443 text
grestore
34000 44000 34300 44000 10 line
gsave
false false false true 208.000000 [(18) ] 0 34095 43955 144.444443 text
grestore
32900 44400 33200 44400 10 line
gsave
false true false true 208.000000 [(19) ] 0 33105 44355 144.444443 text
grestore
34000 44400 34300 44400 10 line
gsave
false false false true 208.000000 [(20) ] 0 34095 44355 144.444443 text
grestore
32900 44800 33200 44800 10 line
gsave
false true false true 208.000000 [(21) ] 0 33105 44755 144.444443 text
grestore
34000 44800 34300 44800 10 line
gsave
false false false true 208.000000 [(22) ] 0 34095 44755 144.444443 text
grestore
32900 45200 33200 45200 10 line
gsave
false true false true 208.000000 [(23) ] 0 33105 45155 144.444443 text
grestore
34000 45200 34300 45200 10 line
gsave
false false false true 208.000000 [(24) ] 0 34095 45155 144.444443 text
grestore
32900 45600 33200 45600 10 line
gsave
false true false true 208.000000 [(25) ] 0 33105 45555 144.444443 text
grestore
34000 45600 34300 45600 10 line
gsave
false false false true 208.000000 [(26) ] 0 34095 45555 144.444443 text
grestore
32900 46000 33200 46000 10 line
gsave
false true false true 208.000000 [(27) ] 0 33105 45955 144.444443 text
grestore
34000 46000 34300 46000 10 line
gsave
false false false true 208.000000 [(28) ] 0 34095 45955 144.444443 text
grestore
32900 46400 33200 46400 10 line
gsave
false true false true 208.000000 [(29) ] 0 33105 46355 144.444443 text
grestore
34000 46400 34300 46400 10 line
gsave
false false false true 208.000000 [(30) ] 0 34095 46355 144.444443 text
grestore
32900 46800 33200 46800 10 line
gsave
false true false true 208.000000 [(31) ] 0 33105 46755 144.444443 text
grestore
34000 46800 34300 46800 10 line
gsave
false false false true 208.000000 [(32) ] 0 34095 46755 144.444443 text
grestore
32900 47200 33200 47200 10 line
gsave
false true false true 208.000000 [(33) ] 0 33105 47155 144.444443 text
grestore
34000 47200 34300 47200 10 line
gsave
false false false true 208.000000 [(34) ] 0 34095 47155 144.444443 text
grestore
32900 47600 33200 47600 10 line
gsave
false true false true 208.000000 [(35) ] 0 33105 47555 144.444443 text
grestore
34000 47600 34300 47600 10 line
gsave
false false false true 208.000000 [(36) ] 0 34095 47555 144.444443 text
grestore
32900 48000 33200 48000 10 line
gsave
false true false true 208.000000 [(37) ] 0 33105 47955 144.444443 text
grestore
34000 48000 34300 48000 10 line
gsave
false false false true 208.000000 [(38) ] 0 34095 47955 144.444443 text
grestore
32900 48400 33200 48400 10 line
gsave
false true false true 208.000000 [(39) ] 0 33105 48355 144.444443 text
grestore
34000 48400 34300 48400 10 line
gsave
false false false true 208.000000 [(40) ] 0 34095 48355 144.444443 text
grestore
32900 48800 33200 48800 10 line
gsave
false true false true 208.000000 [(41) ] 0 33105 48755 144.444443 text
grestore
34000 48800 34300 48800 10 line
gsave
false false false true 208.000000 [(42) ] 0 34095 48755 144.444443 text
grestore
32900 49200 33200 49200 10 line
gsave
false true false true 208.000000 [(43) ] 0 33105 49155 144.444443 text
grestore
34000 49200 34300 49200 10 line
gsave
false false false true 208.000000 [(44) ] 0 34095 49155 144.444443 text
grestore
32900 49600 33200 49600 10 line
gsave
false true false true 208.000000 [(45) ] 0 33105 49555 144.444443 text
grestore
34000 49600 34300 49600 10 line
gsave
false false false true 208.000000 [(46) ] 0 34095 49555 144.444443 text
grestore
32900 50000 33200 50000 10 line
gsave
false true false true 208.000000 [(47) ] 0 33105 49955 144.444443 text
grestore
34000 50000 34300 50000 10 line
gsave
false false false true 208.000000 [(48) ] 0 34095 49955 144.444443 text
grestore
32900 50400 33200 50400 10 line
gsave
false true false true 208.000000 [(49) ] 0 33105 50355 144.444443 text
grestore
34000 50400 34300 50400 10 line
gsave
false false false true 208.000000 [(50) ] 0 34095 50355 144.444443 text
grestore
33200 41400 34000 41400 10 line
33200 41800 34000 41800 10 line
33200 41000 34000 41000 10 line
33200 42200 34000 42200 10 line
33200 43400 34000 43400 10 line
33200 43800 34000 43800 10 line
33200 43000 34000 43000 10 line
33200 44200 34000 44200 10 line
33200 42600 34000 42600 10 line
33600 40600 33600 44600 10 line
33200 45400 34000 45400 10 line
33200 45800 34000 45800 10 line
33200 45000 34000 45000 10 line
33200 46200 34000 46200 10 line
33200 47400 34000 47400 10 line
33200 47800 34000 47800 10 line
33200 47000 34000 47000 10 line
33200 48200 34000 48200 10 line
33200 46600 34000 46600 10 line
33600 44600 33600 50600 10 line
33200 44600 34000 44600 10 line
33200 49400 34000 49400 10 line
33200 49800 34000 49800 10 line
33200 49000 34000 49000 10 line
33200 50200 34000 50200 10 line
33200 48600 34000 48600 10 line
33200 40600 34000 40600 10 line
34000 40600 34000 50600 10 line
34000 50600 33200 50600 10 line
33200 50600 33200 40600 10 line
grestore
gsave
false false false true 260.000000 [(SV1) ] 0 33500 40500 180.555557 text
grestore
gsave
44500 40800 44800 40800 10 line
gsave
false true false true 208.000000 [(1) ] 0 44705 40755 144.444443 text
grestore
45600 40800 45900 40800 10 line
gsave
false false false true 208.000000 [(2) ] 0 45695 40755 144.444443 text
grestore
44500 41200 44800 41200 10 line
gsave
false true false true 208.000000 [(3) ] 0 44705 41155 144.444443 text
grestore
45600 41200 45900 41200 10 line
gsave
false false false true 208.000000 [(4) ] 0 45695 41155 144.444443 text
grestore
44500 41600 44800 41600 10 line
gsave
false true false true 208.000000 [(5) ] 0 44705 41555 144.444443 text
grestore
45600 41600 45900 41600 10 line
gsave
false false false true 208.000000 [(6) ] 0 45695 41555 144.444443 text
grestore
44500 42000 44800 42000 10 line
gsave
false true false true 208.000000 [(7) ] 0 44705 41955 144.444443 text
grestore
45600 42000 45900 42000 10 line
gsave
false false false true 208.000000 [(8) ] 0 45695 41955 144.444443 text
grestore
44500 42400 44800 42400 10 line
gsave
false true false true 208.000000 [(9) ] 0 44705 42355 144.444443 text
grestore
45600 42400 45900 42400 10 line
gsave
false false false true 208.000000 [(10) ] 0 45695 42355 144.444443 text
grestore
44500 42800 44800 42800 10 line
gsave
false true false true 208.000000 [(11) ] 0 44705 42755 144.444443 text
grestore
45600 42800 45900 42800 10 line
gsave
false false false true 208.000000 [(12) ] 0 45695 42755 144.444443 text
grestore
44500 43200 44800 43200 10 line
gsave
false true false true 208.000000 [(13) ] 0 44705 43155 144.444443 text
grestore
45600 43200 45900 43200 10 line
gsave
false false false true 208.000000 [(14) ] 0 45695 43155 144.444443 text
grestore
44500 43600 44800 43600 10 line
gsave
false true false true 208.000000 [(15) ] 0 44705 43555 144.444443 text
grestore
45600 43600 45900 43600 10 line
gsave
false false false true 208.000000 [(16) ] 0 45695 43555 144.444443 text
grestore
44500 44000 44800 44000 10 line
gsave
false true false true 208.000000 [(17) ] 0 44705 43955 144.444443 text
grestore
45600 44000 45900 44000 10 line
gsave
false false false true 208.000000 [(18) ] 0 45695 43955 144.444443 text
grestore
44500 44400 44800 44400 10 line
gsave
false true false true 208.000000 [(19) ] 0 44705 44355 144.444443 text
grestore
45600 44400 45900 44400 10 line
gsave
false false false true 208.000000 [(20) ] 0 45695 44355 144.444443 text
grestore
44500 44800 44800 44800 10 line
gsave
false true false true 208.000000 [(21) ] 0 44705 44755 144.444443 text
grestore
45600 44800 45900 44800 10 line
gsave
false false false true 208.000000 [(22) ] 0 45695 44755 144.444443 text
grestore
44500 45200 44800 45200 10 line
gsave
false true false true 208.000000 [(23) ] 0 44705 45155 144.444443 text
grestore
45600 45200 45900 45200 10 line
gsave
false false false true 208.000000 [(24) ] 0 45695 45155 144.444443 text
grestore
44500 45600 44800 45600 10 line
gsave
false true false true 208.000000 [(25) ] 0 44705 45555 144.444443 text
grestore
45600 45600 45900 45600 10 line
gsave
false false false true 208.000000 [(26) ] 0 45695 45555 144.444443 text
grestore
44500 46000 44800 46000 10 line
gsave
false true false true 208.000000 [(27) ] 0 44705 45955 144.444443 text
grestore
45600 46000 45900 46000 10 line
gsave
false false false true 208.000000 [(28) ] 0 45695 45955 144.444443 text
grestore
44500 46400 44800 46400 10 line
gsave
false true false true 208.000000 [(29) ] 0 44705 46355 144.444443 text
grestore
45600 46400 45900 46400 10 line
gsave
false false false true 208.000000 [(30) ] 0 45695 46355 144.444443 text
grestore
44500 46800 44800 46800 10 line
gsave
false true false true 208.000000 [(31) ] 0 44705 46755 144.444443 text
grestore
45600 46800 45900 46800 10 line
gsave
false false false true 208.000000 [(32) ] 0 45695 46755 144.444443 text
grestore
44500 47200 44800 47200 10 line
gsave
false true false true 208.000000 [(33) ] 0 44705 47155 144.444443 text
grestore
45600 47200 45900 47200 10 line
gsave
false false false true 208.000000 [(34) ] 0 45695 47155 144.444443 text
grestore
44500 47600 44800 47600 10 line
gsave
false true false true 208.000000 [(35) ] 0 44705 47555 144.444443 text
grestore
45600 47600 45900 47600 10 line
gsave
false false false true 208.000000 [(36) ] 0 45695 47555 144.444443 text
grestore
44500 48000 44800 48000 10 line
gsave
false true false true 208.000000 [(37) ] 0 44705 47955 144.444443 text
grestore
45600 48000 45900 48000 10 line
gsave
false false false true 208.000000 [(38) ] 0 45695 47955 144.444443 text
grestore
44500 48400 44800 48400 10 line
gsave
false true false true 208.000000 [(39) ] 0 44705 48355 144.444443 text
grestore
45600 48400 45900 48400 10 line
gsave
false false false true 208.000000 [(40) ] 0 45695 48355 144.444443 text
grestore
44500 48800 44800 48800 10 line
gsave
false true false true 208.000000 [(41) ] 0 44705 48755 144.444443 text
grestore
45600 48800 45900 48800 10 line
gsave
false false false true 208.000000 [(42) ] 0 45695 48755 144.444443 text
grestore
44500 49200 44800 49200 10 line
gsave
false true false true 208.000000 [(43) ] 0 44705 49155 144.444443 text
grestore
45600 49200 45900 49200 10 line
gsave
false false false true 208.000000 [(44) ] 0 45695 49155 144.444443 text
grestore
44500 49600 44800 49600 10 line
gsave
false true false true 208.000000 [(45) ] 0 44705 49555 144.444443 text
grestore
45600 49600 45900 49600 10 line
gsave
false false false true 208.000000 [(46) ] 0 45695 49555 144.444443 text
grestore
44500 50000 44800 50000 10 line
gsave
false true false true 208.000000 [(47) ] 0 44705 49955 144.444443 text
grestore
45600 50000 45900 50000 10 line
gsave
false false false true 208.000000 [(48) ] 0 45695 49955 144.444443 text
grestore
44500 50400 44800 50400 10 line
gsave
false true false true 208.000000 [(49) ] 0 44705 50355 144.444443 text
grestore
45600 50400 45900 50400 10 line
gsave
false false false true 208.000000 [(50) ] 0 45695 50355 144.444443 text
grestore
44800 41400 45600 41400 10 line
44800 41800 45600 41800 10 line
44800 41000 45600 41000 10 line
44800 42200 45600 42200 10 line
44800 43400 45600 43400 10 line
44800 43800 45600 43800 10 line
44800 43000 45600 43000 10 line
44800 44200 45600 44200 10 line
44800 42600 45600 42600 10 line
45200 40600 45200 44600 10 line
44800 45400 45600 45400 10 line
44800 45800 45600 45800 10 line
44800 45000 45600 45000 10 line
44800 46200 45600 46200 10 line
44800 47400 45600 47400 10 line
44800 47800 45600 47800 10 line
44800 47000 45600 47000 10 line
44800 48200 45600 48200 10 line
44800 46600 45600 46600 10 line
45200 44600 45200 50600 10 line
44800 44600 45600 44600 10 line
44800 49400 45600 49400 10 line
44800 49800 45600 49800 10 line
44800 49000 45600 49000 10 line
44800 50200 45600 50200 10 line
44800 48600 45600 48600 10 line
44800 40600 45600 40600 10 line
45600 40600 45600 50600 10 line
45600 50600 44800 50600 10 line
44800 50600 44800 40600 10 line
grestore
gsave
false false false true 260.000000 [(SV2) ] 0 45100 40500 180.555557 text
grestore
60 60 41970 50370 fbox
60 60 41970 49970 fbox
60 60 41970 49570 fbox
60 60 41970 49170 fbox
60 60 41970 48770 fbox
60 60 41970 48370 fbox
60 60 41970 47970 fbox
60 60 41970 47570 fbox
60 60 41970 47170 fbox
60 60 41970 46770 fbox
60 60 41970 46370 fbox
60 60 41970 45970 fbox
60 60 41970 45570 fbox
60 60 41970 45170 fbox
60 60 41970 44770 fbox
60 60 41970 44370 fbox
60 60 41970 43970 fbox
60 60 41970 43570 fbox
60 60 41970 43170 fbox
60 60 41970 42770 fbox
60 60 41970 42370 fbox
60 60 41970 41970 fbox
60 60 41970 41570 fbox
60 60 48370 50370 fbox
60 60 48370 49970 fbox
60 60 48370 49570 fbox
60 60 48370 49170 fbox
60 60 48370 48770 fbox
60 60 48370 48370 fbox
60 60 48370 47970 fbox
60 60 48370 47570 fbox
60 60 48370 47170 fbox
60 60 48370 46770 fbox
60 60 48370 46370 fbox
60 60 48370 45970 fbox
60 60 48370 45570 fbox
60 60 48370 45170 fbox
60 60 48370 44770 fbox
60 60 48370 44370 fbox
60 60 48370 43970 fbox
60 60 48370 43570 fbox
60 60 48370 43170 fbox
60 60 48370 42770 fbox
60 60 48370 42370 fbox
60 60 48370 41970 fbox
60 60 48370 41570 fbox
newpath
48400 40800
25
0 360 arc
fill
newpath
48400 40800
25
0 360 arc
fill
60 60 35070 38770 fbox
60 60 35070 38370 fbox
60 60 35070 37970 fbox
60 60 35070 37570 fbox
60 60 32070 38770 fbox
60 60 32070 38370 fbox
60 60 32070 37970 fbox
60 60 32070 37570 fbox
60 60 32070 37170 fbox
newpath
36800 40800
25
0 360 arc
fill
newpath
36800 40800
25
0 360 arc
fill
60 60 30370 41970 fbox
60 60 30370 41570 fbox
60 60 30370 42370 fbox
60 60 30370 43170 fbox
60 60 30370 42770 fbox
60 60 30370 43570 fbox
60 60 30370 44370 fbox
60 60 30370 43970 fbox
60 60 30370 44770 fbox
60 60 30370 45570 fbox
60 60 30370 45170 fbox
60 60 30370 45970 fbox
60 60 30370 46770 fbox
60 60 30370 46370 fbox
60 60 30370 47170 fbox
60 60 30370 47970 fbox
60 60 30370 47570 fbox
60 60 30370 48370 fbox
60 60 30370 49170 fbox
60 60 30370 48770 fbox
60 60 30370 49570 fbox
60 60 30370 49970 fbox
60 60 36770 41970 fbox
60 60 36770 41570 fbox
60 60 36770 42370 fbox
60 60 36770 43170 fbox
60 60 36770 42770 fbox
60 60 36770 43570 fbox
60 60 36770 44370 fbox
60 60 36770 43970 fbox
60 60 36770 44770 fbox
60 60 36770 45570 fbox
60 60 36770 45170 fbox
60 60 36770 45970 fbox
60 60 36770 46770 fbox
60 60 36770 46370 fbox
60 60 36770 47170 fbox
60 60 36770 47970 fbox
60 60 36770 47570 fbox
60 60 36770 48370 fbox
60 60 36770 49170 fbox
60 60 36770 48770 fbox
60 60 36770 49570 fbox
60 60 36770 50370 fbox
60 60 36770 49970 fbox
showpage
%%End
