%!PS-Adobe-3.0 EPSF-3.0
%%Creator: gEDA gschem 1.6.1-20100214-22-ga30f00b
%%CreationDate: Wed Oct 22 16:32:23 2014
%%Title: /home/freaktm/mojo/mojo-schematics/mojo_1.sch
%%Author: freaktm
%%BoundingBox: 0 0 1224 792
%%Orientation: Portrait
%%Pages: 1
%%Endcomments
%%BeginProlog
% Prolog for gEDA, define all the functions needed for rendering
% schematics on Postscript devices


% Draw a line from the second coordinate to the first
% x2 y2 x1 y1 width line -
/line {
    setlinewidth
    % pop off first element and moveto
    moveto
    % pop off remaining elements and draw a line segment
    lineto
    % draw it
    stroke
} bind def


% Draw a dot
% x y r dot -
/dot {
    0 360 arc fill
} bind def

% Draw a dot-dashed line, a bunch of lined segments,
% if the array element only has length two, draw a dot.
% [ [x2 y2 x1 y1] [x4 y4 x3 y3] [x5 y5] ... ] width dashed -
/width 0 def
/dashed {
    dup 2.0 div /width exch def
    setlinewidth
    % pop off each line segment and draw it as a dot or as a line
    {
	aload length 2 gt
	{ moveto lineto stroke}
	{ width dot } ifelse
    } forall
} bind def

% Draw an arc segment
% x y r ang1 ang2 width darc -
/darc {
    setlinewidth
    arc stroke
} bind def

% Draw a series of arc segment bits, if the array element only has a single
% element in it, draw a dot.
% [ [sa1 ea1] [sa2 ea2] ... ] x y r width dashedarc -
/x 0 def
/y 0 def
/dashedarc {
    dup /width exch def
    setlinewidth
    /r exch def  
    /y exch def
    /x exch def
    { aload length 1 gt
	{
	    % this element had two angles in it
	    % extract start and stop angles
	    x y r   % drop x y and r onto stack
		    % at this point we have: sa ea x y r
		    % we need                      x y r sa ea
		    % so..
	    5 -2 roll
	    % and add it to the current path, and draw it
	    arc stroke
	} {
	    % this element only had one angle in it, place a
	    % filled dot at the appropriate place
	    % compute center point of the arc using the angle
	    % that is on the top of the stack
	    dup   		% angle angle
	    cos r mul x add 	% angle x
	    exch		% x angle
	    sin r mul y add	% x y
	    width		% x y width/2
	    dot			% draw the dot
	} ifelse
    } forall

    % Now draw it
    stroke
} bind def

% Draw a box
% width height x y linethickness box -
/box {
    setlinewidth
    moveto
    exch dup 0 rlineto	 % w h, h w w 0      -- Draw bottom line
    exch 0 exch rlineto	 % h w, w h 0, w 0 h -- Draw right line 
    neg 0 rlineto	 % w, -w 0           -- Draw Top line
    closepath		 % finish and draw it
    stroke
} bind def			     

% Draw a filled box
% width height x y fbox -
/fbox {
    moveto
    exch dup 0 rlineto	
    exch 0 exch rlineto	
    neg 0 rlineto		
    closepath			
    fill			
} bind def

% Font reincoding utilities

% ISOLatin1Encoding, extended with remaining uncoded glyphs
/ISOLatin1Extended [
    /.notdef /Lslash /lslash /OE /oe /Scaron /scaron /Zcaron /zcaron
    /Ydieresis /trademark /bullet /dagger /daggerdbl /ellipsis /emdash
    /endash /fi /fl /florin /fraction /guilsinglleft /guilsinglright
    /perthousand /quotedblbase /quotedblleft /quotedblright
    /quotesinglbase /quotesingle /.notdef /.notdef /.notdef /space
    /exclam /quotedbl /numbersign /dollar /percent /ampersand
    /quoteright /parenleft /parenright /asterisk /plus /comma /minus
    /period /slash /zero /one /two /three /four /five /six /seven /eight
    /nine /colon /semicolon /less /equal /greater /question /at /A /B /C
    /D /E /F /G /H /I /J /K /L /M /N /O /P /Q /R /S /T /U /V /W /X /Y /Z
    /bracketleft /backslash /bracketright /asciicircum /underscore
    /quoteleft /a /b /c /d /e /f /g /h /i /j /k /l /m /n /o /p /q /r /s
    /t /u /v /w /x /y /z /braceleft /bar /braceright /asciitilde
    /.notdef /.notdef /.notdef /.notdef /.notdef /.notdef /.notdef
    /.notdef /.notdef /.notdef /.notdef /.notdef /.notdef /.notdef
    /.notdef /.notdef /.notdef /dotlessi /grave /acute /circumflex
    /tilde /macron /breve /dotaccent /dieresis /.notdef /ring /cedilla
    /.notdef /hungarumlaut /ogonek /caron /space /exclamdown /cent
    /sterling /currency /yen /brokenbar /section /dieresis /copyright
    /ordfeminine /guillemotleft /logicalnot /hyphen /registered /macron
    /degree /plusminus /twosuperior /threesuperior /acute /mu /paragraph
    /periodcentered /cedilla /onesuperior /ordmasculine /guillemotright
    /onequarter /onehalf /threequarters /questiondown /Agrave /Aacute
    /Acircumflex /Atilde /Adieresis /Aring /AE /Ccedilla /Egrave /Eacute
    /Ecircumflex /Edieresis /Igrave /Iacute /Icircumflex /Idieresis /Eth
    /Ntilde /Ograve /Oacute /Ocircumflex /Otilde /Odieresis /multiply
    /Oslash /Ugrave /Uacute /Ucircumflex /Udieresis /Yacute /Thorn
    /germandbls /agrave /aacute /acircumflex /atilde /adieresis /aring
    /ae /ccedilla /egrave /eacute /ecircumflex /edieresis /igrave
    /iacute /icircumflex /idieresis /eth /ntilde /ograve /oacute
    /ocircumflex /otilde /odieresis /divide /oslash /ugrave /uacute
    /ucircumflex /udieresis /yacute /thorn /ydieresis
] def

% `new-font-name' `encoding-vector' `old-font-name' RE -
/RE {
    findfont
    dup maxlength dict begin {
        1 index /FID ne { def } { pop pop } ifelse
    } forall
    /Encoding exch def
    dup /FontName exch def
    currentdict end definefont pop
} bind def

% Text handling functions, select the font and scale it, then we need
% only to apply the appropriate transformations to get the text
% justified into the right spots.  The bad thing here is that we don't
% do any kerning, so the output may look a bit strange.

% compute the height of one character and return lly and ury
% (char) charheight lly ury
/charheight {
    gsave			% push graphics state
	newpath			% clear current path
	0 0 moveto		% Set current point
	false charpath		% get path
	flattenpath		% flatten path
	pathbbox		% stack = llx lly urx ury
	exch pop		% stack = llx lly ury
	3 -1 roll pop		% stack = lly ury
    grestore			% pop graphics state
} bind def

% compute the height of a string, one character at a time
% (string) stringheight lly ury
/lly 0.0 def
/ury 0.0 def

/stringheight {
    /lly 0.0 def			% initial value of heightmin
    /ury 0.0 def			% initial value of heightmax
    {				% work through string
	( ) dup 0 4 -1 roll put	% create one character string
	charheight		% measure it's height
	dup ury gt {		% if ury gt heightmax
	    /ury exch def	% update with new value
	} {
	    pop			% else discard ury
	} ifelse
	dup lly lt {		% if lly lt heightmin
	    /lly exch def	% update with new value
	} {
	    pop			% else discard lly
	} ifelse
    } forall
    lly ury			% Return the results
} bind def

% calculate the string width taking into account the escapes.
/mystrx 0.0 def
/mystry 0.0 def
/mystresc false def

/mystringwidth {
    /mystrx 0.0 def
    /mystry 0.0 def
    /mystresc false def
    {				% work through string
	% did we process the escape character last?
	mystresc {
	    % last character was escape
	    % handle the escape
	    % is it an _ = 95?
	    dup 95 eq {
		pop  % we don't need the character anymore
		% toggle drawing overbars
		0.0 0.0 % make it like it never happened...
	    } {
		% otherwise measure the character 
		(\\ ) dup 1 4 -1 roll put % count a \ and the character
		stringwidth
	    } ifelse
	    % and reset the flag
	    /mystresc false def
	} {
	    % last character was not escape
	    % is this escape
	    dup 92 eq {
		% yes, escape character, set flag
		/mystresc true def
		pop % drop character
		0.0 0.0 % make like this character has no width and height
	    } {
		( ) dup 0 4 -1 roll put	% create one character string
		stringwidth		% measure it's height/width
	    } ifelse
	} ifelse
	% accumulate x and y movements
	mystry add /mystry exch def
	mystrx add /mystrx exch def
    } forall
    mystrx mystry % drop results on stack
} bind def

% Render a string with overbars
%
/escaped false def
/drawoverbar false def
/fontsize 0.0 def

%string1 string2 append -
/append {
    2 copy length exch length add % find new length
    string dup % string1 string2 string string
    4 2 roll % string string string1 string2
    2 index 0 3 index
    % string string string1 string2 string 0 string1
    putinterval % string string string1 string2
    exch length exch putinterval
} bind def

% If drawoverbar is set, draw a line of the same length as the given string
% string overbarshowline -
/overbarshowline {
    % print overbar if necessary
    stringwidth pop 0
    drawoverbar {
        rlineto
        gsave stroke grestore
    } {
        rmoveto
    } ifelse
} bind def

% Draws overbars for the given string, then shows the string itself
% string overbarshow
/overbarshow {
    /overbarshowacc () def
    /overbarshowtxt () def

    gsave
    fontsize 10.0 div setlinewidth
    0 fontsize rmoveto  % move to (0,overbarheight)

    {				% work through string
	escaped {
	    % the last character was the escape
	    % handle the escape
	    % is it an _ = 95?
	    dup 95 eq {
		pop  % we don't need the character anymore
                overbarshowacc overbarshowline
                % toggle drawing overbars
		/drawoverbar drawoverbar not def

                % Append the contents off the accumulator to the text
                % string we're eventually going to show
                /overbarshowtxt overbarshowtxt overbarshowacc append def

                % clear accumulator
                /overbarshowacc () def
	    } {
                % add to accumulator
                (\\ ) dup 1 4 -1 roll put
                overbarshowacc exch append
                /overbarshowacc exch def
	    } ifelse
	    % and reset the flag
	    /escaped false def
	} {
	    % check for escape character \ = 92
	    dup 92 eq {
		% yes, escape character, set flag
		/escaped true def
		pop % drop character
	    } {
                % add to accumulator
                ( ) dup 0 4 -1 roll put
                overbarshowacc exch append
                /overbarshowacc exch def
	    } ifelse
	} ifelse
    } forall
    % Catch any leftovers
    overbarshowacc overbarshowline
    overbarshowtxt overbarshowacc append

    grestore
    show
} bind def

% 
% hcenter rjustify vcenter vjustify spacing [(line1) (line2) ... ] rot x y size text -
/stringw 0.0 def
/stringh 0.0 def
/spacing 0.0 def
/strings [ ] def
/stringtxt ( ) def
/stringcount 0 def
/rot 0.0 def

/text {
    gsave	        % save state for later
    /drawoverbar false def      % start by not drawing overbars

    dup /fontsize exch def  % save font size for corrections later
    % do font selection 
    /gEDAFont findfont
    exch scalefont
    setfont

    % set up coordinates
    translate           % move origin to given point
    rotate		% rotate so that text is drawn
    0 0 moveto
    dup length /stringcount exch def			% Get number of strings
    /strings exch def     				% save strings
    /spacing exch def
    % do we have more than 1 string to render?
    stringcount 1 eq {
	/stringtxt strings aload pop def		% get the string 
	/stringw stringtxt mystringwidth pop neg def	% get the -width
	/stringh stringtxt stringheight exch pop neg def% get the -height

	% First do vertical calculations
	% hcenter rjustify vcenter vjustify 
	% vertical justification
	{ 0 stringh rmoveto } if 
	% vertical center
	{ 0 stringh 0.3571425 mul rmoveto } if  % not 0.5, so that
						% it looks nicer
	% Then do horizontal calculations
	% right justify
	{ stringw 0 rmoveto } if
	% center
	{ stringw 2.0 div 0 rmoveto } if
	% Draw the text
	stringtxt overbarshow
    } {
	% More than one line, compute bounding box for the text

	% vertical height, don't use the actual hieght of the characters
	% assume that the user wants to make the baselines line up with two
	% text boxes placed side by side
	/stringh stringcount spacing mul neg def
	% Now figure out horizontal size, this amounts to keeping track
	% of the longest string
	/stringw 0.0 def
	strings {
	    mystringwidth pop
	    dup stringw gt {
		/stringw exch def
	    } {
		pop
	    } ifelse
	} forall
	/stringw stringw neg def 	% get the -width
	
	% First do vertical calculations
	% hcenter rjustify vcenter vjustify 
	% vertical justification
	{ 0 stringh fontsize add rmoveto } if 
	% vertical center
	{ 0 stringh 0.5 mul rmoveto } if 
	% Then do horizontal calculations
	% right justify
	{ stringw 0 rmoveto } if
	% center
	{ stringw 2.0 div 0 rmoveto } if
	% now move up to the first line and begin rendering
	0 stringcount 1 sub spacing mul rmoveto
	strings {
	    gsave		% Save starting point
	    overbarshow		% render the text
	    grestore
	    0 spacing neg rmoveto
	} forall
    } ifelse
    grestore 	% Restore old state
} bind def


%%EndProlog
%%Page: 1 1
/gEDAFont ISOLatin1Extended /Helvetica RE
2 setlinecap
0.072000 0.072000 scale
0 0 translate
1.000000 1.000000 scale
-40000 -40000 translate
gsave
40000 40000 57000 40000 10 line
57000 40000 57000 51000 10 line
57000 51000 40000 51000 10 line
40000 51000 40000 40000 10 line
52900 40600 52900 40000 10 line
gsave
false false false false 208.000000 [(FILE:) ] 0 49500 40400 144.444443 text
grestore
gsave
false false false false 208.000000 [(REVISION:) ] 0 53000 40400 144.444443 text
grestore
gsave
false false false false 208.000000 [(DRAWN BY: ) ] 0 53000 40100 144.444443 text
grestore
gsave
false false false false 208.000000 [(PAGE) ] 0 49500 40100 144.444443 text
grestore
gsave
false false false false 208.000000 [(OF) ] 0 51200 40100 144.444443 text
grestore
gsave
false false false false 208.000000 [(TITLE) ] 0 49500 40700 144.444443 text
grestore
49400 40000 57000 40000 10 line
57000 40000 57000 41400 10 line
57000 41400 49400 41400 10 line
49400 41400 49400 40000 10 line
49400 40600 57000 40600 10 line
grestore
gsave
false false false false 260.000000 [(Z-BOARD) ] 0 50100 40700 180.555557 text
grestore
gsave
false false false false 260.000000 [(1) ] 0 50400 40100 180.555557 text
grestore
gsave
false false false false 260.000000 [(7) ] 0 52000 40100 180.555557 text
grestore
gsave
false false false false 260.000000 [(Aaron Storey) ] 0 54000 40100 180.555557 text
grestore
gsave
52900 49900 52900 49750 10 line
52900 49000 52900 49150 10 line
52800 49150 53000 49150 10 line
53000 49150 53000 49750 10 line
53000 49750 52800 49750 10 line
52800 49750 52800 49150 10 line
grestore
gsave
52900 50300 52900 50500 10 line
52750 50500 53050 50500 10 line
gsave
false false false false 208.000000 [(+3.3V) ] 0 52775 50550 144.444443 text
grestore
grestore
gsave
53100 48700 53400 48700 10 line
gsave
false true false false 208.000000 [(1) ] 0 53300 48750 144.444443 text
grestore
gsave
false false false false 208.000000 [(CS) ] 0 53450 48700 144.444443 text
grestore
53100 48300 53400 48300 10 line
gsave
false true false false 208.000000 [(2) ] 0 53300 48350 144.444443 text
grestore
gsave
false false false false 208.000000 [(SO) ] 0 53450 48300 144.444443 text
grestore
53100 47900 53400 47900 10 line
gsave
false true false false 208.000000 [(3) ] 0 53300 47950 144.444443 text
grestore
gsave
false false false false 208.000000 [(WP) ] 0 53450 47900 144.444443 text
grestore
53100 47500 53400 47500 10 line
gsave
false true false false 208.000000 [(4) ] 0 53300 47550 144.444443 text
grestore
gsave
false false false false 208.000000 [(GND) ] 0 53450 47500 144.444443 text
grestore
55600 48300 55300 48300 10 line
gsave
false false false false 208.000000 [(5) ] 0 55400 48350 144.444443 text
grestore
gsave
false true false false 208.000000 [(HOLD) ] 0 55250 48300 144.444443 text
grestore
55600 47900 55300 47900 10 line
gsave
false false false false 208.000000 [(6) ] 0 55400 47950 144.444443 text
grestore
gsave
false true false false 208.000000 [(SCK) ] 0 55250 47900 144.444443 text
grestore
55600 47500 55300 47500 10 line
gsave
false false false false 208.000000 [(7) ] 0 55400 47550 144.444443 text
grestore
gsave
false true false false 208.000000 [(SI) ] 0 55250 47500 144.444443 text
grestore
55600 48700 55300 48700 10 line
gsave
false false false false 208.000000 [(8) ] 0 55400 48750 144.444443 text
grestore
gsave
false true false false 208.000000 [(VCC) ] 0 55250 48700 144.444443 text
grestore
53400 47300 55300 47300 10 line
55300 47300 55300 49000 10 line
55300 49000 53400 49000 10 line
53400 49000 53400 47300 10 line
53450 48825 53625 48825 10 line
54800 48425 55225 48425 10 line
53450 48025 53650 48025 10 line
grestore
gsave
false false false false 260.000000 [(IC2) ] 0 53900 49100 180.555557 text
grestore
gsave
55900 49100 55900 49300 10 line
55750 49300 56050 49300 10 line
gsave
false false false false 208.000000 [(+3.3V) ] 0 55775 49350 144.444443 text
grestore
grestore
55600 48700 55900 48700 10 line
55900 48300 55900 49100 10 line
55600 48300 55900 48300 10 line
55600 47900 56000 47900 10 line
55600 47500 56000 47500 10 line
53100 47900 51600 47900 10 line
53100 48300 52700 48300 10 line
gsave
52700 46900 52700 47100 10 line
52600 46900 52800 46900 10 line
52655 46850 52745 46850 10 line
52680 46810 52720 46810 10 line
grestore
53100 47500 52700 47500 10 line
52700 47500 52700 47100 10 line
gsave
51600 47900 51600 48100 10 line
51450 48100 51750 48100 10 line
gsave
false false false false 208.000000 [(+3.3V) ] 0 51475 48150 144.444443 text
grestore
grestore
52900 49900 52900 50300 10 line
52900 48700 52900 49000 10 line
52700 48700 53100 48700 10 line
gsave
false false false false 260.000000 [(SCK) ] 0 56200 47900 180.555557 text
grestore
gsave
false false false false 260.000000 [(MOSI) ] 0 56200 47500 180.555557 text
grestore
gsave
false false false false 260.000000 [(MISO) ] 0 52100 48300 180.555557 text
grestore
gsave
false false false false 260.000000 [(GND) ] 0 52500 46600 180.555557 text
grestore
gsave
false false false false 260.000000 [(CS_FLASH) ] 0 51600 48700 180.555557 text
grestore
gsave
false false false false 260.000000 [(R2) ] 90 52700 49300 180.555557 text
grestore
gsave
false false false false 260.000000 [(10K) ] 90 53200 49200 180.555557 text
grestore
gsave
false false false false 260.000000 [(W25X40CLSNIG) ] 0 53600 47100 180.555557 text
grestore
54400 43800 54800 43800 10 line
54800 44700 54400 44700 10 line
54800 44100 54400 44100 10 line
54800 43500 54400 43500 10 line
gsave
55700 44700 55700 44900 10 line
55550 44900 55850 44900 10 line
gsave
false false false false 208.000000 [(+3.3V) ] 0 55575 44950 144.444443 text
grestore
grestore
gsave
55700 42700 55700 42900 10 line
55600 42700 55800 42700 10 line
55655 42650 55745 42650 10 line
55680 42610 55720 42610 10 line
grestore
gsave
false false false false 260.000000 [(MOSI) ] 0 54900 43800 180.555557 text
grestore
gsave
false false false false 260.000000 [(RESET) ] 0 54900 43500 180.555557 text
grestore
gsave
false false false false 260.000000 [(SCK) ] 0 54900 44100 180.555557 text
grestore
gsave
false false false false 260.000000 [(MISO) ] 0 54900 44700 180.555557 text
grestore
gsave
false false false false 260.000000 [(GND) ] 0 55500 42400 180.555557 text
grestore
47600 44100 47600 44300 10 line
47100 44300 48100 44300 10 line
gsave
45200 44700 45200 44900 10 line
45050 44900 45350 44900 10 line
gsave
false false false false 208.000000 [(+3.3V) ] 0 45075 44950 144.444443 text
grestore
grestore
gsave
46300 42800 46300 43000 10 line
46200 42800 46400 42800 10 line
46255 42750 46345 42750 10 line
46280 42710 46320 42710 10 line
grestore
45200 44100 45200 44700 10 line
45200 44300 45500 44300 10 line
46300 43000 46300 43700 10 line
gsave
45200 43200 45200 43400 10 line
45200 44100 45200 43900 10 line
45000 43600 45400 43600 10 line
45000 43700 45400 43700 10 line
45200 43900 45200 43700 10 line
45200 43600 45200 43400 10 line
grestore
gsave
false false false false 260.000000 [(C3) ] 90 44900 43400 180.555557 text
grestore
gsave
false false false false 260.000000 [(1uF) ] 0 45400 43200 180.555557 text
grestore
gsave
47600 43200 47600 43400 10 line
47600 44100 47600 43900 10 line
47400 43600 47800 43600 10 line
47400 43700 47800 43700 10 line
47600 43900 47600 43700 10 line
47600 43600 47600 43400 10 line
grestore
gsave
false false false false 260.000000 [(C4) ] 90 47300 43400 180.555557 text
grestore
gsave
false false false false 260.000000 [(10uF) ] 0 47800 43200 180.555557 text
grestore
gsave
48100 44500 48100 44700 10 line
47950 44700 48250 44700 10 line
gsave
false false false false 208.000000 [(Vcc) ] 0 47975 44750 144.444443 text
grestore
grestore
gsave
false false false false 260.000000 [(VCCINT) ] 0 48200 44300 180.555557 text
grestore
48100 44300 48100 44500 10 line
gsave
45200 42800 45200 43000 10 line
45100 42800 45300 42800 10 line
45155 42750 45245 42750 10 line
45180 42710 45220 42710 10 line
grestore
gsave
47600 42800 47600 43000 10 line
47500 42800 47700 42800 10 line
47555 42750 47645 42750 10 line
47580 42710 47620 42710 10 line
grestore
45200 43200 45200 43000 10 line
47600 43200 47600 43000 10 line
gsave
false false false false 260.000000 [(GND) ] 0 46100 42500 180.555557 text
grestore
gsave
false false false false 260.000000 [(GND) ] 0 45000 42500 180.555557 text
grestore
gsave
false false false false 260.000000 [(GND) ] 0 47400 42500 180.555557 text
grestore
43400 44100 43400 44300 10 line
42900 44300 43900 44300 10 line
gsave
42100 42800 42100 43000 10 line
42000 42800 42200 42800 10 line
42055 42750 42145 42750 10 line
42080 42710 42120 42710 10 line
grestore
41000 44100 41000 44700 10 line
41000 44300 41300 44300 10 line
42100 43000 42100 43700 10 line
gsave
41000 43200 41000 43400 10 line
41000 44100 41000 43900 10 line
40800 43600 41200 43600 10 line
40800 43700 41200 43700 10 line
41000 43900 41000 43700 10 line
41000 43600 41000 43400 10 line
grestore
gsave
false false false false 260.000000 [(C1) ] 90 40700 43400 180.555557 text
grestore
gsave
false false false false 260.000000 [(4.7uF) ] 0 41200 43200 180.555557 text
grestore
gsave
43400 43200 43400 43400 10 line
43400 44100 43400 43900 10 line
43200 43600 43600 43600 10 line
43200 43700 43600 43700 10 line
43400 43900 43400 43700 10 line
43400 43600 43400 43400 10 line
grestore
gsave
false false false false 260.000000 [(C2) ] 90 43100 43400 180.555557 text
grestore
gsave
false false false false 260.000000 [(1uF) ] 0 43600 43200 180.555557 text
grestore
43900 44300 43900 44500 10 line
gsave
41000 42800 41000 43000 10 line
40900 42800 41100 42800 10 line
40955 42750 41045 42750 10 line
40980 42710 41020 42710 10 line
grestore
gsave
43400 42800 43400 43000 10 line
43300 42800 43500 42800 10 line
43355 42750 43445 42750 10 line
43380 42710 43420 42710 10 line
grestore
41000 43200 41000 43000 10 line
43400 43200 43400 43000 10 line
gsave
false false false false 260.000000 [(GND) ] 0 41900 42500 180.555557 text
grestore
gsave
false false false false 260.000000 [(GND) ] 0 40800 42500 180.555557 text
grestore
gsave
false false false false 260.000000 [(GND) ] 0 43200 42500 180.555557 text
grestore
gsave
43900 44500 43900 44700 10 line
43750 44700 44050 44700 10 line
gsave
false false false false 208.000000 [(+3.3V) ] 0 43775 44750 144.444443 text
grestore
grestore
gsave
41000 44700 41000 44900 10 line
40850 44900 41150 44900 10 line
gsave
false false false false 208.000000 [(+5V) ] 0 40875 44950 144.444443 text
grestore
grestore
gsave
51000 43800 51300 43800 10 line
gsave
false false false false 208.000000 [(1) ] 0 49950 43750 144.444443 text
grestore
51000 44100 51300 44100 10 line
gsave
false false false false 208.000000 [(2) ] 0 49950 44050 144.444443 text
grestore
51000 44100 50100 44100 10 line
51000 43800 50100 43800 10 line
49600 43600 50100 43600 10 line
50100 43600 50100 44300 10 line
50100 44300 49600 44300 10 line
49600 44300 49600 43600 10 line
grestore
gsave
51300 43300 51300 43500 10 line
51200 43300 51400 43300 10 line
51255 43250 51345 43250 10 line
51280 43210 51320 43210 10 line
grestore
51300 43800 51300 43500 10 line
51300 44100 51300 44600 10 line
gsave
51300 44600 51300 44800 10 line
51150 44800 51450 44800 10 line
gsave
false false false false 208.000000 [(+5V) ] 0 51175 44850 144.444443 text
grestore
grestore
gsave
false false false false 260.000000 [(GND) ] 0 51100 43000 180.555557 text
grestore
gsave
48600 46700 49500 46700 10 line
49500 46700 49500 47300 10 line
49500 47300 48600 47300 10 line
48600 47300 48600 46700 10 line
49800 47200 49500 47200 10 line
gsave
false false false false 208.000000 [(OUT) ] 0 49175 47150 144.444443 text
grestore
48700 47600 48700 47300 10 line
gsave
false false false false 208.000000 [(VDD) ] 0 48650 47150 144.444443 text
grestore
48675 46875 48825 46875 10 line
48825 46875 48825 47100 10 line
48825 47100 49000 47100 10 line
49000 47100 49000 46875 10 line
49000 46875 49175 46875 10 line
49175 46875 49175 47100 10 line
49175 47100 49325 47100 10 line
49400 46400 49400 46700 10 line
gsave
false false false false 208.000000 [(GND) ] 0 49150 46750 144.444443 text
grestore
48700 46400 48700 46700 10 line
gsave
false false false false 208.000000 [(EN) ] 0 48650 46750 144.444443 text
grestore
grestore
gsave
false false false false 260.000000 [(U2) ] 0 49100 47400 180.555557 text
grestore
gsave
48100 47600 48100 47800 10 line
47950 47800 48250 47800 10 line
gsave
false false false false 208.000000 [(+3.3V) ] 0 47975 47850 144.444443 text
grestore
grestore
48700 47600 48100 47600 10 line
48700 46400 48100 46400 10 line
48100 46400 48100 47600 10 line
49800 47200 50400 47200 10 line
gsave
false false false false 260.000000 [(CLK) ] 0 50500 47100 180.555557 text
grestore
gsave
49400 46000 49400 46200 10 line
49300 46000 49500 46000 10 line
49355 45950 49445 45950 10 line
49380 45910 49420 45910 10 line
grestore
49400 46400 49400 46200 10 line
gsave
false false false false 260.000000 [(GND) ] 0 49200 45700 180.555557 text
grestore
gsave
47500 49900 47350 49900 10 line
46600 49900 46750 49900 10 line
46750 49800 47350 49800 10 line
47350 49800 47350 50000 10 line
47350 50000 46750 50000 10 line
46750 50000 46750 49800 10 line
grestore
gsave
false false false false 260.000000 [(R3) ] 0 46800 50300 180.555557 text
grestore
gsave
false false false false 260.000000 [(22) ] 0 46800 50100 180.555557 text
grestore
gsave
47500 49100 47350 49100 10 line
46600 49100 46750 49100 10 line
46750 49000 47350 49000 10 line
47350 49000 47350 49200 10 line
47350 49200 46750 49200 10 line
46750 49200 46750 49000 10 line
grestore
gsave
false false false false 260.000000 [(R4) ] 0 46800 49500 180.555557 text
grestore
gsave
false false false false 260.000000 [(22) ] 0 46800 49300 180.555557 text
grestore
42600 49400 43700 49400 10 line
gsave
false false false false 260.000000 [(VBUS) ] 0 42600 49400 180.555557 text
grestore
42600 48200 43700 48200 10 line
42600 49100 46600 49100 10 line
44100 49400 46600 49400 10 line
46600 49400 46600 49900 10 line
47500 49100 48100 49100 10 line
gsave
false false false false 260.000000 [(D-) ] 0 47500 49100 180.555557 text
grestore
47500 49900 48100 49900 10 line
gsave
false false false false 260.000000 [(D+) ] 0 47500 49900 180.555557 text
grestore
gsave
44900 47800 44900 47650 10 line
44900 46900 44900 47050 10 line
44800 47050 45000 47050 10 line
45000 47050 45000 47650 10 line
45000 47650 44800 47650 10 line
44800 47650 44800 47050 10 line
45100 47500 44700 47200 10 line
44700 47200 44700 47100 10 line
45100 47500 45100 47600 10 line
grestore
gsave
false false false false 260.000000 [(Z1) ] 90 44500 47100 180.555557 text
grestore
gsave
false false false false 260.000000 [(CG0603MLC-05E) ] 90 44700 47100 180.555557 text
grestore
gsave
46000 47800 46000 47650 10 line
46000 46900 46000 47050 10 line
45900 47050 46100 47050 10 line
46100 47050 46100 47650 10 line
46100 47650 45900 47650 10 line
45900 47650 45900 47050 10 line
46200 47500 45800 47200 10 line
45800 47200 45800 47100 10 line
46200 47500 46200 47600 10 line
grestore
gsave
false false false false 260.000000 [(Z2) ] 90 45600 47100 180.555557 text
grestore
gsave
false false false false 260.000000 [(CG0603MLC-05E) ] 90 45800 47100 180.555557 text
grestore
46000 46300 46000 46900 10 line
44900 46300 44900 46900 10 line
44900 47800 44900 49400 10 line
46000 47800 46000 49100 10 line
gsave
44900 46100 44900 46300 10 line
44800 46100 45000 46100 10 line
44855 46050 44945 46050 10 line
44880 46010 44920 46010 10 line
grestore
gsave
46000 46100 46000 46300 10 line
45900 46100 46100 46100 10 line
45955 46050 46045 46050 10 line
45980 46010 46020 46010 10 line
grestore
gsave
43700 47800 43700 48000 10 line
43600 47800 43800 47800 10 line
43655 47750 43745 47750 10 line
43680 47710 43720 47710 10 line
grestore
43700 48200 43700 48000 10 line
gsave
false false false false 260.000000 [(GND) ] 0 45800 45800 180.555557 text
grestore
gsave
false false false false 260.000000 [(GND) ] 0 44700 45800 180.555557 text
grestore
gsave
false false false false 260.000000 [(GND) ] 0 43500 47500 180.555557 text
grestore
gsave
42300 49100 42600 49100 10 line
gsave
false false false false 208.000000 [(2) ] 0 41150 49050 144.444443 text
grestore
42300 48500 42600 48500 10 line
gsave
false false false false 208.000000 [(4) ] 0 41150 48450 144.444443 text
grestore
42300 49400 42600 49400 10 line
gsave
false false false false 208.000000 [(1) ] 0 41150 49350 144.444443 text
grestore
42300 48800 42600 48800 10 line
gsave
false false false false 208.000000 [(3) ] 0 41150 48750 144.444443 text
grestore
42300 48200 42600 48200 10 line
gsave
false false false false 208.000000 [(5) ] 0 41150 48150 144.444443 text
grestore
42300 49400 41400 49400 10 line
42300 49100 41400 49100 10 line
42300 48800 41400 48800 10 line
42300 48500 41400 48500 10 line
42300 48200 41400 48200 10 line
40900 48000 41400 48000 10 line
41400 48000 41400 49600 10 line
41400 49600 40900 49600 10 line
40900 49600 40900 48000 10 line
grestore
gsave
false false false false 260.000000 [(USB) ] 0 41000 49700 180.555557 text
grestore
gsave
41600 44000 42600 44000 10 line
42600 44000 42600 44600 10 line
42600 44600 41600 44600 10 line
41600 44600 41600 44000 10 line
41600 44300 41300 44300 10 line
gsave
false false false false 208.000000 [(3) ] 0 41400 44350 144.444443 text
grestore
gsave
false true false true 260.000000 [(IN) ] 0 41800 44400 180.555557 text
grestore
42100 43700 42100 44000 10 line
gsave
false false false false 208.000000 [(1) ] 0 42000 43800 144.444443 text
grestore
gsave
false true false true 260.000000 [(GND) ] 0 42300 44200 180.555557 text
grestore
42600 44300 42900 44300 10 line
gsave
false false false false 208.000000 [(2) ] 0 42730 44350 144.444443 text
grestore
gsave
false true false true 260.000000 [(OUT) ] 0 42600 44400 180.555557 text
grestore
grestore
gsave
false false false false 260.000000 [(NCP1117) ] 0 42200 43800 180.555557 text
grestore
gsave
false true false false 260.000000 [(IC3) ] 0 42700 44700 180.555557 text
grestore
gsave
45800 44000 46800 44000 10 line
46800 44000 46800 44600 10 line
46800 44600 45800 44600 10 line
45800 44600 45800 44000 10 line
45800 44300 45500 44300 10 line
gsave
false false false false 208.000000 [(3) ] 0 45600 44350 144.444443 text
grestore
gsave
false true false true 260.000000 [(IN) ] 0 46000 44400 180.555557 text
grestore
46300 43700 46300 44000 10 line
gsave
false false false false 208.000000 [(1) ] 0 46200 43800 144.444443 text
grestore
gsave
false true false true 260.000000 [(GND) ] 0 46500 44200 180.555557 text
grestore
46800 44300 47100 44300 10 line
gsave
false false false false 208.000000 [(2) ] 0 46930 44350 144.444443 text
grestore
gsave
false true false true 260.000000 [(OUT) ] 0 46800 44400 180.555557 text
grestore
grestore
gsave
false false false false 260.000000 [(LD1117) ] 0 46400 43800 180.555557 text
grestore
gsave
false true false false 260.000000 [(IC4) ] 0 46900 44700 180.555557 text
grestore
44100 49400 44100 48800 10 line
44100 48800 42600 48800 10 line
gsave
54100 44400 54400 44400 10 line
gsave
false false false false 208.000000 [(2) ] 0 52950 44350 144.444443 text
grestore
54100 43800 54400 43800 10 line
gsave
false false false false 208.000000 [(4) ] 0 52950 43750 144.444443 text
grestore
54100 43200 54400 43200 10 line
gsave
false false false false 208.000000 [(6) ] 0 52950 43150 144.444443 text
grestore
54100 44700 54400 44700 10 line
gsave
false false false false 208.000000 [(1) ] 0 52950 44650 144.444443 text
grestore
54100 44100 54400 44100 10 line
gsave
false false false false 208.000000 [(3) ] 0 52950 44050 144.444443 text
grestore
54100 43500 54400 43500 10 line
gsave
false false false false 208.000000 [(5) ] 0 52950 43450 144.444443 text
grestore
54100 44700 53200 44700 10 line
54100 44400 53200 44400 10 line
54100 44100 53200 44100 10 line
54100 43800 53200 43800 10 line
54100 43500 53200 43500 10 line
54100 43200 53200 43200 10 line
52700 43000 53200 43000 10 line
53200 43000 53200 44900 10 line
53200 44900 52700 44900 10 line
52700 44900 52700 43000 10 line
grestore
gsave
false false false false 260.000000 [(JP3) ] 0 52800 45000 180.555557 text
grestore
55700 44700 55700 44400 10 line
55700 44400 54400 44400 10 line
55700 42900 55700 43200 10 line
55700 43200 54400 43200 10 line
newpath
55900 48700
25
0 360 arc
fill
newpath
55900 48700
25
0 360 arc
fill
newpath
55900 48700
25
0 360 arc
fill
60 60 55970 47870 fbox
60 60 55970 47470 fbox
60 60 52670 48270 fbox
newpath
52900 48700
25
0 360 arc
fill
newpath
52900 48700
25
0 360 arc
fill
60 60 52670 48670 fbox
newpath
52900 48700
25
0 360 arc
fill
60 60 54770 43770 fbox
60 60 54770 44670 fbox
60 60 54770 44070 fbox
60 60 54770 43470 fbox
newpath
47600 44300
25
0 360 arc
fill
newpath
47600 44300
25
0 360 arc
fill
newpath
47600 44300
25
0 360 arc
fill
newpath
45200 44300
25
0 360 arc
fill
newpath
45200 44300
25
0 360 arc
fill
newpath
45200 44300
25
0 360 arc
fill
newpath
43400 44300
25
0 360 arc
fill
newpath
43400 44300
25
0 360 arc
fill
newpath
43400 44300
25
0 360 arc
fill
newpath
41000 44300
25
0 360 arc
fill
newpath
41000 44300
25
0 360 arc
fill
newpath
41000 44300
25
0 360 arc
fill
newpath
48100 47600
25
0 360 arc
fill
newpath
48100 47600
25
0 360 arc
fill
60 60 50370 47170 fbox
60 60 43670 49370 fbox
newpath
46000 49100
25
0 360 arc
fill
newpath
44900 49400
25
0 360 arc
fill
60 60 48070 49070 fbox
60 60 48070 49870 fbox
newpath
44900 49400
25
0 360 arc
fill
newpath
44900 49400
25
0 360 arc
fill
newpath
46000 49100
25
0 360 arc
fill
newpath
46000 49100
25
0 360 arc
fill
showpage
%%End
