%!PS-Adobe-3.0 EPSF-3.0
%%Creator: gEDA gschem 1.6.1-20100214-22-ga30f00b
%%CreationDate: Wed Oct 22 16:34:07 2014
%%Title: /home/freaktm/mojo/mojo-schematics/mojo_7.sch
%%Author: freaktm
%%BoundingBox: 0 0 1224 792
%%Orientation: Portrait
%%Pages: 1
%%Endcomments
%%BeginProlog
% Prolog for gEDA, define all the functions needed for rendering
% schematics on Postscript devices


% Draw a line from the second coordinate to the first
% x2 y2 x1 y1 width line -
/line {
    setlinewidth
    % pop off first element and moveto
    moveto
    % pop off remaining elements and draw a line segment
    lineto
    % draw it
    stroke
} bind def


% Draw a dot
% x y r dot -
/dot {
    0 360 arc fill
} bind def

% Draw a dot-dashed line, a bunch of lined segments,
% if the array element only has length two, draw a dot.
% [ [x2 y2 x1 y1] [x4 y4 x3 y3] [x5 y5] ... ] width dashed -
/width 0 def
/dashed {
    dup 2.0 div /width exch def
    setlinewidth
    % pop off each line segment and draw it as a dot or as a line
    {
	aload length 2 gt
	{ moveto lineto stroke}
	{ width dot } ifelse
    } forall
} bind def

% Draw an arc segment
% x y r ang1 ang2 width darc -
/darc {
    setlinewidth
    arc stroke
} bind def

% Draw a series of arc segment bits, if the array element only has a single
% element in it, draw a dot.
% [ [sa1 ea1] [sa2 ea2] ... ] x y r width dashedarc -
/x 0 def
/y 0 def
/dashedarc {
    dup /width exch def
    setlinewidth
    /r exch def  
    /y exch def
    /x exch def
    { aload length 1 gt
	{
	    % this element had two angles in it
	    % extract start and stop angles
	    x y r   % drop x y and r onto stack
		    % at this point we have: sa ea x y r
		    % we need                      x y r sa ea
		    % so..
	    5 -2 roll
	    % and add it to the current path, and draw it
	    arc stroke
	} {
	    % this element only had one angle in it, place a
	    % filled dot at the appropriate place
	    % compute center point of the arc using the angle
	    % that is on the top of the stack
	    dup   		% angle angle
	    cos r mul x add 	% angle x
	    exch		% x angle
	    sin r mul y add	% x y
	    width		% x y width/2
	    dot			% draw the dot
	} ifelse
    } forall

    % Now draw it
    stroke
} bind def

% Draw a box
% width height x y linethickness box -
/box {
    setlinewidth
    moveto
    exch dup 0 rlineto	 % w h, h w w 0      -- Draw bottom line
    exch 0 exch rlineto	 % h w, w h 0, w 0 h -- Draw right line 
    neg 0 rlineto	 % w, -w 0           -- Draw Top line
    closepath		 % finish and draw it
    stroke
} bind def			     

% Draw a filled box
% width height x y fbox -
/fbox {
    moveto
    exch dup 0 rlineto	
    exch 0 exch rlineto	
    neg 0 rlineto		
    closepath			
    fill			
} bind def

% Font reincoding utilities

% ISOLatin1Encoding, extended with remaining uncoded glyphs
/ISOLatin1Extended [
    /.notdef /Lslash /lslash /OE /oe /Scaron /scaron /Zcaron /zcaron
    /Ydieresis /trademark /bullet /dagger /daggerdbl /ellipsis /emdash
    /endash /fi /fl /florin /fraction /guilsinglleft /guilsinglright
    /perthousand /quotedblbase /quotedblleft /quotedblright
    /quotesinglbase /quotesingle /.notdef /.notdef /.notdef /space
    /exclam /quotedbl /numbersign /dollar /percent /ampersand
    /quoteright /parenleft /parenright /asterisk /plus /comma /minus
    /period /slash /zero /one /two /three /four /five /six /seven /eight
    /nine /colon /semicolon /less /equal /greater /question /at /A /B /C
    /D /E /F /G /H /I /J /K /L /M /N /O /P /Q /R /S /T /U /V /W /X /Y /Z
    /bracketleft /backslash /bracketright /asciicircum /underscore
    /quoteleft /a /b /c /d /e /f /g /h /i /j /k /l /m /n /o /p /q /r /s
    /t /u /v /w /x /y /z /braceleft /bar /braceright /asciitilde
    /.notdef /.notdef /.notdef /.notdef /.notdef /.notdef /.notdef
    /.notdef /.notdef /.notdef /.notdef /.notdef /.notdef /.notdef
    /.notdef /.notdef /.notdef /dotlessi /grave /acute /circumflex
    /tilde /macron /breve /dotaccent /dieresis /.notdef /ring /cedilla
    /.notdef /hungarumlaut /ogonek /caron /space /exclamdown /cent
    /sterling /currency /yen /brokenbar /section /dieresis /copyright
    /ordfeminine /guillemotleft /logicalnot /hyphen /registered /macron
    /degree /plusminus /twosuperior /threesuperior /acute /mu /paragraph
    /periodcentered /cedilla /onesuperior /ordmasculine /guillemotright
    /onequarter /onehalf /threequarters /questiondown /Agrave /Aacute
    /Acircumflex /Atilde /Adieresis /Aring /AE /Ccedilla /Egrave /Eacute
    /Ecircumflex /Edieresis /Igrave /Iacute /Icircumflex /Idieresis /Eth
    /Ntilde /Ograve /Oacute /Ocircumflex /Otilde /Odieresis /multiply
    /Oslash /Ugrave /Uacute /Ucircumflex /Udieresis /Yacute /Thorn
    /germandbls /agrave /aacute /acircumflex /atilde /adieresis /aring
    /ae /ccedilla /egrave /eacute /ecircumflex /edieresis /igrave
    /iacute /icircumflex /idieresis /eth /ntilde /ograve /oacute
    /ocircumflex /otilde /odieresis /divide /oslash /ugrave /uacute
    /ucircumflex /udieresis /yacute /thorn /ydieresis
] def

% `new-font-name' `encoding-vector' `old-font-name' RE -
/RE {
    findfont
    dup maxlength dict begin {
        1 index /FID ne { def } { pop pop } ifelse
    } forall
    /Encoding exch def
    dup /FontName exch def
    currentdict end definefont pop
} bind def

% Text handling functions, select the font and scale it, then we need
% only to apply the appropriate transformations to get the text
% justified into the right spots.  The bad thing here is that we don't
% do any kerning, so the output may look a bit strange.

% compute the height of one character and return lly and ury
% (char) charheight lly ury
/charheight {
    gsave			% push graphics state
	newpath			% clear current path
	0 0 moveto		% Set current point
	false charpath		% get path
	flattenpath		% flatten path
	pathbbox		% stack = llx lly urx ury
	exch pop		% stack = llx lly ury
	3 -1 roll pop		% stack = lly ury
    grestore			% pop graphics state
} bind def

% compute the height of a string, one character at a time
% (string) stringheight lly ury
/lly 0.0 def
/ury 0.0 def

/stringheight {
    /lly 0.0 def			% initial value of heightmin
    /ury 0.0 def			% initial value of heightmax
    {				% work through string
	( ) dup 0 4 -1 roll put	% create one character string
	charheight		% measure it's height
	dup ury gt {		% if ury gt heightmax
	    /ury exch def	% update with new value
	} {
	    pop			% else discard ury
	} ifelse
	dup lly lt {		% if lly lt heightmin
	    /lly exch def	% update with new value
	} {
	    pop			% else discard lly
	} ifelse
    } forall
    lly ury			% Return the results
} bind def

% calculate the string width taking into account the escapes.
/mystrx 0.0 def
/mystry 0.0 def
/mystresc false def

/mystringwidth {
    /mystrx 0.0 def
    /mystry 0.0 def
    /mystresc false def
    {				% work through string
	% did we process the escape character last?
	mystresc {
	    % last character was escape
	    % handle the escape
	    % is it an _ = 95?
	    dup 95 eq {
		pop  % we don't need the character anymore
		% toggle drawing overbars
		0.0 0.0 % make it like it never happened...
	    } {
		% otherwise measure the character 
		(\\ ) dup 1 4 -1 roll put % count a \ and the character
		stringwidth
	    } ifelse
	    % and reset the flag
	    /mystresc false def
	} {
	    % last character was not escape
	    % is this escape
	    dup 92 eq {
		% yes, escape character, set flag
		/mystresc true def
		pop % drop character
		0.0 0.0 % make like this character has no width and height
	    } {
		( ) dup 0 4 -1 roll put	% create one character string
		stringwidth		% measure it's height/width
	    } ifelse
	} ifelse
	% accumulate x and y movements
	mystry add /mystry exch def
	mystrx add /mystrx exch def
    } forall
    mystrx mystry % drop results on stack
} bind def

% Render a string with overbars
%
/escaped false def
/drawoverbar false def
/fontsize 0.0 def

%string1 string2 append -
/append {
    2 copy length exch length add % find new length
    string dup % string1 string2 string string
    4 2 roll % string string string1 string2
    2 index 0 3 index
    % string string string1 string2 string 0 string1
    putinterval % string string string1 string2
    exch length exch putinterval
} bind def

% If drawoverbar is set, draw a line of the same length as the given string
% string overbarshowline -
/overbarshowline {
    % print overbar if necessary
    stringwidth pop 0
    drawoverbar {
        rlineto
        gsave stroke grestore
    } {
        rmoveto
    } ifelse
} bind def

% Draws overbars for the given string, then shows the string itself
% string overbarshow
/overbarshow {
    /overbarshowacc () def
    /overbarshowtxt () def

    gsave
    fontsize 10.0 div setlinewidth
    0 fontsize rmoveto  % move to (0,overbarheight)

    {				% work through string
	escaped {
	    % the last character was the escape
	    % handle the escape
	    % is it an _ = 95?
	    dup 95 eq {
		pop  % we don't need the character anymore
                overbarshowacc overbarshowline
                % toggle drawing overbars
		/drawoverbar drawoverbar not def

                % Append the contents off the accumulator to the text
                % string we're eventually going to show
                /overbarshowtxt overbarshowtxt overbarshowacc append def

                % clear accumulator
                /overbarshowacc () def
	    } {
                % add to accumulator
                (\\ ) dup 1 4 -1 roll put
                overbarshowacc exch append
                /overbarshowacc exch def
	    } ifelse
	    % and reset the flag
	    /escaped false def
	} {
	    % check for escape character \ = 92
	    dup 92 eq {
		% yes, escape character, set flag
		/escaped true def
		pop % drop character
	    } {
                % add to accumulator
                ( ) dup 0 4 -1 roll put
                overbarshowacc exch append
                /overbarshowacc exch def
	    } ifelse
	} ifelse
    } forall
    % Catch any leftovers
    overbarshowacc overbarshowline
    overbarshowtxt overbarshowacc append

    grestore
    show
} bind def

% 
% hcenter rjustify vcenter vjustify spacing [(line1) (line2) ... ] rot x y size text -
/stringw 0.0 def
/stringh 0.0 def
/spacing 0.0 def
/strings [ ] def
/stringtxt ( ) def
/stringcount 0 def
/rot 0.0 def

/text {
    gsave	        % save state for later
    /drawoverbar false def      % start by not drawing overbars

    dup /fontsize exch def  % save font size for corrections later
    % do font selection 
    /gEDAFont findfont
    exch scalefont
    setfont

    % set up coordinates
    translate           % move origin to given point
    rotate		% rotate so that text is drawn
    0 0 moveto
    dup length /stringcount exch def			% Get number of strings
    /strings exch def     				% save strings
    /spacing exch def
    % do we have more than 1 string to render?
    stringcount 1 eq {
	/stringtxt strings aload pop def		% get the string 
	/stringw stringtxt mystringwidth pop neg def	% get the -width
	/stringh stringtxt stringheight exch pop neg def% get the -height

	% First do vertical calculations
	% hcenter rjustify vcenter vjustify 
	% vertical justification
	{ 0 stringh rmoveto } if 
	% vertical center
	{ 0 stringh 0.3571425 mul rmoveto } if  % not 0.5, so that
						% it looks nicer
	% Then do horizontal calculations
	% right justify
	{ stringw 0 rmoveto } if
	% center
	{ stringw 2.0 div 0 rmoveto } if
	% Draw the text
	stringtxt overbarshow
    } {
	% More than one line, compute bounding box for the text

	% vertical height, don't use the actual hieght of the characters
	% assume that the user wants to make the baselines line up with two
	% text boxes placed side by side
	/stringh stringcount spacing mul neg def
	% Now figure out horizontal size, this amounts to keeping track
	% of the longest string
	/stringw 0.0 def
	strings {
	    mystringwidth pop
	    dup stringw gt {
		/stringw exch def
	    } {
		pop
	    } ifelse
	} forall
	/stringw stringw neg def 	% get the -width
	
	% First do vertical calculations
	% hcenter rjustify vcenter vjustify 
	% vertical justification
	{ 0 stringh fontsize add rmoveto } if 
	% vertical center
	{ 0 stringh 0.5 mul rmoveto } if 
	% Then do horizontal calculations
	% right justify
	{ stringw 0 rmoveto } if
	% center
	{ stringw 2.0 div 0 rmoveto } if
	% now move up to the first line and begin rendering
	0 stringcount 1 sub spacing mul rmoveto
	strings {
	    gsave		% Save starting point
	    overbarshow		% render the text
	    grestore
	    0 spacing neg rmoveto
	} forall
    } ifelse
    grestore 	% Restore old state
} bind def


%%EndProlog
%%Page: 1 1
/gEDAFont ISOLatin1Extended /Helvetica RE
2 setlinecap
0.072000 0.072000 scale
0 0 translate
1.000000 1.000000 scale
-39900 -40000 translate
gsave
39900 40000 56900 40000 10 line
56900 40000 56900 51000 10 line
56900 51000 39900 51000 10 line
39900 51000 39900 40000 10 line
52800 40600 52800 40000 10 line
gsave
false false false false 208.000000 [(FILE:) ] 0 49400 40400 144.444443 text
grestore
gsave
false false false false 208.000000 [(REVISION:) ] 0 52900 40400 144.444443 text
grestore
gsave
false false false false 208.000000 [(DRAWN BY: ) ] 0 52900 40100 144.444443 text
grestore
gsave
false false false false 208.000000 [(PAGE) ] 0 49400 40100 144.444443 text
grestore
gsave
false false false false 208.000000 [(OF) ] 0 51100 40100 144.444443 text
grestore
gsave
false false false false 208.000000 [(TITLE) ] 0 49400 40700 144.444443 text
grestore
49300 40000 56900 40000 10 line
56900 40000 56900 41400 10 line
56900 41400 49300 41400 10 line
49300 41400 49300 40000 10 line
49300 40600 56900 40600 10 line
grestore
gsave
false false false false 260.000000 [(Z-BOARD) ] 0 50100 40700 180.555557 text
grestore
gsave
false false false false 260.000000 [(7) ] 0 50400 40100 180.555557 text
grestore
gsave
false false false false 260.000000 [(7) ] 0 52000 40100 180.555557 text
grestore
gsave
false false false false 260.000000 [(Aaron Storey) ] 0 54000 40100 180.555557 text
grestore
gsave
49800 49500 49800 49700 10 line
49650 49700 49950 49700 10 line
gsave
false false false false 208.000000 [(+3.3V) ] 0 49675 49750 144.444443 text
grestore
grestore
gsave
42700 49600 42700 49800 10 line
42550 49800 42850 49800 10 line
gsave
false false false false 208.000000 [(Vcc) ] 0 42575 49850 144.444443 text
grestore
grestore
gsave
42700 47400 42700 47600 10 line
42600 47400 42800 47400 10 line
42655 47350 42745 47350 10 line
42680 47310 42720 47310 10 line
grestore
gsave
false false false false 260.000000 [(GND) ] 0 42500 47100 180.555557 text
grestore
gsave
42700 48200 42700 48400 10 line
42700 49100 42700 48900 10 line
42500 48600 42900 48600 10 line
42500 48700 42900 48700 10 line
42700 48900 42700 48700 10 line
42700 48600 42700 48400 10 line
grestore
gsave
false false false false 260.000000 [(C12) ] 90 42400 48400 180.555557 text
grestore
gsave
false false false false 260.000000 [(10uF) ] 0 42900 48200 180.555557 text
grestore
gsave
false false false false 260.000000 [(0603) ] 0 42400 47900 180.555557 text
grestore
gsave
43700 48200 43700 48400 10 line
43700 49100 43700 48900 10 line
43500 48600 43900 48600 10 line
43500 48700 43900 48700 10 line
43700 48900 43700 48700 10 line
43700 48600 43700 48400 10 line
grestore
gsave
false false false false 260.000000 [(C13) ] 90 43400 48400 180.555557 text
grestore
gsave
false false false false 260.000000 [(10uF) ] 0 43900 48200 180.555557 text
grestore
gsave
false false false false 260.000000 [(0603) ] 0 43500 47900 180.555557 text
grestore
gsave
44700 48200 44700 48400 10 line
44700 49100 44700 48900 10 line
44500 48600 44900 48600 10 line
44500 48700 44900 48700 10 line
44700 48900 44700 48700 10 line
44700 48600 44700 48400 10 line
grestore
gsave
false false false false 260.000000 [(C14) ] 90 44400 48400 180.555557 text
grestore
gsave
false false false false 260.000000 [(10uF) ] 0 44900 48200 180.555557 text
grestore
gsave
false false false false 260.000000 [(0603) ] 0 44500 47900 180.555557 text
grestore
gsave
45700 48200 45700 48400 10 line
45700 49100 45700 48900 10 line
45500 48600 45900 48600 10 line
45500 48700 45900 48700 10 line
45700 48900 45700 48700 10 line
45700 48600 45700 48400 10 line
grestore
gsave
false false false false 260.000000 [(C15) ] 90 45400 48400 180.555557 text
grestore
gsave
false false false false 260.000000 [(1uF) ] 0 45900 48200 180.555557 text
grestore
gsave
false false false false 260.000000 [(0603) ] 0 45500 47900 180.555557 text
grestore
42700 49100 42700 49600 10 line
42700 48200 42700 47600 10 line
42700 47600 46600 47600 10 line
45700 47600 45700 48200 10 line
44700 48200 44700 47600 10 line
43700 48200 43700 47600 10 line
42700 49500 46600 49500 10 line
45700 49500 45700 49100 10 line
44700 49100 44700 49500 10 line
43700 49100 43700 49500 10 line
gsave
false false false false 260.000000 [(VCCINT Capacitors) ] 0 43400 49700 180.555557 text
grestore
gsave
49800 47300 49800 47500 10 line
49700 47300 49900 47300 10 line
49755 47250 49845 47250 10 line
49780 47210 49820 47210 10 line
grestore
gsave
false false false false 260.000000 [(GND) ] 0 49600 47000 180.555557 text
grestore
49800 48100 49800 47500 10 line
49800 49000 49800 49500 10 line
49800 49500 54800 49500 10 line
53800 49500 53800 49000 10 line
53800 48100 53800 47500 10 line
49800 47500 54800 47500 10 line
50800 48100 50800 47500 10 line
51800 48100 51800 47500 10 line
52800 48100 52800 47500 10 line
52800 49000 52800 49500 10 line
51800 49000 51800 49500 10 line
50800 49000 50800 49500 10 line
gsave
false false false false 260.000000 [(+3.3V Capacitors) ] 0 51100 49700 180.555557 text
grestore
gsave
41800 45000 41800 45200 10 line
41650 45200 41950 45200 10 line
gsave
false false false false 208.000000 [(+3.3V) ] 0 41675 45250 144.444443 text
grestore
grestore
gsave
41800 42800 41800 43000 10 line
41700 42800 41900 42800 10 line
41755 42750 41845 42750 10 line
41780 42710 41820 42710 10 line
grestore
41800 43600 41800 43000 10 line
41800 44500 41800 45000 10 line
gsave
false false false false 260.000000 [(GND) ] 0 41600 42500 180.555557 text
grestore
41800 45000 43800 45000 10 line
42800 45000 42800 44500 10 line
41800 43000 43800 43000 10 line
42800 43000 42800 43600 10 line
gsave
false false false false 260.000000 [(BANK 0) ] 0 41900 45500 180.555557 text
grestore
gsave
45300 45000 45300 45200 10 line
45150 45200 45450 45200 10 line
gsave
false false false false 208.000000 [(+3.3V) ] 0 45175 45250 144.444443 text
grestore
grestore
gsave
45300 42800 45300 43000 10 line
45200 42800 45400 42800 10 line
45255 42750 45345 42750 10 line
45280 42710 45320 42710 10 line
grestore
45300 43600 45300 43000 10 line
45300 44500 45300 45000 10 line
45300 45000 47300 45000 10 line
46300 45000 46300 44500 10 line
45300 43000 47300 43000 10 line
46300 43000 46300 43600 10 line
gsave
false false false false 260.000000 [(GND) ] 0 45100 42500 180.555557 text
grestore
gsave
false false false false 260.000000 [(BANK 1) ] 0 45400 45500 180.555557 text
grestore
gsave
48800 45000 48800 45200 10 line
48650 45200 48950 45200 10 line
gsave
false false false false 208.000000 [(+3.3V) ] 0 48675 45250 144.444443 text
grestore
grestore
gsave
48800 42800 48800 43000 10 line
48700 42800 48900 42800 10 line
48755 42750 48845 42750 10 line
48780 42710 48820 42710 10 line
grestore
48800 43600 48800 43000 10 line
48800 44500 48800 45000 10 line
48800 45000 50800 45000 10 line
49800 45000 49800 44500 10 line
48800 43000 50800 43000 10 line
49800 43000 49800 43600 10 line
gsave
false false false false 260.000000 [(GND) ] 0 48600 42500 180.555557 text
grestore
gsave
false false false false 260.000000 [(BANK 2) ] 0 48900 45500 180.555557 text
grestore
gsave
52300 45000 52300 45200 10 line
52150 45200 52450 45200 10 line
gsave
false false false false 208.000000 [(+3.3V) ] 0 52175 45250 144.444443 text
grestore
grestore
gsave
52300 42800 52300 43000 10 line
52200 42800 52400 42800 10 line
52255 42750 52345 42750 10 line
52280 42710 52320 42710 10 line
grestore
52300 43600 52300 43000 10 line
52300 44500 52300 45000 10 line
52300 45000 54300 45000 10 line
53300 45000 53300 44500 10 line
52300 43000 54300 43000 10 line
53300 43000 53300 43600 10 line
gsave
false false false false 260.000000 [(GND) ] 0 52100 42500 180.555557 text
grestore
gsave
false false false false 260.000000 [(BANK 3) ] 0 52400 45500 180.555557 text
grestore
gsave
46600 48200 46600 48400 10 line
46600 49100 46600 48900 10 line
46400 48600 46800 48600 10 line
46400 48700 46800 48700 10 line
46600 48900 46600 48700 10 line
46600 48600 46600 48400 10 line
grestore
gsave
false false false false 260.000000 [(C16) ] 90 46300 48400 180.555557 text
grestore
gsave
false false false false 260.000000 [(1uF) ] 0 46800 48200 180.555557 text
grestore
gsave
false false false false 260.000000 [(0603) ] 0 46400 47900 180.555557 text
grestore
46600 47600 46600 48200 10 line
46600 49500 46600 49100 10 line
gsave
54800 48100 54800 48300 10 line
54800 49000 54800 48800 10 line
54600 48500 55000 48500 10 line
54600 48600 55000 48600 10 line
54800 48800 54800 48600 10 line
54800 48500 54800 48300 10 line
grestore
gsave
false false false false 260.000000 [(C22) ] 90 54500 48300 180.555557 text
grestore
gsave
false false false false 260.000000 [(1uF) ] 0 55000 48100 180.555557 text
grestore
gsave
false false false false 260.000000 [(0603) ] 0 54600 47800 180.555557 text
grestore
gsave
53800 48100 53800 48300 10 line
53800 49000 53800 48800 10 line
53600 48500 54000 48500 10 line
53600 48600 54000 48600 10 line
53800 48800 53800 48600 10 line
53800 48500 53800 48300 10 line
grestore
gsave
false false false false 260.000000 [(C21) ] 90 53500 48300 180.555557 text
grestore
gsave
false false false false 260.000000 [(1uF) ] 0 54000 48100 180.555557 text
grestore
gsave
false false false false 260.000000 [(0603) ] 0 53600 47800 180.555557 text
grestore
gsave
52800 48100 52800 48300 10 line
52800 49000 52800 48800 10 line
52600 48500 53000 48500 10 line
52600 48600 53000 48600 10 line
52800 48800 52800 48600 10 line
52800 48500 52800 48300 10 line
grestore
gsave
false false false false 260.000000 [(C20) ] 90 52500 48300 180.555557 text
grestore
gsave
false false false false 260.000000 [(10uF) ] 0 53000 48100 180.555557 text
grestore
gsave
false false false false 260.000000 [(0603) ] 0 52600 47800 180.555557 text
grestore
gsave
51800 48100 51800 48300 10 line
51800 49000 51800 48800 10 line
51600 48500 52000 48500 10 line
51600 48600 52000 48600 10 line
51800 48800 51800 48600 10 line
51800 48500 51800 48300 10 line
grestore
gsave
false false false false 260.000000 [(C19) ] 90 51500 48300 180.555557 text
grestore
gsave
false false false false 260.000000 [(10uF) ] 0 52000 48100 180.555557 text
grestore
gsave
false false false false 260.000000 [(0603) ] 0 51600 47800 180.555557 text
grestore
gsave
50800 48100 50800 48300 10 line
50800 49000 50800 48800 10 line
50600 48500 51000 48500 10 line
50600 48600 51000 48600 10 line
50800 48800 50800 48600 10 line
50800 48500 50800 48300 10 line
grestore
gsave
false false false false 260.000000 [(C18) ] 90 50500 48300 180.555557 text
grestore
gsave
false false false false 260.000000 [(10uF) ] 0 51000 48100 180.555557 text
grestore
gsave
false false false false 260.000000 [(0603) ] 0 50600 47800 180.555557 text
grestore
gsave
49800 48100 49800 48300 10 line
49800 49000 49800 48800 10 line
49600 48500 50000 48500 10 line
49600 48600 50000 48600 10 line
49800 48800 49800 48600 10 line
49800 48500 49800 48300 10 line
grestore
gsave
false false false false 260.000000 [(C17) ] 90 49500 48300 180.555557 text
grestore
gsave
false false false false 260.000000 [(10uF) ] 0 50000 48100 180.555557 text
grestore
gsave
false false false false 260.000000 [(0603) ] 0 49600 47800 180.555557 text
grestore
gsave
41800 43600 41800 43800 10 line
41800 44500 41800 44300 10 line
41600 44000 42000 44000 10 line
41600 44100 42000 44100 10 line
41800 44300 41800 44100 10 line
41800 44000 41800 43800 10 line
grestore
gsave
false false false false 260.000000 [(C23) ] 90 41500 43800 180.555557 text
grestore
gsave
false false false false 260.000000 [(1uF) ] 0 42000 43600 180.555557 text
grestore
gsave
false false false false 260.000000 [(0603) ] 0 41600 43300 180.555557 text
grestore
gsave
42800 43600 42800 43800 10 line
42800 44500 42800 44300 10 line
42600 44000 43000 44000 10 line
42600 44100 43000 44100 10 line
42800 44300 42800 44100 10 line
42800 44000 42800 43800 10 line
grestore
gsave
false false false false 260.000000 [(C24) ] 90 42500 43800 180.555557 text
grestore
gsave
false false false false 260.000000 [(1uF) ] 0 43000 43600 180.555557 text
grestore
gsave
false false false false 260.000000 [(0603) ] 0 42600 43300 180.555557 text
grestore
gsave
45300 43600 45300 43800 10 line
45300 44500 45300 44300 10 line
45100 44000 45500 44000 10 line
45100 44100 45500 44100 10 line
45300 44300 45300 44100 10 line
45300 44000 45300 43800 10 line
grestore
gsave
false false false false 260.000000 [(C26) ] 90 45000 43800 180.555557 text
grestore
gsave
false false false false 260.000000 [(1uF) ] 0 45500 43600 180.555557 text
grestore
gsave
false false false false 260.000000 [(0603) ] 0 45100 43300 180.555557 text
grestore
gsave
46300 43600 46300 43800 10 line
46300 44500 46300 44300 10 line
46100 44000 46500 44000 10 line
46100 44100 46500 44100 10 line
46300 44300 46300 44100 10 line
46300 44000 46300 43800 10 line
grestore
gsave
false false false false 260.000000 [(C27) ] 90 46000 43800 180.555557 text
grestore
gsave
false false false false 260.000000 [(1uF) ] 0 46500 43600 180.555557 text
grestore
gsave
false false false false 260.000000 [(0603) ] 0 46100 43300 180.555557 text
grestore
gsave
48800 43600 48800 43800 10 line
48800 44500 48800 44300 10 line
48600 44000 49000 44000 10 line
48600 44100 49000 44100 10 line
48800 44300 48800 44100 10 line
48800 44000 48800 43800 10 line
grestore
gsave
false false false false 260.000000 [(C29) ] 90 48500 43800 180.555557 text
grestore
gsave
false false false false 260.000000 [(1uF) ] 0 49000 43600 180.555557 text
grestore
gsave
false false false false 260.000000 [(0603) ] 0 48600 43300 180.555557 text
grestore
gsave
49800 43600 49800 43800 10 line
49800 44500 49800 44300 10 line
49600 44000 50000 44000 10 line
49600 44100 50000 44100 10 line
49800 44300 49800 44100 10 line
49800 44000 49800 43800 10 line
grestore
gsave
false false false false 260.000000 [(C30) ] 90 49500 43800 180.555557 text
grestore
gsave
false false false false 260.000000 [(1uF) ] 0 50000 43600 180.555557 text
grestore
gsave
false false false false 260.000000 [(0603) ] 0 49600 43300 180.555557 text
grestore
gsave
52300 43600 52300 43800 10 line
52300 44500 52300 44300 10 line
52100 44000 52500 44000 10 line
52100 44100 52500 44100 10 line
52300 44300 52300 44100 10 line
52300 44000 52300 43800 10 line
grestore
gsave
false false false false 260.000000 [(C32) ] 90 52000 43800 180.555557 text
grestore
gsave
false false false false 260.000000 [(1uF) ] 0 52500 43600 180.555557 text
grestore
gsave
false false false false 260.000000 [(0603) ] 0 52100 43300 180.555557 text
grestore
gsave
53300 43600 53300 43800 10 line
53300 44500 53300 44300 10 line
53100 44000 53500 44000 10 line
53100 44100 53500 44100 10 line
53300 44300 53300 44100 10 line
53300 44000 53300 43800 10 line
grestore
gsave
false false false false 260.000000 [(C33) ] 90 53000 43800 180.555557 text
grestore
gsave
false false false false 260.000000 [(1uF) ] 0 53500 43600 180.555557 text
grestore
gsave
false false false false 260.000000 [(0603) ] 0 53100 43300 180.555557 text
grestore
gsave
54300 43600 54300 43800 10 line
54300 44500 54300 44300 10 line
54100 44000 54500 44000 10 line
54100 44100 54500 44100 10 line
54300 44300 54300 44100 10 line
54300 44000 54300 43800 10 line
grestore
gsave
false false false false 260.000000 [(C34) ] 90 54000 43800 180.555557 text
grestore
gsave
false false false false 260.000000 [(1uF) ] 0 54500 43600 180.555557 text
grestore
gsave
false false false false 260.000000 [(0603) ] 0 54100 43300 180.555557 text
grestore
gsave
43800 43600 43800 43800 10 line
43800 44500 43800 44300 10 line
43600 44000 44000 44000 10 line
43600 44100 44000 44100 10 line
43800 44300 43800 44100 10 line
43800 44000 43800 43800 10 line
grestore
gsave
false false false false 260.000000 [(C25) ] 90 43500 43800 180.555557 text
grestore
gsave
false false false false 260.000000 [(1uF) ] 0 44000 43600 180.555557 text
grestore
gsave
false false false false 260.000000 [(0603) ] 0 43600 43300 180.555557 text
grestore
gsave
47300 43600 47300 43800 10 line
47300 44500 47300 44300 10 line
47100 44000 47500 44000 10 line
47100 44100 47500 44100 10 line
47300 44300 47300 44100 10 line
47300 44000 47300 43800 10 line
grestore
gsave
false false false false 260.000000 [(C28) ] 90 47000 43800 180.555557 text
grestore
gsave
false false false false 260.000000 [(1uF) ] 0 47500 43600 180.555557 text
grestore
gsave
false false false false 260.000000 [(0603) ] 0 47100 43300 180.555557 text
grestore
gsave
50800 43600 50800 43800 10 line
50800 44500 50800 44300 10 line
50600 44000 51000 44000 10 line
50600 44100 51000 44100 10 line
50800 44300 50800 44100 10 line
50800 44000 50800 43800 10 line
grestore
gsave
false false false false 260.000000 [(C31) ] 90 50500 43800 180.555557 text
grestore
gsave
false false false false 260.000000 [(1uF) ] 0 51000 43600 180.555557 text
grestore
gsave
false false false false 260.000000 [(0603) ] 0 50600 43300 180.555557 text
grestore
54300 43000 54300 43600 10 line
54300 45000 54300 44500 10 line
50800 45000 50800 44500 10 line
50800 43600 50800 43000 10 line
47300 45000 47300 44500 10 line
47300 43000 47300 43600 10 line
43800 43000 43800 43600 10 line
43800 45000 43800 44500 10 line
54800 47500 54800 48100 10 line
54800 49500 54800 49000 10 line
newpath
42700 49500
25
0 360 arc
fill
newpath
42700 47600
25
0 360 arc
fill
newpath
42700 47600
25
0 360 arc
fill
newpath
45700 47600
25
0 360 arc
fill
newpath
44700 47600
25
0 360 arc
fill
newpath
43700 47600
25
0 360 arc
fill
newpath
45700 47600
25
0 360 arc
fill
newpath
45700 47600
25
0 360 arc
fill
newpath
44700 47600
25
0 360 arc
fill
newpath
44700 47600
25
0 360 arc
fill
newpath
43700 47600
25
0 360 arc
fill
newpath
43700 47600
25
0 360 arc
fill
newpath
42700 49500
25
0 360 arc
fill
newpath
42700 49500
25
0 360 arc
fill
newpath
45700 49500
25
0 360 arc
fill
newpath
44700 49500
25
0 360 arc
fill
newpath
43700 49500
25
0 360 arc
fill
newpath
45700 49500
25
0 360 arc
fill
newpath
45700 49500
25
0 360 arc
fill
newpath
44700 49500
25
0 360 arc
fill
newpath
44700 49500
25
0 360 arc
fill
newpath
43700 49500
25
0 360 arc
fill
newpath
43700 49500
25
0 360 arc
fill
newpath
49800 47500
25
0 360 arc
fill
newpath
49800 49500
25
0 360 arc
fill
newpath
49800 49500
25
0 360 arc
fill
newpath
53800 49500
25
0 360 arc
fill
newpath
52800 49500
25
0 360 arc
fill
newpath
51800 49500
25
0 360 arc
fill
newpath
50800 49500
25
0 360 arc
fill
newpath
53800 49500
25
0 360 arc
fill
newpath
53800 49500
25
0 360 arc
fill
newpath
53800 47500
25
0 360 arc
fill
newpath
53800 47500
25
0 360 arc
fill
newpath
49800 47500
25
0 360 arc
fill
newpath
53800 47500
25
0 360 arc
fill
newpath
50800 47500
25
0 360 arc
fill
newpath
51800 47500
25
0 360 arc
fill
newpath
52800 47500
25
0 360 arc
fill
newpath
50800 47500
25
0 360 arc
fill
newpath
50800 47500
25
0 360 arc
fill
newpath
51800 47500
25
0 360 arc
fill
newpath
51800 47500
25
0 360 arc
fill
newpath
52800 47500
25
0 360 arc
fill
newpath
52800 47500
25
0 360 arc
fill
newpath
52800 49500
25
0 360 arc
fill
newpath
52800 49500
25
0 360 arc
fill
newpath
51800 49500
25
0 360 arc
fill
newpath
51800 49500
25
0 360 arc
fill
newpath
50800 49500
25
0 360 arc
fill
newpath
50800 49500
25
0 360 arc
fill
newpath
41800 43000
25
0 360 arc
fill
newpath
41800 45000
25
0 360 arc
fill
newpath
41800 45000
25
0 360 arc
fill
newpath
42800 45000
25
0 360 arc
fill
newpath
42800 45000
25
0 360 arc
fill
newpath
42800 45000
25
0 360 arc
fill
newpath
41800 43000
25
0 360 arc
fill
newpath
42800 43000
25
0 360 arc
fill
newpath
42800 43000
25
0 360 arc
fill
newpath
42800 43000
25
0 360 arc
fill
newpath
45300 43000
25
0 360 arc
fill
newpath
45300 45000
25
0 360 arc
fill
newpath
45300 45000
25
0 360 arc
fill
newpath
46300 45000
25
0 360 arc
fill
newpath
46300 45000
25
0 360 arc
fill
newpath
46300 45000
25
0 360 arc
fill
newpath
45300 43000
25
0 360 arc
fill
newpath
46300 43000
25
0 360 arc
fill
newpath
46300 43000
25
0 360 arc
fill
newpath
46300 43000
25
0 360 arc
fill
newpath
48800 43000
25
0 360 arc
fill
newpath
48800 45000
25
0 360 arc
fill
newpath
48800 45000
25
0 360 arc
fill
newpath
49800 45000
25
0 360 arc
fill
newpath
49800 45000
25
0 360 arc
fill
newpath
49800 45000
25
0 360 arc
fill
newpath
48800 43000
25
0 360 arc
fill
newpath
49800 43000
25
0 360 arc
fill
newpath
49800 43000
25
0 360 arc
fill
newpath
49800 43000
25
0 360 arc
fill
newpath
52300 43000
25
0 360 arc
fill
newpath
52300 45000
25
0 360 arc
fill
newpath
52300 45000
25
0 360 arc
fill
newpath
53300 45000
25
0 360 arc
fill
newpath
53300 45000
25
0 360 arc
fill
newpath
53300 45000
25
0 360 arc
fill
newpath
52300 43000
25
0 360 arc
fill
newpath
53300 43000
25
0 360 arc
fill
newpath
53300 43000
25
0 360 arc
fill
newpath
53300 43000
25
0 360 arc
fill
showpage
%%End
