%!PS-Adobe-3.0 EPSF-3.0
%%Creator: gEDA gschem 1.6.1-20100214-22-ga30f00b
%%CreationDate: Wed Oct 22 16:33:06 2014
%%Title: /home/freaktm/mojo/mojo-schematics/mojo_3.sch
%%Author: freaktm
%%BoundingBox: 0 0 1224 792
%%Orientation: Portrait
%%Pages: 1
%%Endcomments
%%BeginProlog
% Prolog for gEDA, define all the functions needed for rendering
% schematics on Postscript devices


% Draw a line from the second coordinate to the first
% x2 y2 x1 y1 width line -
/line {
    setlinewidth
    % pop off first element and moveto
    moveto
    % pop off remaining elements and draw a line segment
    lineto
    % draw it
    stroke
} bind def


% Draw a dot
% x y r dot -
/dot {
    0 360 arc fill
} bind def

% Draw a dot-dashed line, a bunch of lined segments,
% if the array element only has length two, draw a dot.
% [ [x2 y2 x1 y1] [x4 y4 x3 y3] [x5 y5] ... ] width dashed -
/width 0 def
/dashed {
    dup 2.0 div /width exch def
    setlinewidth
    % pop off each line segment and draw it as a dot or as a line
    {
	aload length 2 gt
	{ moveto lineto stroke}
	{ width dot } ifelse
    } forall
} bind def

% Draw an arc segment
% x y r ang1 ang2 width darc -
/darc {
    setlinewidth
    arc stroke
} bind def

% Draw a series of arc segment bits, if the array element only has a single
% element in it, draw a dot.
% [ [sa1 ea1] [sa2 ea2] ... ] x y r width dashedarc -
/x 0 def
/y 0 def
/dashedarc {
    dup /width exch def
    setlinewidth
    /r exch def  
    /y exch def
    /x exch def
    { aload length 1 gt
	{
	    % this element had two angles in it
	    % extract start and stop angles
	    x y r   % drop x y and r onto stack
		    % at this point we have: sa ea x y r
		    % we need                      x y r sa ea
		    % so..
	    5 -2 roll
	    % and add it to the current path, and draw it
	    arc stroke
	} {
	    % this element only had one angle in it, place a
	    % filled dot at the appropriate place
	    % compute center point of the arc using the angle
	    % that is on the top of the stack
	    dup   		% angle angle
	    cos r mul x add 	% angle x
	    exch		% x angle
	    sin r mul y add	% x y
	    width		% x y width/2
	    dot			% draw the dot
	} ifelse
    } forall

    % Now draw it
    stroke
} bind def

% Draw a box
% width height x y linethickness box -
/box {
    setlinewidth
    moveto
    exch dup 0 rlineto	 % w h, h w w 0      -- Draw bottom line
    exch 0 exch rlineto	 % h w, w h 0, w 0 h -- Draw right line 
    neg 0 rlineto	 % w, -w 0           -- Draw Top line
    closepath		 % finish and draw it
    stroke
} bind def			     

% Draw a filled box
% width height x y fbox -
/fbox {
    moveto
    exch dup 0 rlineto	
    exch 0 exch rlineto	
    neg 0 rlineto		
    closepath			
    fill			
} bind def

% Font reincoding utilities

% ISOLatin1Encoding, extended with remaining uncoded glyphs
/ISOLatin1Extended [
    /.notdef /Lslash /lslash /OE /oe /Scaron /scaron /Zcaron /zcaron
    /Ydieresis /trademark /bullet /dagger /daggerdbl /ellipsis /emdash
    /endash /fi /fl /florin /fraction /guilsinglleft /guilsinglright
    /perthousand /quotedblbase /quotedblleft /quotedblright
    /quotesinglbase /quotesingle /.notdef /.notdef /.notdef /space
    /exclam /quotedbl /numbersign /dollar /percent /ampersand
    /quoteright /parenleft /parenright /asterisk /plus /comma /minus
    /period /slash /zero /one /two /three /four /five /six /seven /eight
    /nine /colon /semicolon /less /equal /greater /question /at /A /B /C
    /D /E /F /G /H /I /J /K /L /M /N /O /P /Q /R /S /T /U /V /W /X /Y /Z
    /bracketleft /backslash /bracketright /asciicircum /underscore
    /quoteleft /a /b /c /d /e /f /g /h /i /j /k /l /m /n /o /p /q /r /s
    /t /u /v /w /x /y /z /braceleft /bar /braceright /asciitilde
    /.notdef /.notdef /.notdef /.notdef /.notdef /.notdef /.notdef
    /.notdef /.notdef /.notdef /.notdef /.notdef /.notdef /.notdef
    /.notdef /.notdef /.notdef /dotlessi /grave /acute /circumflex
    /tilde /macron /breve /dotaccent /dieresis /.notdef /ring /cedilla
    /.notdef /hungarumlaut /ogonek /caron /space /exclamdown /cent
    /sterling /currency /yen /brokenbar /section /dieresis /copyright
    /ordfeminine /guillemotleft /logicalnot /hyphen /registered /macron
    /degree /plusminus /twosuperior /threesuperior /acute /mu /paragraph
    /periodcentered /cedilla /onesuperior /ordmasculine /guillemotright
    /onequarter /onehalf /threequarters /questiondown /Agrave /Aacute
    /Acircumflex /Atilde /Adieresis /Aring /AE /Ccedilla /Egrave /Eacute
    /Ecircumflex /Edieresis /Igrave /Iacute /Icircumflex /Idieresis /Eth
    /Ntilde /Ograve /Oacute /Ocircumflex /Otilde /Odieresis /multiply
    /Oslash /Ugrave /Uacute /Ucircumflex /Udieresis /Yacute /Thorn
    /germandbls /agrave /aacute /acircumflex /atilde /adieresis /aring
    /ae /ccedilla /egrave /eacute /ecircumflex /edieresis /igrave
    /iacute /icircumflex /idieresis /eth /ntilde /ograve /oacute
    /ocircumflex /otilde /odieresis /divide /oslash /ugrave /uacute
    /ucircumflex /udieresis /yacute /thorn /ydieresis
] def

% `new-font-name' `encoding-vector' `old-font-name' RE -
/RE {
    findfont
    dup maxlength dict begin {
        1 index /FID ne { def } { pop pop } ifelse
    } forall
    /Encoding exch def
    dup /FontName exch def
    currentdict end definefont pop
} bind def

% Text handling functions, select the font and scale it, then we need
% only to apply the appropriate transformations to get the text
% justified into the right spots.  The bad thing here is that we don't
% do any kerning, so the output may look a bit strange.

% compute the height of one character and return lly and ury
% (char) charheight lly ury
/charheight {
    gsave			% push graphics state
	newpath			% clear current path
	0 0 moveto		% Set current point
	false charpath		% get path
	flattenpath		% flatten path
	pathbbox		% stack = llx lly urx ury
	exch pop		% stack = llx lly ury
	3 -1 roll pop		% stack = lly ury
    grestore			% pop graphics state
} bind def

% compute the height of a string, one character at a time
% (string) stringheight lly ury
/lly 0.0 def
/ury 0.0 def

/stringheight {
    /lly 0.0 def			% initial value of heightmin
    /ury 0.0 def			% initial value of heightmax
    {				% work through string
	( ) dup 0 4 -1 roll put	% create one character string
	charheight		% measure it's height
	dup ury gt {		% if ury gt heightmax
	    /ury exch def	% update with new value
	} {
	    pop			% else discard ury
	} ifelse
	dup lly lt {		% if lly lt heightmin
	    /lly exch def	% update with new value
	} {
	    pop			% else discard lly
	} ifelse
    } forall
    lly ury			% Return the results
} bind def

% calculate the string width taking into account the escapes.
/mystrx 0.0 def
/mystry 0.0 def
/mystresc false def

/mystringwidth {
    /mystrx 0.0 def
    /mystry 0.0 def
    /mystresc false def
    {				% work through string
	% did we process the escape character last?
	mystresc {
	    % last character was escape
	    % handle the escape
	    % is it an _ = 95?
	    dup 95 eq {
		pop  % we don't need the character anymore
		% toggle drawing overbars
		0.0 0.0 % make it like it never happened...
	    } {
		% otherwise measure the character 
		(\\ ) dup 1 4 -1 roll put % count a \ and the character
		stringwidth
	    } ifelse
	    % and reset the flag
	    /mystresc false def
	} {
	    % last character was not escape
	    % is this escape
	    dup 92 eq {
		% yes, escape character, set flag
		/mystresc true def
		pop % drop character
		0.0 0.0 % make like this character has no width and height
	    } {
		( ) dup 0 4 -1 roll put	% create one character string
		stringwidth		% measure it's height/width
	    } ifelse
	} ifelse
	% accumulate x and y movements
	mystry add /mystry exch def
	mystrx add /mystrx exch def
    } forall
    mystrx mystry % drop results on stack
} bind def

% Render a string with overbars
%
/escaped false def
/drawoverbar false def
/fontsize 0.0 def

%string1 string2 append -
/append {
    2 copy length exch length add % find new length
    string dup % string1 string2 string string
    4 2 roll % string string string1 string2
    2 index 0 3 index
    % string string string1 string2 string 0 string1
    putinterval % string string string1 string2
    exch length exch putinterval
} bind def

% If drawoverbar is set, draw a line of the same length as the given string
% string overbarshowline -
/overbarshowline {
    % print overbar if necessary
    stringwidth pop 0
    drawoverbar {
        rlineto
        gsave stroke grestore
    } {
        rmoveto
    } ifelse
} bind def

% Draws overbars for the given string, then shows the string itself
% string overbarshow
/overbarshow {
    /overbarshowacc () def
    /overbarshowtxt () def

    gsave
    fontsize 10.0 div setlinewidth
    0 fontsize rmoveto  % move to (0,overbarheight)

    {				% work through string
	escaped {
	    % the last character was the escape
	    % handle the escape
	    % is it an _ = 95?
	    dup 95 eq {
		pop  % we don't need the character anymore
                overbarshowacc overbarshowline
                % toggle drawing overbars
		/drawoverbar drawoverbar not def

                % Append the contents off the accumulator to the text
                % string we're eventually going to show
                /overbarshowtxt overbarshowtxt overbarshowacc append def

                % clear accumulator
                /overbarshowacc () def
	    } {
                % add to accumulator
                (\\ ) dup 1 4 -1 roll put
                overbarshowacc exch append
                /overbarshowacc exch def
	    } ifelse
	    % and reset the flag
	    /escaped false def
	} {
	    % check for escape character \ = 92
	    dup 92 eq {
		% yes, escape character, set flag
		/escaped true def
		pop % drop character
	    } {
                % add to accumulator
                ( ) dup 0 4 -1 roll put
                overbarshowacc exch append
                /overbarshowacc exch def
	    } ifelse
	} ifelse
    } forall
    % Catch any leftovers
    overbarshowacc overbarshowline
    overbarshowtxt overbarshowacc append

    grestore
    show
} bind def

% 
% hcenter rjustify vcenter vjustify spacing [(line1) (line2) ... ] rot x y size text -
/stringw 0.0 def
/stringh 0.0 def
/spacing 0.0 def
/strings [ ] def
/stringtxt ( ) def
/stringcount 0 def
/rot 0.0 def

/text {
    gsave	        % save state for later
    /drawoverbar false def      % start by not drawing overbars

    dup /fontsize exch def  % save font size for corrections later
    % do font selection 
    /gEDAFont findfont
    exch scalefont
    setfont

    % set up coordinates
    translate           % move origin to given point
    rotate		% rotate so that text is drawn
    0 0 moveto
    dup length /stringcount exch def			% Get number of strings
    /strings exch def     				% save strings
    /spacing exch def
    % do we have more than 1 string to render?
    stringcount 1 eq {
	/stringtxt strings aload pop def		% get the string 
	/stringw stringtxt mystringwidth pop neg def	% get the -width
	/stringh stringtxt stringheight exch pop neg def% get the -height

	% First do vertical calculations
	% hcenter rjustify vcenter vjustify 
	% vertical justification
	{ 0 stringh rmoveto } if 
	% vertical center
	{ 0 stringh 0.3571425 mul rmoveto } if  % not 0.5, so that
						% it looks nicer
	% Then do horizontal calculations
	% right justify
	{ stringw 0 rmoveto } if
	% center
	{ stringw 2.0 div 0 rmoveto } if
	% Draw the text
	stringtxt overbarshow
    } {
	% More than one line, compute bounding box for the text

	% vertical height, don't use the actual hieght of the characters
	% assume that the user wants to make the baselines line up with two
	% text boxes placed side by side
	/stringh stringcount spacing mul neg def
	% Now figure out horizontal size, this amounts to keeping track
	% of the longest string
	/stringw 0.0 def
	strings {
	    mystringwidth pop
	    dup stringw gt {
		/stringw exch def
	    } {
		pop
	    } ifelse
	} forall
	/stringw stringw neg def 	% get the -width
	
	% First do vertical calculations
	% hcenter rjustify vcenter vjustify 
	% vertical justification
	{ 0 stringh fontsize add rmoveto } if 
	% vertical center
	{ 0 stringh 0.5 mul rmoveto } if 
	% Then do horizontal calculations
	% right justify
	{ stringw 0 rmoveto } if
	% center
	{ stringw 2.0 div 0 rmoveto } if
	% now move up to the first line and begin rendering
	0 stringcount 1 sub spacing mul rmoveto
	strings {
	    gsave		% Save starting point
	    overbarshow		% render the text
	    grestore
	    0 spacing neg rmoveto
	} forall
    } ifelse
    grestore 	% Restore old state
} bind def


%%EndProlog
%%Page: 1 1
/gEDAFont ISOLatin1Extended /Helvetica RE
2 setlinecap
0.072000 0.072000 scale
0 0 translate
1.000000 1.000000 scale
-40000 -40000 translate
gsave
40000 40000 57000 40000 10 line
57000 40000 57000 51000 10 line
57000 51000 40000 51000 10 line
40000 51000 40000 40000 10 line
52900 40600 52900 40000 10 line
gsave
false false false false 208.000000 [(FILE:) ] 0 49500 40400 144.444443 text
grestore
gsave
false false false false 208.000000 [(REVISION:) ] 0 53000 40400 144.444443 text
grestore
gsave
false false false false 208.000000 [(DRAWN BY: ) ] 0 53000 40100 144.444443 text
grestore
gsave
false false false false 208.000000 [(PAGE) ] 0 49500 40100 144.444443 text
grestore
gsave
false false false false 208.000000 [(OF) ] 0 51200 40100 144.444443 text
grestore
gsave
false false false false 208.000000 [(TITLE) ] 0 49500 40700 144.444443 text
grestore
49400 40000 57000 40000 10 line
57000 40000 57000 41400 10 line
57000 41400 49400 41400 10 line
49400 41400 49400 40000 10 line
49400 40600 57000 40600 10 line
grestore
gsave
false false false false 260.000000 [(Z-BOARD) ] 0 50100 40700 180.555557 text
grestore
gsave
false false false false 260.000000 [(3) ] 0 50400 40100 180.555557 text
grestore
gsave
false false false false 260.000000 [(7) ] 0 52000 40100 180.555557 text
grestore
gsave
false false false false 260.000000 [(Aaron Storey) ] 0 54000 40100 180.555557 text
grestore
gsave
51000 49500 51000 49900 10 line
51000 49500 50700 49700 10 line
50700 49700 51000 49900 10 line
50700 49500 50700 49900 10 line
50400 49700 50600 49700 10 line
51300 49700 51100 49700 10 line
50600 49700 50700 49700 10 line
51000 49700 51100 49700 10 line
50900 49900 50800 50000 10 line
50800 49900 50700 50000 10 line
50700 50000 50725 49950 10 line
50700 50000 50750 49975 10 line
50800 50000 50825 49950 10 line
50800 50000 50850 49975 10 line
grestore
gsave
false false false false 260.000000 [(D2) ] 0 50850 50050 180.555557 text
grestore
gsave
51000 48500 51000 48900 10 line
51000 48500 50700 48700 10 line
50700 48700 51000 48900 10 line
50700 48500 50700 48900 10 line
50400 48700 50600 48700 10 line
51300 48700 51100 48700 10 line
50600 48700 50700 48700 10 line
51000 48700 51100 48700 10 line
50900 48900 50800 49000 10 line
50800 48900 50700 49000 10 line
50700 49000 50725 48950 10 line
50700 49000 50750 48975 10 line
50800 49000 50825 48950 10 line
50800 49000 50850 48975 10 line
grestore
gsave
false false false false 260.000000 [(D1) ] 0 50850 49050 180.555557 text
grestore
gsave
50100 47300 50100 47500 10 line
50000 47300 50200 47300 10 line
50055 47250 50145 47250 10 line
50080 47210 50120 47210 10 line
grestore
gsave
false false false false 260.000000 [(GND) ] 0 49900 47000 180.555557 text
grestore
50100 49700 50400 49700 10 line
50400 48700 50100 48700 10 line
gsave
50300 45400 50300 45600 10 line
50150 45600 50450 45600 10 line
gsave
false false false false 208.000000 [(+3.3V) ] 0 50175 45650 144.444443 text
grestore
grestore
gsave
51200 43200 51200 43400 10 line
51100 43200 51300 43200 10 line
51155 43150 51245 43150 10 line
51180 43110 51220 43110 10 line
grestore
gsave
50300 45200 50300 45050 10 line
50300 44300 50300 44450 10 line
50200 44450 50400 44450 10 line
50400 44450 50400 45050 10 line
50400 45050 50200 45050 10 line
50200 45050 50200 44450 10 line
grestore
gsave
false false false false 260.000000 [(R6) ] 90 49900 44500 180.555557 text
grestore
gsave
false false false false 260.000000 [(10K) ] 90 50100 44500 180.555557 text
grestore
gsave
54000 44800 53850 44800 10 line
53100 44800 53250 44800 10 line
53250 44700 53850 44700 10 line
53850 44700 53850 44900 10 line
53850 44900 53250 44900 10 line
53250 44900 53250 44700 10 line
grestore
gsave
false false false false 260.000000 [(R5) ] 0 53300 45200 180.555557 text
grestore
gsave
false false false false 260.000000 [(120) ] 0 53300 45000 180.555557 text
grestore
gsave
52200 44600 52200 45000 10 line
52200 44600 51900 44800 10 line
51900 44800 52200 45000 10 line
51900 44600 51900 45000 10 line
51600 44800 51800 44800 10 line
52500 44800 52300 44800 10 line
51800 44800 51900 44800 10 line
52200 44800 52300 44800 10 line
52100 45000 52000 45100 10 line
52000 45000 51900 45100 10 line
51900 45100 51925 45050 10 line
51900 45100 51950 45075 10 line
52000 45100 52025 45050 10 line
52000 45100 52050 45075 10 line
grestore
gsave
false false false false 260.000000 [(DONE) ] 0 52050 45150 180.555557 text
grestore
51600 44800 51200 44800 10 line
51200 44800 51200 44400 10 line
49400 43800 50700 43800 10 line
gsave
false false false false 260.000000 [(DONE) ] 0 48700 43700 180.555557 text
grestore
50300 43800 50300 44300 10 line
50300 45200 50300 45400 10 line
51200 43600 51200 43400 10 line
52500 44800 53100 44800 10 line
gsave
54300 45400 54300 45600 10 line
54150 45600 54450 45600 10 line
gsave
false false false false 208.000000 [(+3.3V) ] 0 54175 45650 144.444443 text
grestore
grestore
54000 44800 54300 44800 10 line
54300 44800 54300 45400 10 line
gsave
false false false false 260.000000 [(GND) ] 0 51000 42900 180.555557 text
grestore
gsave
45400 49300 45400 49500 10 line
45250 49500 45550 49500 10 line
gsave
false false false false 208.000000 [(+5V) ] 0 45275 49550 144.444443 text
grestore
grestore
gsave
44300 49100 44300 48700 10 line
44300 49100 44600 48900 10 line
44600 48900 44300 48700 10 line
44600 49100 44600 48700 10 line
44000 48900 44200 48900 10 line
44900 48900 44700 48900 10 line
44700 48900 44600 48900 10 line
44300 48900 44200 48900 10 line
44650 49100 50 0 180 10 darc
44550 48700 50 180 360 10 darc
grestore
gsave
false false false false 260.000000 [(D3) ] 0 44300 49200 180.555557 text
grestore
44900 48900 45400 48900 10 line
45400 48900 45400 49300 10 line
43200 48900 44000 48900 10 line
gsave
false false false false 260.000000 [(VBUS) ] 0 42500 48800 180.555557 text
grestore
gsave
false false false false 260.000000 [(MBRX120) ] 0 44000 48400 180.555557 text
grestore
gsave
42700 44200 42850 44200 10 line
gsave
false false false false 208.000000 [(1) ] 0 42750 44250 144.444443 text
grestore
43550 44200 43700 44200 10 line
gsave
false false false false 208.000000 [(2) ] 0 43600 44250 144.444443 text
grestore
42850 44200 43025 44200 10 line
43550 44200 43375 44200 10 line
43000 44285 43400 44285 10 line
43039 44200 14 0 360 10 darc
43362 44200 14 0 360 10 darc
43170 44455 43220 44455 10 line
43170 44405 43220 44405 10 line
43170 44405 43195 44355 10 line
43220 44405 43195 44355 10 line
43195 44405 43195 44455 10 line
43195 44355 43195 44286 10 line
grestore
gsave
false false false false 260.000000 [(S1) ] 0 43100 44500 180.555557 text
grestore
gsave
44300 45500 44300 45350 10 line
44300 44600 44300 44750 10 line
44200 44750 44400 44750 10 line
44400 44750 44400 45350 10 line
44400 45350 44200 45350 10 line
44200 45350 44200 44750 10 line
grestore
gsave
false false false false 260.000000 [(R9) ] 90 44100 44800 180.555557 text
grestore
gsave
false false false false 260.000000 [(10K) ] 90 44600 44800 180.555557 text
grestore
gsave
42300 43700 42300 43900 10 line
42200 43700 42400 43700 10 line
42255 43650 42345 43650 10 line
42280 43610 42320 43610 10 line
grestore
gsave
false false false false 260.000000 [(GND) ] 0 42100 43400 180.555557 text
grestore
42300 43900 42300 44200 10 line
42300 44200 42700 44200 10 line
43700 44200 44900 44200 10 line
gsave
false false false false 260.000000 [(L65N_2) ] 0 45100 44200 180.555557 text
grestore
44300 44200 44300 44600 10 line
gsave
44300 45800 44300 46000 10 line
44150 46000 44450 46000 10 line
gsave
false false false false 208.000000 [(+3.3V) ] 0 44175 46050 144.444443 text
grestore
grestore
44300 45500 44300 45800 10 line
53400 49700 52200 49700 10 line
gsave
false false false false 260.000000 [(L37N_0) ] 0 53500 49700 180.555557 text
grestore
53400 48700 52200 48700 10 line
gsave
false false false false 260.000000 [(L37P_0) ] 0 53500 48700 180.555557 text
grestore
gsave
50950 44200 51200 44200 10 line
50950 43800 51200 43800 10 line
50950 44000 51050 44050 10 line
50950 44000 51050 43950 10 line
50700 43800 50900 43800 10 line
51200 44200 51200 44400 10 line
51200 43800 51200 43600 10 line
50950 44275 50950 44125 10 line
50950 44075 50950 43925 10 line
50950 43875 50950 43725 10 line
50900 44200 50900 43800 10 line
50950 44000 51100 44000 10 line
51100 44000 51100 43800 10 line
grestore
gsave
false false false false 260.000000 [(Q1) ] 0 51400 44200 180.555557 text
grestore
50100 49700 50100 47500 10 line
gsave
52200 49700 52050 49700 10 line
51300 49700 51450 49700 10 line
51450 49600 52050 49600 10 line
52050 49600 52050 49800 10 line
52050 49800 51450 49800 10 line
51450 49800 51450 49600 10 line
grestore
gsave
false false false false 260.000000 [(R7) ] 0 51500 50100 180.555557 text
grestore
gsave
false false false false 260.000000 [(120) ] 0 51500 49900 180.555557 text
grestore
gsave
52200 48700 52050 48700 10 line
51300 48700 51450 48700 10 line
51450 48600 52050 48600 10 line
52050 48600 52050 48800 10 line
52050 48800 51450 48800 10 line
51450 48800 51450 48600 10 line
grestore
gsave
false false false false 260.000000 [(R8) ] 0 51500 49100 180.555557 text
grestore
gsave
false false false false 260.000000 [(120) ] 0 51500 48900 180.555557 text
grestore
newpath
50100 48700
25
0 360 arc
fill
newpath
50100 48700
25
0 360 arc
fill
60 60 49370 43770 fbox
newpath
50300 43800
25
0 360 arc
fill
newpath
50300 43800
25
0 360 arc
fill
newpath
50300 43800
25
0 360 arc
fill
60 60 43170 48870 fbox
60 60 44870 44170 fbox
newpath
44300 44200
25
0 360 arc
fill
newpath
44300 44200
25
0 360 arc
fill
newpath
44300 44200
25
0 360 arc
fill
60 60 53370 49670 fbox
60 60 53370 48670 fbox
newpath
50100 48700
25
0 360 arc
fill
showpage
%%End
