%!PS-Adobe-3.0 EPSF-3.0
%%Creator: gEDA gschem 1.6.1-20100214-22-ga30f00b
%%CreationDate: Wed Oct 22 16:35:13 2014
%%Title: /home/freaktm/mojo/mojo-schematics/shield_4.sch
%%Author: freaktm
%%BoundingBox: 0 0 2383 1677
%%Orientation: Portrait
%%Pages: 1
%%Endcomments
%%BeginProlog
% Prolog for gEDA, define all the functions needed for rendering
% schematics on Postscript devices


% Draw a line from the second coordinate to the first
% x2 y2 x1 y1 width line -
/line {
    setlinewidth
    % pop off first element and moveto
    moveto
    % pop off remaining elements and draw a line segment
    lineto
    % draw it
    stroke
} bind def


% Draw a dot
% x y r dot -
/dot {
    0 360 arc fill
} bind def

% Draw a dot-dashed line, a bunch of lined segments,
% if the array element only has length two, draw a dot.
% [ [x2 y2 x1 y1] [x4 y4 x3 y3] [x5 y5] ... ] width dashed -
/width 0 def
/dashed {
    dup 2.0 div /width exch def
    setlinewidth
    % pop off each line segment and draw it as a dot or as a line
    {
	aload length 2 gt
	{ moveto lineto stroke}
	{ width dot } ifelse
    } forall
} bind def

% Draw an arc segment
% x y r ang1 ang2 width darc -
/darc {
    setlinewidth
    arc stroke
} bind def

% Draw a series of arc segment bits, if the array element only has a single
% element in it, draw a dot.
% [ [sa1 ea1] [sa2 ea2] ... ] x y r width dashedarc -
/x 0 def
/y 0 def
/dashedarc {
    dup /width exch def
    setlinewidth
    /r exch def  
    /y exch def
    /x exch def
    { aload length 1 gt
	{
	    % this element had two angles in it
	    % extract start and stop angles
	    x y r   % drop x y and r onto stack
		    % at this point we have: sa ea x y r
		    % we need                      x y r sa ea
		    % so..
	    5 -2 roll
	    % and add it to the current path, and draw it
	    arc stroke
	} {
	    % this element only had one angle in it, place a
	    % filled dot at the appropriate place
	    % compute center point of the arc using the angle
	    % that is on the top of the stack
	    dup   		% angle angle
	    cos r mul x add 	% angle x
	    exch		% x angle
	    sin r mul y add	% x y
	    width		% x y width/2
	    dot			% draw the dot
	} ifelse
    } forall

    % Now draw it
    stroke
} bind def

% Draw a box
% width height x y linethickness box -
/box {
    setlinewidth
    moveto
    exch dup 0 rlineto	 % w h, h w w 0      -- Draw bottom line
    exch 0 exch rlineto	 % h w, w h 0, w 0 h -- Draw right line 
    neg 0 rlineto	 % w, -w 0           -- Draw Top line
    closepath		 % finish and draw it
    stroke
} bind def			     

% Draw a filled box
% width height x y fbox -
/fbox {
    moveto
    exch dup 0 rlineto	
    exch 0 exch rlineto	
    neg 0 rlineto		
    closepath			
    fill			
} bind def

% Font reincoding utilities

% ISOLatin1Encoding, extended with remaining uncoded glyphs
/ISOLatin1Extended [
    /.notdef /Lslash /lslash /OE /oe /Scaron /scaron /Zcaron /zcaron
    /Ydieresis /trademark /bullet /dagger /daggerdbl /ellipsis /emdash
    /endash /fi /fl /florin /fraction /guilsinglleft /guilsinglright
    /perthousand /quotedblbase /quotedblleft /quotedblright
    /quotesinglbase /quotesingle /.notdef /.notdef /.notdef /space
    /exclam /quotedbl /numbersign /dollar /percent /ampersand
    /quoteright /parenleft /parenright /asterisk /plus /comma /minus
    /period /slash /zero /one /two /three /four /five /six /seven /eight
    /nine /colon /semicolon /less /equal /greater /question /at /A /B /C
    /D /E /F /G /H /I /J /K /L /M /N /O /P /Q /R /S /T /U /V /W /X /Y /Z
    /bracketleft /backslash /bracketright /asciicircum /underscore
    /quoteleft /a /b /c /d /e /f /g /h /i /j /k /l /m /n /o /p /q /r /s
    /t /u /v /w /x /y /z /braceleft /bar /braceright /asciitilde
    /.notdef /.notdef /.notdef /.notdef /.notdef /.notdef /.notdef
    /.notdef /.notdef /.notdef /.notdef /.notdef /.notdef /.notdef
    /.notdef /.notdef /.notdef /dotlessi /grave /acute /circumflex
    /tilde /macron /breve /dotaccent /dieresis /.notdef /ring /cedilla
    /.notdef /hungarumlaut /ogonek /caron /space /exclamdown /cent
    /sterling /currency /yen /brokenbar /section /dieresis /copyright
    /ordfeminine /guillemotleft /logicalnot /hyphen /registered /macron
    /degree /plusminus /twosuperior /threesuperior /acute /mu /paragraph
    /periodcentered /cedilla /onesuperior /ordmasculine /guillemotright
    /onequarter /onehalf /threequarters /questiondown /Agrave /Aacute
    /Acircumflex /Atilde /Adieresis /Aring /AE /Ccedilla /Egrave /Eacute
    /Ecircumflex /Edieresis /Igrave /Iacute /Icircumflex /Idieresis /Eth
    /Ntilde /Ograve /Oacute /Ocircumflex /Otilde /Odieresis /multiply
    /Oslash /Ugrave /Uacute /Ucircumflex /Udieresis /Yacute /Thorn
    /germandbls /agrave /aacute /acircumflex /atilde /adieresis /aring
    /ae /ccedilla /egrave /eacute /ecircumflex /edieresis /igrave
    /iacute /icircumflex /idieresis /eth /ntilde /ograve /oacute
    /ocircumflex /otilde /odieresis /divide /oslash /ugrave /uacute
    /ucircumflex /udieresis /yacute /thorn /ydieresis
] def

% `new-font-name' `encoding-vector' `old-font-name' RE -
/RE {
    findfont
    dup maxlength dict begin {
        1 index /FID ne { def } { pop pop } ifelse
    } forall
    /Encoding exch def
    dup /FontName exch def
    currentdict end definefont pop
} bind def

% Text handling functions, select the font and scale it, then we need
% only to apply the appropriate transformations to get the text
% justified into the right spots.  The bad thing here is that we don't
% do any kerning, so the output may look a bit strange.

% compute the height of one character and return lly and ury
% (char) charheight lly ury
/charheight {
    gsave			% push graphics state
	newpath			% clear current path
	0 0 moveto		% Set current point
	false charpath		% get path
	flattenpath		% flatten path
	pathbbox		% stack = llx lly urx ury
	exch pop		% stack = llx lly ury
	3 -1 roll pop		% stack = lly ury
    grestore			% pop graphics state
} bind def

% compute the height of a string, one character at a time
% (string) stringheight lly ury
/lly 0.0 def
/ury 0.0 def

/stringheight {
    /lly 0.0 def			% initial value of heightmin
    /ury 0.0 def			% initial value of heightmax
    {				% work through string
	( ) dup 0 4 -1 roll put	% create one character string
	charheight		% measure it's height
	dup ury gt {		% if ury gt heightmax
	    /ury exch def	% update with new value
	} {
	    pop			% else discard ury
	} ifelse
	dup lly lt {		% if lly lt heightmin
	    /lly exch def	% update with new value
	} {
	    pop			% else discard lly
	} ifelse
    } forall
    lly ury			% Return the results
} bind def

% calculate the string width taking into account the escapes.
/mystrx 0.0 def
/mystry 0.0 def
/mystresc false def

/mystringwidth {
    /mystrx 0.0 def
    /mystry 0.0 def
    /mystresc false def
    {				% work through string
	% did we process the escape character last?
	mystresc {
	    % last character was escape
	    % handle the escape
	    % is it an _ = 95?
	    dup 95 eq {
		pop  % we don't need the character anymore
		% toggle drawing overbars
		0.0 0.0 % make it like it never happened...
	    } {
		% otherwise measure the character 
		(\\ ) dup 1 4 -1 roll put % count a \ and the character
		stringwidth
	    } ifelse
	    % and reset the flag
	    /mystresc false def
	} {
	    % last character was not escape
	    % is this escape
	    dup 92 eq {
		% yes, escape character, set flag
		/mystresc true def
		pop % drop character
		0.0 0.0 % make like this character has no width and height
	    } {
		( ) dup 0 4 -1 roll put	% create one character string
		stringwidth		% measure it's height/width
	    } ifelse
	} ifelse
	% accumulate x and y movements
	mystry add /mystry exch def
	mystrx add /mystrx exch def
    } forall
    mystrx mystry % drop results on stack
} bind def

% Render a string with overbars
%
/escaped false def
/drawoverbar false def
/fontsize 0.0 def

%string1 string2 append -
/append {
    2 copy length exch length add % find new length
    string dup % string1 string2 string string
    4 2 roll % string string string1 string2
    2 index 0 3 index
    % string string string1 string2 string 0 string1
    putinterval % string string string1 string2
    exch length exch putinterval
} bind def

% If drawoverbar is set, draw a line of the same length as the given string
% string overbarshowline -
/overbarshowline {
    % print overbar if necessary
    stringwidth pop 0
    drawoverbar {
        rlineto
        gsave stroke grestore
    } {
        rmoveto
    } ifelse
} bind def

% Draws overbars for the given string, then shows the string itself
% string overbarshow
/overbarshow {
    /overbarshowacc () def
    /overbarshowtxt () def

    gsave
    fontsize 10.0 div setlinewidth
    0 fontsize rmoveto  % move to (0,overbarheight)

    {				% work through string
	escaped {
	    % the last character was the escape
	    % handle the escape
	    % is it an _ = 95?
	    dup 95 eq {
		pop  % we don't need the character anymore
                overbarshowacc overbarshowline
                % toggle drawing overbars
		/drawoverbar drawoverbar not def

                % Append the contents off the accumulator to the text
                % string we're eventually going to show
                /overbarshowtxt overbarshowtxt overbarshowacc append def

                % clear accumulator
                /overbarshowacc () def
	    } {
                % add to accumulator
                (\\ ) dup 1 4 -1 roll put
                overbarshowacc exch append
                /overbarshowacc exch def
	    } ifelse
	    % and reset the flag
	    /escaped false def
	} {
	    % check for escape character \ = 92
	    dup 92 eq {
		% yes, escape character, set flag
		/escaped true def
		pop % drop character
	    } {
                % add to accumulator
                ( ) dup 0 4 -1 roll put
                overbarshowacc exch append
                /overbarshowacc exch def
	    } ifelse
	} ifelse
    } forall
    % Catch any leftovers
    overbarshowacc overbarshowline
    overbarshowtxt overbarshowacc append

    grestore
    show
} bind def

% 
% hcenter rjustify vcenter vjustify spacing [(line1) (line2) ... ] rot x y size text -
/stringw 0.0 def
/stringh 0.0 def
/spacing 0.0 def
/strings [ ] def
/stringtxt ( ) def
/stringcount 0 def
/rot 0.0 def

/text {
    gsave	        % save state for later
    /drawoverbar false def      % start by not drawing overbars

    dup /fontsize exch def  % save font size for corrections later
    % do font selection 
    /gEDAFont findfont
    exch scalefont
    setfont

    % set up coordinates
    translate           % move origin to given point
    rotate		% rotate so that text is drawn
    0 0 moveto
    dup length /stringcount exch def			% Get number of strings
    /strings exch def     				% save strings
    /spacing exch def
    % do we have more than 1 string to render?
    stringcount 1 eq {
	/stringtxt strings aload pop def		% get the string 
	/stringw stringtxt mystringwidth pop neg def	% get the -width
	/stringh stringtxt stringheight exch pop neg def% get the -height

	% First do vertical calculations
	% hcenter rjustify vcenter vjustify 
	% vertical justification
	{ 0 stringh rmoveto } if 
	% vertical center
	{ 0 stringh 0.3571425 mul rmoveto } if  % not 0.5, so that
						% it looks nicer
	% Then do horizontal calculations
	% right justify
	{ stringw 0 rmoveto } if
	% center
	{ stringw 2.0 div 0 rmoveto } if
	% Draw the text
	stringtxt overbarshow
    } {
	% More than one line, compute bounding box for the text

	% vertical height, don't use the actual hieght of the characters
	% assume that the user wants to make the baselines line up with two
	% text boxes placed side by side
	/stringh stringcount spacing mul neg def
	% Now figure out horizontal size, this amounts to keeping track
	% of the longest string
	/stringw 0.0 def
	strings {
	    mystringwidth pop
	    dup stringw gt {
		/stringw exch def
	    } {
		pop
	    } ifelse
	} forall
	/stringw stringw neg def 	% get the -width
	
	% First do vertical calculations
	% hcenter rjustify vcenter vjustify 
	% vertical justification
	{ 0 stringh fontsize add rmoveto } if 
	% vertical center
	{ 0 stringh 0.5 mul rmoveto } if 
	% Then do horizontal calculations
	% right justify
	{ stringw 0 rmoveto } if
	% center
	{ stringw 2.0 div 0 rmoveto } if
	% now move up to the first line and begin rendering
	0 stringcount 1 sub spacing mul rmoveto
	strings {
	    gsave		% Save starting point
	    overbarshow		% render the text
	    grestore
	    0 spacing neg rmoveto
	} forall
    } ifelse
    grestore 	% Restore old state
} bind def


%%EndProlog
%%Page: 1 1
/gEDAFont ISOLatin1Extended /Helvetica RE
2 setlinecap
0.072000 0.072000 scale
0 0 translate
1.000000 1.000000 scale
-23100 -29600 translate
gsave
32500 42300 32500 42500 10 line
32400 42300 32600 42300 10 line
32455 42250 32545 42250 10 line
32480 42210 32520 42210 10 line
grestore
gsave
false false false false 260.000000 [(GND) ] 0 32300 42000 180.555557 text
grestore
gsave
32500 50700 32500 50900 10 line
32350 50900 32650 50900 10 line
gsave
false false false false 208.000000 [(+3.3V) ] 0 32375 50950 144.444443 text
grestore
grestore
34600 44900 33600 44900 10 line
gsave
false false false false 260.000000 [(ROM_CE) ] 0 34700 44800 180.555557 text
grestore
49400 47700 46900 47700 10 line
gsave
false false false false 260.000000 [(DATA_15) ] 0 49600 47600 180.555557 text
grestore
49400 48300 46900 48300 10 line
gsave
false false false false 260.000000 [(DATA_13) ] 0 49600 48200 180.555557 text
grestore
49400 48900 46900 48900 10 line
gsave
false false false false 260.000000 [(DATA_11) ] 0 49600 48800 180.555557 text
grestore
49400 49500 46900 49500 10 line
gsave
false false false false 260.000000 [(DATA_09) ] 0 49600 49400 180.555557 text
grestore
34600 47700 33600 47700 10 line
gsave
false false false false 260.000000 [(DATA_07) ] 0 34700 47600 180.555557 text
grestore
34600 48300 33600 48300 10 line
gsave
false false false false 260.000000 [(DATA_05) ] 0 34700 48200 180.555557 text
grestore
34600 48900 33600 48900 10 line
gsave
false false false false 260.000000 [(DATA_03) ] 0 34700 48800 180.555557 text
grestore
34600 49500 33600 49500 10 line
gsave
false false false false 260.000000 [(DATA_01) ] 0 34700 49400 180.555557 text
grestore
49400 48000 46900 48000 10 line
gsave
false false false false 260.000000 [(DATA_14) ] 0 49600 47900 180.555557 text
grestore
49400 48600 46900 48600 10 line
gsave
false false false false 260.000000 [(DATA_12) ] 0 49600 48500 180.555557 text
grestore
49400 49200 46900 49200 10 line
gsave
false false false false 260.000000 [(DATA_10) ] 0 49600 49100 180.555557 text
grestore
49400 49800 46900 49800 10 line
gsave
false false false false 260.000000 [(DATA_08) ] 0 49600 49700 180.555557 text
grestore
34600 48000 33600 48000 10 line
gsave
false false false false 260.000000 [(DATA_06) ] 0 34700 47900 180.555557 text
grestore
34600 48600 33600 48600 10 line
gsave
false false false false 260.000000 [(DATA_04) ] 0 34700 48500 180.555557 text
grestore
34600 49200 33600 49200 10 line
gsave
false false false false 260.000000 [(DATA_02) ] 0 34700 49100 180.555557 text
grestore
34600 49800 33600 49800 10 line
gsave
false false false false 260.000000 [(DATA_00) ] 0 34700 49700 180.555557 text
grestore
31200 49500 30100 49500 10 line
gsave
false false false false 260.000000 [(ADDR_01) ] 0 29200 49400 180.555557 text
grestore
31200 48900 30100 48900 10 line
gsave
false false false false 260.000000 [(ADDR_03) ] 0 29200 48800 180.555557 text
grestore
31200 47700 30100 47700 10 line
gsave
false false false false 260.000000 [(ADDR_07) ] 0 29200 47600 180.555557 text
grestore
31200 48300 30100 48300 10 line
gsave
false false false false 260.000000 [(ADDR_05) ] 0 29200 48200 180.555557 text
grestore
31200 47100 30100 47100 10 line
gsave
false false false false 260.000000 [(ADDR_09) ] 0 29200 47000 180.555557 text
grestore
31200 45900 30100 45900 10 line
gsave
false false false false 260.000000 [(ADDR_13) ] 0 29200 45800 180.555557 text
grestore
31200 46500 30100 46500 10 line
gsave
false false false false 260.000000 [(ADDR_11) ] 0 29200 46400 180.555557 text
grestore
31200 45300 30100 45300 10 line
gsave
false false false false 260.000000 [(ADDR_15) ] 0 29200 45200 180.555557 text
grestore
34600 45200 33600 45200 10 line
gsave
false false false false 260.000000 [(ROM_OE) ] 0 34700 45100 180.555557 text
grestore
31200 44700 30100 44700 10 line
gsave
false false false false 260.000000 [(ADDR_17) ] 0 29200 44600 180.555557 text
grestore
34600 44600 33600 44600 10 line
gsave
false false false false 260.000000 [(ROM_WE) ] 0 34700 44500 180.555557 text
grestore
31200 49800 30100 49800 10 line
gsave
false false false false 260.000000 [(ADDR_00) ] 0 29200 49700 180.555557 text
grestore
31200 49200 30100 49200 10 line
gsave
false false false false 260.000000 [(ADDR_02) ] 0 29200 49100 180.555557 text
grestore
31200 48000 30100 48000 10 line
gsave
false false false false 260.000000 [(ADDR_06) ] 0 29200 47900 180.555557 text
grestore
31200 48600 30100 48600 10 line
gsave
false false false false 260.000000 [(ADDR_04) ] 0 29200 48500 180.555557 text
grestore
31200 47400 30100 47400 10 line
gsave
false false false false 260.000000 [(ADDR_08) ] 0 29200 47300 180.555557 text
grestore
31200 46200 30100 46200 10 line
gsave
false false false false 260.000000 [(ADDR_12) ] 0 29200 46100 180.555557 text
grestore
31200 46800 30100 46800 10 line
gsave
false false false false 260.000000 [(ADDR_10) ] 0 29200 46700 180.555557 text
grestore
31200 45600 30100 45600 10 line
gsave
false false false false 260.000000 [(ADDR_14) ] 0 29200 45500 180.555557 text
grestore
31200 45000 30100 45000 10 line
gsave
false false false false 260.000000 [(ADDR_16) ] 0 29200 44900 180.555557 text
grestore
32500 50700 32500 50400 10 line
32500 42900 32500 42500 10 line
gsave
45800 42300 45800 42500 10 line
45700 42300 45900 42300 10 line
45755 42250 45845 42250 10 line
45780 42210 45820 42210 10 line
grestore
gsave
false false false false 260.000000 [(GND) ] 0 45600 42000 180.555557 text
grestore
gsave
45800 50700 45800 50900 10 line
45650 50900 45950 50900 10 line
gsave
false false false false 208.000000 [(+3.3V) ] 0 45675 50950 144.444443 text
grestore
grestore
47900 44900 46900 44900 10 line
gsave
false false false false 260.000000 [(ROM_CE) ] 0 48000 44800 180.555557 text
grestore
44500 49500 43400 49500 10 line
gsave
false false false false 260.000000 [(ADDR_01) ] 0 42500 49400 180.555557 text
grestore
44500 48900 43400 48900 10 line
gsave
false false false false 260.000000 [(ADDR_03) ] 0 42500 48800 180.555557 text
grestore
44500 47700 43400 47700 10 line
gsave
false false false false 260.000000 [(ADDR_07) ] 0 42500 47600 180.555557 text
grestore
44500 48300 43400 48300 10 line
gsave
false false false false 260.000000 [(ADDR_05) ] 0 42500 48200 180.555557 text
grestore
44500 47100 43400 47100 10 line
gsave
false false false false 260.000000 [(ADDR_09) ] 0 42500 47000 180.555557 text
grestore
44500 45900 43400 45900 10 line
gsave
false false false false 260.000000 [(ADDR_13) ] 0 42500 45800 180.555557 text
grestore
44500 46500 43400 46500 10 line
gsave
false false false false 260.000000 [(ADDR_11) ] 0 42500 46400 180.555557 text
grestore
44500 45300 43400 45300 10 line
gsave
false false false false 260.000000 [(ADDR_15) ] 0 42500 45200 180.555557 text
grestore
47900 45200 46900 45200 10 line
gsave
false false false false 260.000000 [(ROM_OE) ] 0 48000 45100 180.555557 text
grestore
44500 44700 43400 44700 10 line
gsave
false false false false 260.000000 [(ADDR_17) ] 0 42500 44600 180.555557 text
grestore
47900 44600 46900 44600 10 line
gsave
false false false false 260.000000 [(ROM_WE) ] 0 48000 44500 180.555557 text
grestore
44500 49800 43400 49800 10 line
gsave
false false false false 260.000000 [(ADDR_00) ] 0 42500 49700 180.555557 text
grestore
44500 49200 43400 49200 10 line
gsave
false false false false 260.000000 [(ADDR_02) ] 0 42500 49100 180.555557 text
grestore
44500 48000 43400 48000 10 line
gsave
false false false false 260.000000 [(ADDR_06) ] 0 42500 47900 180.555557 text
grestore
44500 48600 43400 48600 10 line
gsave
false false false false 260.000000 [(ADDR_04) ] 0 42500 48500 180.555557 text
grestore
44500 47400 43400 47400 10 line
gsave
false false false false 260.000000 [(ADDR_08) ] 0 42500 47300 180.555557 text
grestore
44500 46200 43400 46200 10 line
gsave
false false false false 260.000000 [(ADDR_12) ] 0 42500 46100 180.555557 text
grestore
44500 46800 43400 46800 10 line
gsave
false false false false 260.000000 [(ADDR_10) ] 0 42500 46700 180.555557 text
grestore
44500 45600 43400 45600 10 line
gsave
false false false false 260.000000 [(ADDR_14) ] 0 42500 45500 180.555557 text
grestore
44500 45000 43400 45000 10 line
gsave
false false false false 260.000000 [(ADDR_16) ] 0 42500 44900 180.555557 text
grestore
45800 50700 45800 50400 10 line
45800 42900 45800 42500 10 line
33300 50500 32500 50500 10 line
gsave
33300 50500 33500 50500 10 line
34200 50500 34000 50500 10 line
33700 50700 33700 50300 10 line
33800 50700 33800 50300 10 line
34000 50500 33800 50500 10 line
33700 50500 33500 50500 10 line
grestore
gsave
false false false false 260.000000 [(C5) ] 0 33500 50800 180.555557 text
grestore
gsave
false false false false 260.000000 [(100n) ] 0 33500 50100 180.555557 text
grestore
34200 50900 34200 50500 10 line
gsave
34200 51100 34200 50900 10 line
34300 51100 34100 51100 10 line
34245 51150 34155 51150 10 line
34220 51190 34180 51190 10 line
grestore
gsave
false true false true 260.000000 [(GND) ] 0 34400 51400 180.555557 text
grestore
46600 50500 45800 50500 10 line
gsave
46600 50500 46800 50500 10 line
47500 50500 47300 50500 10 line
47000 50700 47000 50300 10 line
47100 50700 47100 50300 10 line
47300 50500 47100 50500 10 line
47000 50500 46800 50500 10 line
grestore
gsave
false false false false 260.000000 [(C6) ] 0 46800 50800 180.555557 text
grestore
gsave
false false false false 260.000000 [(100n) ] 0 46800 50100 180.555557 text
grestore
47500 50900 47500 50500 10 line
gsave
47500 51100 47500 50900 10 line
47600 51100 47400 51100 10 line
47545 51150 47455 51150 10 line
47520 51190 47480 51190 10 line
grestore
gsave
false true false true 260.000000 [(GND) ] 0 47700 51400 180.555557 text
grestore
gsave
32500 32100 32500 32300 10 line
32400 32100 32600 32100 10 line
32455 32050 32545 32050 10 line
32480 32010 32520 32010 10 line
grestore
gsave
false false false false 260.000000 [(GND) ] 0 32300 31800 180.555557 text
grestore
gsave
32500 40500 32500 40700 10 line
32350 40700 32650 40700 10 line
gsave
false false false false 208.000000 [(+3.3V) ] 0 32375 40750 144.444443 text
grestore
grestore
34600 34700 33600 34700 10 line
gsave
false false false false 260.000000 [(ROM_CE) ] 0 34700 34600 180.555557 text
grestore
47900 37500 46900 37500 10 line
gsave
false false false false 260.000000 [(DATA_31) ] 0 48000 37400 180.555557 text
grestore
47900 38100 46900 38100 10 line
gsave
false false false false 260.000000 [(DATA_29) ] 0 48000 38000 180.555557 text
grestore
47900 38700 46900 38700 10 line
gsave
false false false false 260.000000 [(DATA_27) ] 0 48000 38600 180.555557 text
grestore
47900 39300 46900 39300 10 line
gsave
false false false false 260.000000 [(DATA_25) ] 0 48000 39200 180.555557 text
grestore
34600 37500 33600 37500 10 line
gsave
false false false false 260.000000 [(DATA_23) ] 0 34700 37400 180.555557 text
grestore
34600 38100 33600 38100 10 line
gsave
false false false false 260.000000 [(DATA_21) ] 0 34700 38000 180.555557 text
grestore
34600 38700 33600 38700 10 line
gsave
false false false false 260.000000 [(DATA_19) ] 0 34700 38600 180.555557 text
grestore
34600 39300 33600 39300 10 line
gsave
false false false false 260.000000 [(DATA_17) ] 0 34700 39200 180.555557 text
grestore
47900 37800 46900 37800 10 line
gsave
false false false false 260.000000 [(DATA_30) ] 0 48000 37700 180.555557 text
grestore
47900 38400 46900 38400 10 line
gsave
false false false false 260.000000 [(DATA_28) ] 0 48000 38300 180.555557 text
grestore
47900 39000 46900 39000 10 line
gsave
false false false false 260.000000 [(DATA_26) ] 0 48000 38900 180.555557 text
grestore
47900 39600 46900 39600 10 line
gsave
false false false false 260.000000 [(DATA_24) ] 0 48000 39500 180.555557 text
grestore
34600 37800 33600 37800 10 line
gsave
false false false false 260.000000 [(DATA_22) ] 0 34700 37700 180.555557 text
grestore
34600 38400 33600 38400 10 line
gsave
false false false false 260.000000 [(DATA_20) ] 0 34700 38300 180.555557 text
grestore
34600 39000 33600 39000 10 line
gsave
false false false false 260.000000 [(DATA_18) ] 0 34700 38900 180.555557 text
grestore
34600 39600 33600 39600 10 line
gsave
false false false false 260.000000 [(DATA_16) ] 0 34700 39500 180.555557 text
grestore
31200 39300 30100 39300 10 line
gsave
false false false false 260.000000 [(ADDR_01) ] 0 29200 39200 180.555557 text
grestore
31200 38700 30100 38700 10 line
gsave
false false false false 260.000000 [(ADDR_03) ] 0 29200 38600 180.555557 text
grestore
31200 37500 30100 37500 10 line
gsave
false false false false 260.000000 [(ADDR_07) ] 0 29200 37400 180.555557 text
grestore
31200 38100 30100 38100 10 line
gsave
false false false false 260.000000 [(ADDR_05) ] 0 29200 38000 180.555557 text
grestore
31200 36900 30100 36900 10 line
gsave
false false false false 260.000000 [(ADDR_09) ] 0 29200 36800 180.555557 text
grestore
31200 35700 30100 35700 10 line
gsave
false false false false 260.000000 [(ADDR_13) ] 0 29200 35600 180.555557 text
grestore
31200 36300 30100 36300 10 line
gsave
false false false false 260.000000 [(ADDR_11) ] 0 29200 36200 180.555557 text
grestore
31200 35100 30100 35100 10 line
gsave
false false false false 260.000000 [(ADDR_15) ] 0 29200 35000 180.555557 text
grestore
34600 35000 33600 35000 10 line
gsave
false false false false 260.000000 [(ROM_OE) ] 0 34700 34900 180.555557 text
grestore
31200 34500 30100 34500 10 line
gsave
false false false false 260.000000 [(ADDR_17) ] 0 29200 34400 180.555557 text
grestore
34600 34400 33600 34400 10 line
gsave
false false false false 260.000000 [(ROM_WE) ] 0 34700 34300 180.555557 text
grestore
31200 39600 30100 39600 10 line
gsave
false false false false 260.000000 [(ADDR_00) ] 0 29200 39500 180.555557 text
grestore
31200 39000 30100 39000 10 line
gsave
false false false false 260.000000 [(ADDR_02) ] 0 29200 38900 180.555557 text
grestore
31200 37800 30100 37800 10 line
gsave
false false false false 260.000000 [(ADDR_06) ] 0 29200 37700 180.555557 text
grestore
31200 38400 30100 38400 10 line
gsave
false false false false 260.000000 [(ADDR_04) ] 0 29200 38300 180.555557 text
grestore
31200 37200 30100 37200 10 line
gsave
false false false false 260.000000 [(ADDR_08) ] 0 29200 37100 180.555557 text
grestore
31200 36000 30100 36000 10 line
gsave
false false false false 260.000000 [(ADDR_12) ] 0 29200 35900 180.555557 text
grestore
31200 36600 30100 36600 10 line
gsave
false false false false 260.000000 [(ADDR_10) ] 0 29200 36500 180.555557 text
grestore
31200 35400 30100 35400 10 line
gsave
false false false false 260.000000 [(ADDR_14) ] 0 29200 35300 180.555557 text
grestore
31200 34800 30100 34800 10 line
gsave
false false false false 260.000000 [(ADDR_16) ] 0 29200 34700 180.555557 text
grestore
32500 40500 32500 40200 10 line
32500 32700 32500 32300 10 line
gsave
45800 32100 45800 32300 10 line
45700 32100 45900 32100 10 line
45755 32050 45845 32050 10 line
45780 32010 45820 32010 10 line
grestore
gsave
false false false false 260.000000 [(GND) ] 0 45600 31800 180.555557 text
grestore
gsave
45800 40500 45800 40700 10 line
45650 40700 45950 40700 10 line
gsave
false false false false 208.000000 [(+3.3V) ] 0 45675 40750 144.444443 text
grestore
grestore
47900 34700 46900 34700 10 line
gsave
false false false false 260.000000 [(ROM_CE) ] 0 48000 34600 180.555557 text
grestore
44500 39300 43400 39300 10 line
gsave
false false false false 260.000000 [(ADDR_01) ] 0 42500 39200 180.555557 text
grestore
44500 38700 43400 38700 10 line
gsave
false false false false 260.000000 [(ADDR_03) ] 0 42500 38600 180.555557 text
grestore
44500 37500 43400 37500 10 line
gsave
false false false false 260.000000 [(ADDR_07) ] 0 42500 37400 180.555557 text
grestore
44500 38100 43400 38100 10 line
gsave
false false false false 260.000000 [(ADDR_05) ] 0 42500 38000 180.555557 text
grestore
44500 36900 43400 36900 10 line
gsave
false false false false 260.000000 [(ADDR_09) ] 0 42500 36800 180.555557 text
grestore
44500 35700 43400 35700 10 line
gsave
false false false false 260.000000 [(ADDR_13) ] 0 42500 35600 180.555557 text
grestore
44500 36300 43400 36300 10 line
gsave
false false false false 260.000000 [(ADDR_11) ] 0 42500 36200 180.555557 text
grestore
44500 35100 43400 35100 10 line
gsave
false false false false 260.000000 [(ADDR_15) ] 0 42500 35000 180.555557 text
grestore
47900 35000 46900 35000 10 line
gsave
false false false false 260.000000 [(ROM_OE) ] 0 48000 34900 180.555557 text
grestore
44500 34500 43400 34500 10 line
gsave
false false false false 260.000000 [(ADDR_17) ] 0 42500 34400 180.555557 text
grestore
47900 34400 46900 34400 10 line
gsave
false false false false 260.000000 [(ROM_WE) ] 0 48000 34300 180.555557 text
grestore
44500 39600 43400 39600 10 line
gsave
false false false false 260.000000 [(ADDR_00) ] 0 42500 39500 180.555557 text
grestore
44500 39000 43400 39000 10 line
gsave
false false false false 260.000000 [(ADDR_02) ] 0 42500 38900 180.555557 text
grestore
44500 37800 43400 37800 10 line
gsave
false false false false 260.000000 [(ADDR_06) ] 0 42500 37700 180.555557 text
grestore
44500 38400 43400 38400 10 line
gsave
false false false false 260.000000 [(ADDR_04) ] 0 42500 38300 180.555557 text
grestore
44500 37200 43400 37200 10 line
gsave
false false false false 260.000000 [(ADDR_08) ] 0 42500 37100 180.555557 text
grestore
44500 36000 43400 36000 10 line
gsave
false false false false 260.000000 [(ADDR_12) ] 0 42500 35900 180.555557 text
grestore
44500 36600 43400 36600 10 line
gsave
false false false false 260.000000 [(ADDR_10) ] 0 42500 36500 180.555557 text
grestore
44500 35400 43400 35400 10 line
gsave
false false false false 260.000000 [(ADDR_14) ] 0 42500 35300 180.555557 text
grestore
44500 34800 43400 34800 10 line
gsave
false false false false 260.000000 [(ADDR_16) ] 0 42500 34700 180.555557 text
grestore
45800 40500 45800 40200 10 line
45800 32700 45800 32300 10 line
33300 40300 32500 40300 10 line
gsave
33300 40300 33500 40300 10 line
34200 40300 34000 40300 10 line
33700 40500 33700 40100 10 line
33800 40500 33800 40100 10 line
34000 40300 33800 40300 10 line
33700 40300 33500 40300 10 line
grestore
gsave
false false false false 260.000000 [(C7) ] 0 33500 40600 180.555557 text
grestore
gsave
false false false false 260.000000 [(100n) ] 0 33500 39900 180.555557 text
grestore
34200 40700 34200 40300 10 line
46600 40300 45800 40300 10 line
gsave
46600 40300 46800 40300 10 line
47500 40300 47300 40300 10 line
47000 40500 47000 40100 10 line
47100 40500 47100 40100 10 line
47300 40300 47100 40300 10 line
47000 40300 46800 40300 10 line
grestore
gsave
false false false false 260.000000 [(C8) ] 0 46800 40600 180.555557 text
grestore
gsave
false false false false 260.000000 [(100n) ] 0 46800 39900 180.555557 text
grestore
47500 40700 47500 40300 10 line
gsave
47500 40900 47500 40700 10 line
47600 40900 47400 40900 10 line
47545 40950 47455 40950 10 line
47520 40990 47480 40990 10 line
grestore
gsave
false true false true 260.000000 [(GND) ] 0 47700 41200 180.555557 text
grestore
gsave
23100 29600 56200 29600 10 line
56200 29600 56200 52900 10 line
56200 52900 23100 52900 10 line
23100 52900 23100 29600 10 line
52100 30200 52100 29600 10 line
gsave
false false false false 208.000000 [(FILE:) ] 0 48700 30000 144.444443 text
grestore
gsave
false false false false 208.000000 [(REVISION:) ] 0 52200 30000 144.444443 text
grestore
gsave
false false false false 208.000000 [(DRAWN BY: ) ] 0 52200 29700 144.444443 text
grestore
gsave
false false false false 208.000000 [(PAGE) ] 0 48700 29700 144.444443 text
grestore
gsave
false false false false 208.000000 [(OF) ] 0 50400 29700 144.444443 text
grestore
gsave
false false false false 208.000000 [(TITLE) ] 0 48700 30300 144.444443 text
grestore
48600 29600 56200 29600 10 line
56200 29600 56200 31000 10 line
56200 31000 48600 31000 10 line
48600 31000 48600 29600 10 line
48600 30200 56200 30200 10 line
grestore
gsave
false false false false 260.000000 [(REX SHIELD) ] 0 49200 30300 180.555557 text
grestore
gsave
false false false false 260.000000 [(Aaron Storey) ] 0 53200 29700 180.555557 text
grestore
gsave
false false false false 260.000000 [(4) ] 0 49700 29700 180.555557 text
grestore
gsave
false false false false 260.000000 [(4) ] 0 51200 29700 180.555557 text
grestore
gsave
32500 50100 32500 50400 10 line
gsave
false false false false 208.000000 [(8) ] 0 32550 50100 144.444443 text
grestore
gsave
true false false true 208.000000 [(VDD) ] 0 32500 50050 144.444443 text
grestore
31500 43200 33300 43200 10 line
33300 43200 33300 50100 10 line
33300 50100 31500 50100 10 line
31500 50100 31500 43200 10 line
gsave
false false false false 260.000000 [(SST39VF020) ] 0 31200 50150 180.555557 text
grestore
31500 49800 31200 49800 10 line
gsave
false true false false 208.000000 [(20) ] 0 31450 49850 144.444443 text
grestore
gsave
false false true false 208.000000 [(A0) ] 0 31600 49800 144.444443 text
grestore
31500 49500 31200 49500 10 line
gsave
false true false false 208.000000 [(19) ] 0 31450 49550 144.444443 text
grestore
gsave
false false true false 208.000000 [(A1) ] 0 31600 49500 144.444443 text
grestore
31500 49200 31200 49200 10 line
gsave
false true false false 208.000000 [(18) ] 0 31450 49250 144.444443 text
grestore
gsave
false false true false 208.000000 [(A2) ] 0 31600 49200 144.444443 text
grestore
31500 48900 31200 48900 10 line
gsave
false true false false 208.000000 [(17) ] 0 31450 48950 144.444443 text
grestore
gsave
false false true false 208.000000 [(A3) ] 0 31600 48900 144.444443 text
grestore
31500 48600 31200 48600 10 line
gsave
false true false false 208.000000 [(16) ] 0 31450 48650 144.444443 text
grestore
gsave
false false true false 208.000000 [(A4) ] 0 31600 48600 144.444443 text
grestore
31500 48300 31200 48300 10 line
gsave
false true false false 208.000000 [(15) ] 0 31450 48350 144.444443 text
grestore
gsave
false false true false 208.000000 [(A5) ] 0 31600 48300 144.444443 text
grestore
31500 48000 31200 48000 10 line
gsave
false true false false 208.000000 [(14) ] 0 31450 48050 144.444443 text
grestore
gsave
false false true false 208.000000 [(A6) ] 0 31600 48000 144.444443 text
grestore
31500 47700 31200 47700 10 line
gsave
false true false false 208.000000 [(13) ] 0 31450 47750 144.444443 text
grestore
gsave
false false true false 208.000000 [(A7) ] 0 31600 47700 144.444443 text
grestore
31500 47400 31200 47400 10 line
gsave
false true false false 208.000000 [(3) ] 0 31450 47450 144.444443 text
grestore
gsave
false false true false 208.000000 [(A8) ] 0 31600 47400 144.444443 text
grestore
31500 47100 31200 47100 10 line
gsave
false true false false 208.000000 [(2) ] 0 31450 47150 144.444443 text
grestore
gsave
false false true false 208.000000 [(A9) ] 0 31600 47100 144.444443 text
grestore
31500 46800 31200 46800 10 line
gsave
false true false false 208.000000 [(31) ] 0 31450 46850 144.444443 text
grestore
gsave
false false true false 208.000000 [(A10) ] 0 31600 46800 144.444443 text
grestore
31500 46500 31200 46500 10 line
gsave
false true false false 208.000000 [(1) ] 0 31450 46550 144.444443 text
grestore
gsave
false false true false 208.000000 [(A11) ] 0 31600 46500 144.444443 text
grestore
31500 46200 31200 46200 10 line
gsave
false true false false 208.000000 [(12) ] 0 31450 46250 144.444443 text
grestore
gsave
false false true false 208.000000 [(A12) ] 0 31600 46200 144.444443 text
grestore
31500 45900 31200 45900 10 line
gsave
false true false false 208.000000 [(4) ] 0 31450 45950 144.444443 text
grestore
gsave
false false true false 208.000000 [(A13) ] 0 31600 45900 144.444443 text
grestore
31500 45600 31200 45600 10 line
gsave
false true false false 208.000000 [(5) ] 0 31450 45650 144.444443 text
grestore
gsave
false false true false 208.000000 [(A14) ] 0 31600 45600 144.444443 text
grestore
31500 45300 31200 45300 10 line
gsave
false true false false 208.000000 [(11) ] 0 31450 45350 144.444443 text
grestore
gsave
false false true false 208.000000 [(A15) ] 0 31600 45300 144.444443 text
grestore
31500 45000 31200 45000 10 line
gsave
false true false false 208.000000 [(10) ] 0 31450 45050 144.444443 text
grestore
gsave
false false true false 208.000000 [(A16) ] 0 31600 45000 144.444443 text
grestore
32500 43200 32500 42900 10 line
gsave
false true false false 208.000000 [(24) ] 90 32450 43105 144.444443 text
grestore
gsave
false false false false 208.000000 [(VSS) ] 90 32500 43255 144.444443 text
grestore
33300 44600 33600 44600 10 line
gsave
false false false false 208.000000 [(7) ] 0 33395 44645 144.444443 text
grestore
gsave
false true false false 208.000000 [(WE_N) ] 0 33245 44595 144.444443 text
grestore
33300 44900 33600 44900 10 line
gsave
false false false false 208.000000 [(30) ] 0 33395 44945 144.444443 text
grestore
gsave
false true false false 208.000000 [(CE_N) ] 0 33245 44895 144.444443 text
grestore
33300 45200 33600 45200 10 line
gsave
false false false false 208.000000 [(32) ] 0 33395 45245 144.444443 text
grestore
gsave
false true false false 208.000000 [(OE_N) ] 0 33245 45195 144.444443 text
grestore
33300 49800 33600 49800 10 line
gsave
false false false false 208.000000 [(21) ] 0 33350 49850 144.444443 text
grestore
gsave
false true true false 208.000000 [(D0) ] 0 33200 49800 144.444443 text
grestore
33300 49500 33600 49500 10 line
gsave
false false false false 208.000000 [(22) ] 0 33350 49550 144.444443 text
grestore
gsave
false true true false 208.000000 [(D1) ] 0 33200 49500 144.444443 text
grestore
33300 49200 33600 49200 10 line
gsave
false false false false 208.000000 [(23) ] 0 33350 49250 144.444443 text
grestore
gsave
false true true false 208.000000 [(D2) ] 0 33200 49200 144.444443 text
grestore
33300 48900 33600 48900 10 line
gsave
false false false false 208.000000 [(25) ] 0 33350 48950 144.444443 text
grestore
gsave
false true true false 208.000000 [(D3) ] 0 33200 48900 144.444443 text
grestore
33300 48600 33600 48600 10 line
gsave
false false false false 208.000000 [(26) ] 0 33350 48650 144.444443 text
grestore
gsave
false true true false 208.000000 [(D4) ] 0 33200 48600 144.444443 text
grestore
33300 48300 33600 48300 10 line
gsave
false false false false 208.000000 [(27) ] 0 33350 48350 144.444443 text
grestore
gsave
false true true false 208.000000 [(D5) ] 0 33200 48300 144.444443 text
grestore
33300 48000 33600 48000 10 line
gsave
false false false false 208.000000 [(28) ] 0 33350 48050 144.444443 text
grestore
gsave
false true true false 208.000000 [(D6) ] 0 33200 48000 144.444443 text
grestore
33300 47700 33600 47700 10 line
gsave
false false false false 208.000000 [(29) ] 0 33350 47750 144.444443 text
grestore
gsave
false true true false 208.000000 [(D7) ] 0 33200 47700 144.444443 text
grestore
33300 46700 33600 46700 10 line
gsave
false false false false 208.000000 [(9) ] 0 33395 46745 144.444443 text
grestore
gsave
false true false false 208.000000 [(NC) ] 0 33245 46695 144.444443 text
grestore
31500 44700 31200 44700 10 line
gsave
false true false false 208.000000 [(6) ] 0 31450 44750 144.444443 text
grestore
gsave
false false true false 208.000000 [(A17) ] 0 31600 44700 144.444443 text
grestore
grestore
gsave
false false false false 260.000000 [(U5) ] 0 31500 50500 180.555557 text
grestore
gsave
32500 39900 32500 40200 10 line
gsave
false false false false 208.000000 [(8) ] 0 32550 39900 144.444443 text
grestore
gsave
true false false true 208.000000 [(VDD) ] 0 32500 39850 144.444443 text
grestore
31500 33000 33300 33000 10 line
33300 33000 33300 39900 10 line
33300 39900 31500 39900 10 line
31500 39900 31500 33000 10 line
gsave
false false false false 260.000000 [(SST39VF020) ] 0 31200 39950 180.555557 text
grestore
31500 39600 31200 39600 10 line
gsave
false true false false 208.000000 [(20) ] 0 31450 39650 144.444443 text
grestore
gsave
false false true false 208.000000 [(A0) ] 0 31600 39600 144.444443 text
grestore
31500 39300 31200 39300 10 line
gsave
false true false false 208.000000 [(19) ] 0 31450 39350 144.444443 text
grestore
gsave
false false true false 208.000000 [(A1) ] 0 31600 39300 144.444443 text
grestore
31500 39000 31200 39000 10 line
gsave
false true false false 208.000000 [(18) ] 0 31450 39050 144.444443 text
grestore
gsave
false false true false 208.000000 [(A2) ] 0 31600 39000 144.444443 text
grestore
31500 38700 31200 38700 10 line
gsave
false true false false 208.000000 [(17) ] 0 31450 38750 144.444443 text
grestore
gsave
false false true false 208.000000 [(A3) ] 0 31600 38700 144.444443 text
grestore
31500 38400 31200 38400 10 line
gsave
false true false false 208.000000 [(16) ] 0 31450 38450 144.444443 text
grestore
gsave
false false true false 208.000000 [(A4) ] 0 31600 38400 144.444443 text
grestore
31500 38100 31200 38100 10 line
gsave
false true false false 208.000000 [(15) ] 0 31450 38150 144.444443 text
grestore
gsave
false false true false 208.000000 [(A5) ] 0 31600 38100 144.444443 text
grestore
31500 37800 31200 37800 10 line
gsave
false true false false 208.000000 [(14) ] 0 31450 37850 144.444443 text
grestore
gsave
false false true false 208.000000 [(A6) ] 0 31600 37800 144.444443 text
grestore
31500 37500 31200 37500 10 line
gsave
false true false false 208.000000 [(13) ] 0 31450 37550 144.444443 text
grestore
gsave
false false true false 208.000000 [(A7) ] 0 31600 37500 144.444443 text
grestore
31500 37200 31200 37200 10 line
gsave
false true false false 208.000000 [(3) ] 0 31450 37250 144.444443 text
grestore
gsave
false false true false 208.000000 [(A8) ] 0 31600 37200 144.444443 text
grestore
31500 36900 31200 36900 10 line
gsave
false true false false 208.000000 [(2) ] 0 31450 36950 144.444443 text
grestore
gsave
false false true false 208.000000 [(A9) ] 0 31600 36900 144.444443 text
grestore
31500 36600 31200 36600 10 line
gsave
false true false false 208.000000 [(31) ] 0 31450 36650 144.444443 text
grestore
gsave
false false true false 208.000000 [(A10) ] 0 31600 36600 144.444443 text
grestore
31500 36300 31200 36300 10 line
gsave
false true false false 208.000000 [(1) ] 0 31450 36350 144.444443 text
grestore
gsave
false false true false 208.000000 [(A11) ] 0 31600 36300 144.444443 text
grestore
31500 36000 31200 36000 10 line
gsave
false true false false 208.000000 [(12) ] 0 31450 36050 144.444443 text
grestore
gsave
false false true false 208.000000 [(A12) ] 0 31600 36000 144.444443 text
grestore
31500 35700 31200 35700 10 line
gsave
false true false false 208.000000 [(4) ] 0 31450 35750 144.444443 text
grestore
gsave
false false true false 208.000000 [(A13) ] 0 31600 35700 144.444443 text
grestore
31500 35400 31200 35400 10 line
gsave
false true false false 208.000000 [(5) ] 0 31450 35450 144.444443 text
grestore
gsave
false false true false 208.000000 [(A14) ] 0 31600 35400 144.444443 text
grestore
31500 35100 31200 35100 10 line
gsave
false true false false 208.000000 [(11) ] 0 31450 35150 144.444443 text
grestore
gsave
false false true false 208.000000 [(A15) ] 0 31600 35100 144.444443 text
grestore
31500 34800 31200 34800 10 line
gsave
false true false false 208.000000 [(10) ] 0 31450 34850 144.444443 text
grestore
gsave
false false true false 208.000000 [(A16) ] 0 31600 34800 144.444443 text
grestore
32500 33000 32500 32700 10 line
gsave
false true false false 208.000000 [(24) ] 90 32450 32905 144.444443 text
grestore
gsave
false false false false 208.000000 [(VSS) ] 90 32500 33055 144.444443 text
grestore
33300 34400 33600 34400 10 line
gsave
false false false false 208.000000 [(7) ] 0 33395 34445 144.444443 text
grestore
gsave
false true false false 208.000000 [(WE_N) ] 0 33245 34395 144.444443 text
grestore
33300 34700 33600 34700 10 line
gsave
false false false false 208.000000 [(30) ] 0 33395 34745 144.444443 text
grestore
gsave
false true false false 208.000000 [(CE_N) ] 0 33245 34695 144.444443 text
grestore
33300 35000 33600 35000 10 line
gsave
false false false false 208.000000 [(32) ] 0 33395 35045 144.444443 text
grestore
gsave
false true false false 208.000000 [(OE_N) ] 0 33245 34995 144.444443 text
grestore
33300 39600 33600 39600 10 line
gsave
false false false false 208.000000 [(21) ] 0 33350 39650 144.444443 text
grestore
gsave
false true true false 208.000000 [(D0) ] 0 33200 39600 144.444443 text
grestore
33300 39300 33600 39300 10 line
gsave
false false false false 208.000000 [(22) ] 0 33350 39350 144.444443 text
grestore
gsave
false true true false 208.000000 [(D1) ] 0 33200 39300 144.444443 text
grestore
33300 39000 33600 39000 10 line
gsave
false false false false 208.000000 [(23) ] 0 33350 39050 144.444443 text
grestore
gsave
false true true false 208.000000 [(D2) ] 0 33200 39000 144.444443 text
grestore
33300 38700 33600 38700 10 line
gsave
false false false false 208.000000 [(25) ] 0 33350 38750 144.444443 text
grestore
gsave
false true true false 208.000000 [(D3) ] 0 33200 38700 144.444443 text
grestore
33300 38400 33600 38400 10 line
gsave
false false false false 208.000000 [(26) ] 0 33350 38450 144.444443 text
grestore
gsave
false true true false 208.000000 [(D4) ] 0 33200 38400 144.444443 text
grestore
33300 38100 33600 38100 10 line
gsave
false false false false 208.000000 [(27) ] 0 33350 38150 144.444443 text
grestore
gsave
false true true false 208.000000 [(D5) ] 0 33200 38100 144.444443 text
grestore
33300 37800 33600 37800 10 line
gsave
false false false false 208.000000 [(28) ] 0 33350 37850 144.444443 text
grestore
gsave
false true true false 208.000000 [(D6) ] 0 33200 37800 144.444443 text
grestore
33300 37500 33600 37500 10 line
gsave
false false false false 208.000000 [(29) ] 0 33350 37550 144.444443 text
grestore
gsave
false true true false 208.000000 [(D7) ] 0 33200 37500 144.444443 text
grestore
33300 36500 33600 36500 10 line
gsave
false false false false 208.000000 [(9) ] 0 33395 36545 144.444443 text
grestore
gsave
false true false false 208.000000 [(NC) ] 0 33245 36495 144.444443 text
grestore
31500 34500 31200 34500 10 line
gsave
false true false false 208.000000 [(6) ] 0 31450 34550 144.444443 text
grestore
gsave
false false true false 208.000000 [(A17) ] 0 31600 34500 144.444443 text
grestore
grestore
gsave
false false false false 260.000000 [(U7) ] 0 31500 40300 180.555557 text
grestore
gsave
45800 39900 45800 40200 10 line
gsave
false false false false 208.000000 [(8) ] 0 45850 39900 144.444443 text
grestore
gsave
true false false true 208.000000 [(VDD) ] 0 45800 39850 144.444443 text
grestore
44800 33000 46600 33000 10 line
46600 33000 46600 39900 10 line
46600 39900 44800 39900 10 line
44800 39900 44800 33000 10 line
gsave
false false false false 260.000000 [(SST39VF020) ] 0 44500 39950 180.555557 text
grestore
44800 39600 44500 39600 10 line
gsave
false true false false 208.000000 [(20) ] 0 44750 39650 144.444443 text
grestore
gsave
false false true false 208.000000 [(A0) ] 0 44900 39600 144.444443 text
grestore
44800 39300 44500 39300 10 line
gsave
false true false false 208.000000 [(19) ] 0 44750 39350 144.444443 text
grestore
gsave
false false true false 208.000000 [(A1) ] 0 44900 39300 144.444443 text
grestore
44800 39000 44500 39000 10 line
gsave
false true false false 208.000000 [(18) ] 0 44750 39050 144.444443 text
grestore
gsave
false false true false 208.000000 [(A2) ] 0 44900 39000 144.444443 text
grestore
44800 38700 44500 38700 10 line
gsave
false true false false 208.000000 [(17) ] 0 44750 38750 144.444443 text
grestore
gsave
false false true false 208.000000 [(A3) ] 0 44900 38700 144.444443 text
grestore
44800 38400 44500 38400 10 line
gsave
false true false false 208.000000 [(16) ] 0 44750 38450 144.444443 text
grestore
gsave
false false true false 208.000000 [(A4) ] 0 44900 38400 144.444443 text
grestore
44800 38100 44500 38100 10 line
gsave
false true false false 208.000000 [(15) ] 0 44750 38150 144.444443 text
grestore
gsave
false false true false 208.000000 [(A5) ] 0 44900 38100 144.444443 text
grestore
44800 37800 44500 37800 10 line
gsave
false true false false 208.000000 [(14) ] 0 44750 37850 144.444443 text
grestore
gsave
false false true false 208.000000 [(A6) ] 0 44900 37800 144.444443 text
grestore
44800 37500 44500 37500 10 line
gsave
false true false false 208.000000 [(13) ] 0 44750 37550 144.444443 text
grestore
gsave
false false true false 208.000000 [(A7) ] 0 44900 37500 144.444443 text
grestore
44800 37200 44500 37200 10 line
gsave
false true false false 208.000000 [(3) ] 0 44750 37250 144.444443 text
grestore
gsave
false false true false 208.000000 [(A8) ] 0 44900 37200 144.444443 text
grestore
44800 36900 44500 36900 10 line
gsave
false true false false 208.000000 [(2) ] 0 44750 36950 144.444443 text
grestore
gsave
false false true false 208.000000 [(A9) ] 0 44900 36900 144.444443 text
grestore
44800 36600 44500 36600 10 line
gsave
false true false false 208.000000 [(31) ] 0 44750 36650 144.444443 text
grestore
gsave
false false true false 208.000000 [(A10) ] 0 44900 36600 144.444443 text
grestore
44800 36300 44500 36300 10 line
gsave
false true false false 208.000000 [(1) ] 0 44750 36350 144.444443 text
grestore
gsave
false false true false 208.000000 [(A11) ] 0 44900 36300 144.444443 text
grestore
44800 36000 44500 36000 10 line
gsave
false true false false 208.000000 [(12) ] 0 44750 36050 144.444443 text
grestore
gsave
false false true false 208.000000 [(A12) ] 0 44900 36000 144.444443 text
grestore
44800 35700 44500 35700 10 line
gsave
false true false false 208.000000 [(4) ] 0 44750 35750 144.444443 text
grestore
gsave
false false true false 208.000000 [(A13) ] 0 44900 35700 144.444443 text
grestore
44800 35400 44500 35400 10 line
gsave
false true false false 208.000000 [(5) ] 0 44750 35450 144.444443 text
grestore
gsave
false false true false 208.000000 [(A14) ] 0 44900 35400 144.444443 text
grestore
44800 35100 44500 35100 10 line
gsave
false true false false 208.000000 [(11) ] 0 44750 35150 144.444443 text
grestore
gsave
false false true false 208.000000 [(A15) ] 0 44900 35100 144.444443 text
grestore
44800 34800 44500 34800 10 line
gsave
false true false false 208.000000 [(10) ] 0 44750 34850 144.444443 text
grestore
gsave
false false true false 208.000000 [(A16) ] 0 44900 34800 144.444443 text
grestore
45800 33000 45800 32700 10 line
gsave
false true false false 208.000000 [(24) ] 90 45750 32905 144.444443 text
grestore
gsave
false false false false 208.000000 [(VSS) ] 90 45800 33055 144.444443 text
grestore
46600 34400 46900 34400 10 line
gsave
false false false false 208.000000 [(7) ] 0 46695 34445 144.444443 text
grestore
gsave
false true false false 208.000000 [(WE_N) ] 0 46545 34395 144.444443 text
grestore
46600 34700 46900 34700 10 line
gsave
false false false false 208.000000 [(30) ] 0 46695 34745 144.444443 text
grestore
gsave
false true false false 208.000000 [(CE_N) ] 0 46545 34695 144.444443 text
grestore
46600 35000 46900 35000 10 line
gsave
false false false false 208.000000 [(32) ] 0 46695 35045 144.444443 text
grestore
gsave
false true false false 208.000000 [(OE_N) ] 0 46545 34995 144.444443 text
grestore
46600 39600 46900 39600 10 line
gsave
false false false false 208.000000 [(21) ] 0 46650 39650 144.444443 text
grestore
gsave
false true true false 208.000000 [(D0) ] 0 46500 39600 144.444443 text
grestore
46600 39300 46900 39300 10 line
gsave
false false false false 208.000000 [(22) ] 0 46650 39350 144.444443 text
grestore
gsave
false true true false 208.000000 [(D1) ] 0 46500 39300 144.444443 text
grestore
46600 39000 46900 39000 10 line
gsave
false false false false 208.000000 [(23) ] 0 46650 39050 144.444443 text
grestore
gsave
false true true false 208.000000 [(D2) ] 0 46500 39000 144.444443 text
grestore
46600 38700 46900 38700 10 line
gsave
false false false false 208.000000 [(25) ] 0 46650 38750 144.444443 text
grestore
gsave
false true true false 208.000000 [(D3) ] 0 46500 38700 144.444443 text
grestore
46600 38400 46900 38400 10 line
gsave
false false false false 208.000000 [(26) ] 0 46650 38450 144.444443 text
grestore
gsave
false true true false 208.000000 [(D4) ] 0 46500 38400 144.444443 text
grestore
46600 38100 46900 38100 10 line
gsave
false false false false 208.000000 [(27) ] 0 46650 38150 144.444443 text
grestore
gsave
false true true false 208.000000 [(D5) ] 0 46500 38100 144.444443 text
grestore
46600 37800 46900 37800 10 line
gsave
false false false false 208.000000 [(28) ] 0 46650 37850 144.444443 text
grestore
gsave
false true true false 208.000000 [(D6) ] 0 46500 37800 144.444443 text
grestore
46600 37500 46900 37500 10 line
gsave
false false false false 208.000000 [(29) ] 0 46650 37550 144.444443 text
grestore
gsave
false true true false 208.000000 [(D7) ] 0 46500 37500 144.444443 text
grestore
46600 36500 46900 36500 10 line
gsave
false false false false 208.000000 [(9) ] 0 46695 36545 144.444443 text
grestore
gsave
false true false false 208.000000 [(NC) ] 0 46545 36495 144.444443 text
grestore
44800 34500 44500 34500 10 line
gsave
false true false false 208.000000 [(6) ] 0 44750 34550 144.444443 text
grestore
gsave
false false true false 208.000000 [(A17) ] 0 44900 34500 144.444443 text
grestore
grestore
gsave
false false false false 260.000000 [(U8) ] 0 44800 40300 180.555557 text
grestore
gsave
45800 50100 45800 50400 10 line
gsave
false false false false 208.000000 [(8) ] 0 45850 50100 144.444443 text
grestore
gsave
true false false true 208.000000 [(VDD) ] 0 45800 50050 144.444443 text
grestore
44800 43200 46600 43200 10 line
46600 43200 46600 50100 10 line
46600 50100 44800 50100 10 line
44800 50100 44800 43200 10 line
gsave
false false false false 260.000000 [(SST39VF020) ] 0 44500 50150 180.555557 text
grestore
44800 49800 44500 49800 10 line
gsave
false true false false 208.000000 [(20) ] 0 44750 49850 144.444443 text
grestore
gsave
false false true false 208.000000 [(A0) ] 0 44900 49800 144.444443 text
grestore
44800 49500 44500 49500 10 line
gsave
false true false false 208.000000 [(19) ] 0 44750 49550 144.444443 text
grestore
gsave
false false true false 208.000000 [(A1) ] 0 44900 49500 144.444443 text
grestore
44800 49200 44500 49200 10 line
gsave
false true false false 208.000000 [(18) ] 0 44750 49250 144.444443 text
grestore
gsave
false false true false 208.000000 [(A2) ] 0 44900 49200 144.444443 text
grestore
44800 48900 44500 48900 10 line
gsave
false true false false 208.000000 [(17) ] 0 44750 48950 144.444443 text
grestore
gsave
false false true false 208.000000 [(A3) ] 0 44900 48900 144.444443 text
grestore
44800 48600 44500 48600 10 line
gsave
false true false false 208.000000 [(16) ] 0 44750 48650 144.444443 text
grestore
gsave
false false true false 208.000000 [(A4) ] 0 44900 48600 144.444443 text
grestore
44800 48300 44500 48300 10 line
gsave
false true false false 208.000000 [(15) ] 0 44750 48350 144.444443 text
grestore
gsave
false false true false 208.000000 [(A5) ] 0 44900 48300 144.444443 text
grestore
44800 48000 44500 48000 10 line
gsave
false true false false 208.000000 [(14) ] 0 44750 48050 144.444443 text
grestore
gsave
false false true false 208.000000 [(A6) ] 0 44900 48000 144.444443 text
grestore
44800 47700 44500 47700 10 line
gsave
false true false false 208.000000 [(13) ] 0 44750 47750 144.444443 text
grestore
gsave
false false true false 208.000000 [(A7) ] 0 44900 47700 144.444443 text
grestore
44800 47400 44500 47400 10 line
gsave
false true false false 208.000000 [(3) ] 0 44750 47450 144.444443 text
grestore
gsave
false false true false 208.000000 [(A8) ] 0 44900 47400 144.444443 text
grestore
44800 47100 44500 47100 10 line
gsave
false true false false 208.000000 [(2) ] 0 44750 47150 144.444443 text
grestore
gsave
false false true false 208.000000 [(A9) ] 0 44900 47100 144.444443 text
grestore
44800 46800 44500 46800 10 line
gsave
false true false false 208.000000 [(31) ] 0 44750 46850 144.444443 text
grestore
gsave
false false true false 208.000000 [(A10) ] 0 44900 46800 144.444443 text
grestore
44800 46500 44500 46500 10 line
gsave
false true false false 208.000000 [(1) ] 0 44750 46550 144.444443 text
grestore
gsave
false false true false 208.000000 [(A11) ] 0 44900 46500 144.444443 text
grestore
44800 46200 44500 46200 10 line
gsave
false true false false 208.000000 [(12) ] 0 44750 46250 144.444443 text
grestore
gsave
false false true false 208.000000 [(A12) ] 0 44900 46200 144.444443 text
grestore
44800 45900 44500 45900 10 line
gsave
false true false false 208.000000 [(4) ] 0 44750 45950 144.444443 text
grestore
gsave
false false true false 208.000000 [(A13) ] 0 44900 45900 144.444443 text
grestore
44800 45600 44500 45600 10 line
gsave
false true false false 208.000000 [(5) ] 0 44750 45650 144.444443 text
grestore
gsave
false false true false 208.000000 [(A14) ] 0 44900 45600 144.444443 text
grestore
44800 45300 44500 45300 10 line
gsave
false true false false 208.000000 [(11) ] 0 44750 45350 144.444443 text
grestore
gsave
false false true false 208.000000 [(A15) ] 0 44900 45300 144.444443 text
grestore
44800 45000 44500 45000 10 line
gsave
false true false false 208.000000 [(10) ] 0 44750 45050 144.444443 text
grestore
gsave
false false true false 208.000000 [(A16) ] 0 44900 45000 144.444443 text
grestore
45800 43200 45800 42900 10 line
gsave
false true false false 208.000000 [(24) ] 90 45750 43105 144.444443 text
grestore
gsave
false false false false 208.000000 [(VSS) ] 90 45800 43255 144.444443 text
grestore
46600 44600 46900 44600 10 line
gsave
false false false false 208.000000 [(7) ] 0 46695 44645 144.444443 text
grestore
gsave
false true false false 208.000000 [(WE_N) ] 0 46545 44595 144.444443 text
grestore
46600 44900 46900 44900 10 line
gsave
false false false false 208.000000 [(30) ] 0 46695 44945 144.444443 text
grestore
gsave
false true false false 208.000000 [(CE_N) ] 0 46545 44895 144.444443 text
grestore
46600 45200 46900 45200 10 line
gsave
false false false false 208.000000 [(32) ] 0 46695 45245 144.444443 text
grestore
gsave
false true false false 208.000000 [(OE_N) ] 0 46545 45195 144.444443 text
grestore
46600 49800 46900 49800 10 line
gsave
false false false false 208.000000 [(21) ] 0 46650 49850 144.444443 text
grestore
gsave
false true true false 208.000000 [(D0) ] 0 46500 49800 144.444443 text
grestore
46600 49500 46900 49500 10 line
gsave
false false false false 208.000000 [(22) ] 0 46650 49550 144.444443 text
grestore
gsave
false true true false 208.000000 [(D1) ] 0 46500 49500 144.444443 text
grestore
46600 49200 46900 49200 10 line
gsave
false false false false 208.000000 [(23) ] 0 46650 49250 144.444443 text
grestore
gsave
false true true false 208.000000 [(D2) ] 0 46500 49200 144.444443 text
grestore
46600 48900 46900 48900 10 line
gsave
false false false false 208.000000 [(25) ] 0 46650 48950 144.444443 text
grestore
gsave
false true true false 208.000000 [(D3) ] 0 46500 48900 144.444443 text
grestore
46600 48600 46900 48600 10 line
gsave
false false false false 208.000000 [(26) ] 0 46650 48650 144.444443 text
grestore
gsave
false true true false 208.000000 [(D4) ] 0 46500 48600 144.444443 text
grestore
46600 48300 46900 48300 10 line
gsave
false false false false 208.000000 [(27) ] 0 46650 48350 144.444443 text
grestore
gsave
false true true false 208.000000 [(D5) ] 0 46500 48300 144.444443 text
grestore
46600 48000 46900 48000 10 line
gsave
false false false false 208.000000 [(28) ] 0 46650 48050 144.444443 text
grestore
gsave
false true true false 208.000000 [(D6) ] 0 46500 48000 144.444443 text
grestore
46600 47700 46900 47700 10 line
gsave
false false false false 208.000000 [(29) ] 0 46650 47750 144.444443 text
grestore
gsave
false true true false 208.000000 [(D7) ] 0 46500 47700 144.444443 text
grestore
46600 46700 46900 46700 10 line
gsave
false false false false 208.000000 [(9) ] 0 46695 46745 144.444443 text
grestore
gsave
false true false false 208.000000 [(NC) ] 0 46545 46695 144.444443 text
grestore
44800 44700 44500 44700 10 line
gsave
false true false false 208.000000 [(6) ] 0 44750 44750 144.444443 text
grestore
gsave
false false true false 208.000000 [(A17) ] 0 44900 44700 144.444443 text
grestore
grestore
gsave
false false false false 260.000000 [(U6) ] 0 44800 50500 180.555557 text
grestore
gsave
34200 40900 34200 40700 10 line
34300 40900 34100 40900 10 line
34245 40950 34155 40950 10 line
34220 40990 34180 40990 10 line
grestore
gsave
false true false true 260.000000 [(GND) ] 0 34400 41200 180.555557 text
grestore
60 60 34570 44870 fbox
60 60 49370 47670 fbox
60 60 49370 48270 fbox
60 60 49370 48870 fbox
60 60 49370 49470 fbox
60 60 34570 47670 fbox
60 60 34570 48270 fbox
60 60 34570 48870 fbox
60 60 34570 49470 fbox
60 60 49370 47970 fbox
60 60 49370 48570 fbox
60 60 49370 49170 fbox
60 60 49370 49770 fbox
60 60 34570 47970 fbox
60 60 34570 48570 fbox
60 60 34570 49170 fbox
60 60 34570 49770 fbox
60 60 30070 49470 fbox
60 60 30070 48870 fbox
60 60 30070 47670 fbox
60 60 30070 48270 fbox
60 60 30070 47070 fbox
60 60 30070 45870 fbox
60 60 30070 46470 fbox
60 60 30070 45270 fbox
60 60 34570 45170 fbox
60 60 30070 44670 fbox
60 60 34570 44570 fbox
60 60 30070 49770 fbox
60 60 30070 49170 fbox
60 60 30070 47970 fbox
60 60 30070 48570 fbox
60 60 30070 47370 fbox
60 60 30070 46170 fbox
60 60 30070 46770 fbox
60 60 30070 45570 fbox
60 60 30070 44970 fbox
newpath
32500 50500
25
0 360 arc
fill
60 60 47870 44870 fbox
60 60 43370 49470 fbox
60 60 43370 48870 fbox
60 60 43370 47670 fbox
60 60 43370 48270 fbox
60 60 43370 47070 fbox
60 60 43370 45870 fbox
60 60 43370 46470 fbox
60 60 43370 45270 fbox
60 60 47870 45170 fbox
60 60 43370 44670 fbox
60 60 47870 44570 fbox
60 60 43370 49770 fbox
60 60 43370 49170 fbox
60 60 43370 47970 fbox
60 60 43370 48570 fbox
60 60 43370 47370 fbox
60 60 43370 46170 fbox
60 60 43370 46770 fbox
60 60 43370 45570 fbox
60 60 43370 44970 fbox
newpath
45800 50500
25
0 360 arc
fill
newpath
32500 50500
25
0 360 arc
fill
newpath
32500 50500
25
0 360 arc
fill
newpath
45800 50500
25
0 360 arc
fill
newpath
45800 50500
25
0 360 arc
fill
60 60 34570 34670 fbox
60 60 47870 37470 fbox
60 60 47870 38070 fbox
60 60 47870 38670 fbox
60 60 47870 39270 fbox
60 60 34570 37470 fbox
60 60 34570 38070 fbox
60 60 34570 38670 fbox
60 60 34570 39270 fbox
60 60 47870 37770 fbox
60 60 47870 38370 fbox
60 60 47870 38970 fbox
60 60 47870 39570 fbox
60 60 34570 37770 fbox
60 60 34570 38370 fbox
60 60 34570 38970 fbox
60 60 34570 39570 fbox
60 60 30070 39270 fbox
60 60 30070 38670 fbox
60 60 30070 37470 fbox
60 60 30070 38070 fbox
60 60 30070 36870 fbox
60 60 30070 35670 fbox
60 60 30070 36270 fbox
60 60 30070 35070 fbox
60 60 34570 34970 fbox
60 60 30070 34470 fbox
60 60 34570 34370 fbox
60 60 30070 39570 fbox
60 60 30070 38970 fbox
60 60 30070 37770 fbox
60 60 30070 38370 fbox
60 60 30070 37170 fbox
60 60 30070 35970 fbox
60 60 30070 36570 fbox
60 60 30070 35370 fbox
60 60 30070 34770 fbox
newpath
32500 40300
25
0 360 arc
fill
60 60 47870 34670 fbox
60 60 43370 39270 fbox
60 60 43370 38670 fbox
60 60 43370 37470 fbox
60 60 43370 38070 fbox
60 60 43370 36870 fbox
60 60 43370 35670 fbox
60 60 43370 36270 fbox
60 60 43370 35070 fbox
60 60 47870 34970 fbox
60 60 43370 34470 fbox
60 60 47870 34370 fbox
60 60 43370 39570 fbox
60 60 43370 38970 fbox
60 60 43370 37770 fbox
60 60 43370 38370 fbox
60 60 43370 37170 fbox
60 60 43370 35970 fbox
60 60 43370 36570 fbox
60 60 43370 35370 fbox
60 60 43370 34770 fbox
newpath
45800 40300
25
0 360 arc
fill
newpath
32500 40300
25
0 360 arc
fill
newpath
32500 40300
25
0 360 arc
fill
newpath
45800 40300
25
0 360 arc
fill
newpath
45800 40300
25
0 360 arc
fill
showpage
%%End
