%!PS-Adobe-3.0 EPSF-3.0
%%Creator: gEDA gschem 1.6.1-20100214-22-ga30f00b
%%CreationDate: Wed Oct 22 16:34:46 2014
%%Title: /home/freaktm/mojo/mojo-schematics/shield_2.sch
%%Author: freaktm
%%BoundingBox: 0 0 1677 1188
%%Orientation: Portrait
%%Pages: 1
%%Endcomments
%%BeginProlog
% Prolog for gEDA, define all the functions needed for rendering
% schematics on Postscript devices


% Draw a line from the second coordinate to the first
% x2 y2 x1 y1 width line -
/line {
    setlinewidth
    % pop off first element and moveto
    moveto
    % pop off remaining elements and draw a line segment
    lineto
    % draw it
    stroke
} bind def


% Draw a dot
% x y r dot -
/dot {
    0 360 arc fill
} bind def

% Draw a dot-dashed line, a bunch of lined segments,
% if the array element only has length two, draw a dot.
% [ [x2 y2 x1 y1] [x4 y4 x3 y3] [x5 y5] ... ] width dashed -
/width 0 def
/dashed {
    dup 2.0 div /width exch def
    setlinewidth
    % pop off each line segment and draw it as a dot or as a line
    {
	aload length 2 gt
	{ moveto lineto stroke}
	{ width dot } ifelse
    } forall
} bind def

% Draw an arc segment
% x y r ang1 ang2 width darc -
/darc {
    setlinewidth
    arc stroke
} bind def

% Draw a series of arc segment bits, if the array element only has a single
% element in it, draw a dot.
% [ [sa1 ea1] [sa2 ea2] ... ] x y r width dashedarc -
/x 0 def
/y 0 def
/dashedarc {
    dup /width exch def
    setlinewidth
    /r exch def  
    /y exch def
    /x exch def
    { aload length 1 gt
	{
	    % this element had two angles in it
	    % extract start and stop angles
	    x y r   % drop x y and r onto stack
		    % at this point we have: sa ea x y r
		    % we need                      x y r sa ea
		    % so..
	    5 -2 roll
	    % and add it to the current path, and draw it
	    arc stroke
	} {
	    % this element only had one angle in it, place a
	    % filled dot at the appropriate place
	    % compute center point of the arc using the angle
	    % that is on the top of the stack
	    dup   		% angle angle
	    cos r mul x add 	% angle x
	    exch		% x angle
	    sin r mul y add	% x y
	    width		% x y width/2
	    dot			% draw the dot
	} ifelse
    } forall

    % Now draw it
    stroke
} bind def

% Draw a box
% width height x y linethickness box -
/box {
    setlinewidth
    moveto
    exch dup 0 rlineto	 % w h, h w w 0      -- Draw bottom line
    exch 0 exch rlineto	 % h w, w h 0, w 0 h -- Draw right line 
    neg 0 rlineto	 % w, -w 0           -- Draw Top line
    closepath		 % finish and draw it
    stroke
} bind def			     

% Draw a filled box
% width height x y fbox -
/fbox {
    moveto
    exch dup 0 rlineto	
    exch 0 exch rlineto	
    neg 0 rlineto		
    closepath			
    fill			
} bind def

% Font reincoding utilities

% ISOLatin1Encoding, extended with remaining uncoded glyphs
/ISOLatin1Extended [
    /.notdef /Lslash /lslash /OE /oe /Scaron /scaron /Zcaron /zcaron
    /Ydieresis /trademark /bullet /dagger /daggerdbl /ellipsis /emdash
    /endash /fi /fl /florin /fraction /guilsinglleft /guilsinglright
    /perthousand /quotedblbase /quotedblleft /quotedblright
    /quotesinglbase /quotesingle /.notdef /.notdef /.notdef /space
    /exclam /quotedbl /numbersign /dollar /percent /ampersand
    /quoteright /parenleft /parenright /asterisk /plus /comma /minus
    /period /slash /zero /one /two /three /four /five /six /seven /eight
    /nine /colon /semicolon /less /equal /greater /question /at /A /B /C
    /D /E /F /G /H /I /J /K /L /M /N /O /P /Q /R /S /T /U /V /W /X /Y /Z
    /bracketleft /backslash /bracketright /asciicircum /underscore
    /quoteleft /a /b /c /d /e /f /g /h /i /j /k /l /m /n /o /p /q /r /s
    /t /u /v /w /x /y /z /braceleft /bar /braceright /asciitilde
    /.notdef /.notdef /.notdef /.notdef /.notdef /.notdef /.notdef
    /.notdef /.notdef /.notdef /.notdef /.notdef /.notdef /.notdef
    /.notdef /.notdef /.notdef /dotlessi /grave /acute /circumflex
    /tilde /macron /breve /dotaccent /dieresis /.notdef /ring /cedilla
    /.notdef /hungarumlaut /ogonek /caron /space /exclamdown /cent
    /sterling /currency /yen /brokenbar /section /dieresis /copyright
    /ordfeminine /guillemotleft /logicalnot /hyphen /registered /macron
    /degree /plusminus /twosuperior /threesuperior /acute /mu /paragraph
    /periodcentered /cedilla /onesuperior /ordmasculine /guillemotright
    /onequarter /onehalf /threequarters /questiondown /Agrave /Aacute
    /Acircumflex /Atilde /Adieresis /Aring /AE /Ccedilla /Egrave /Eacute
    /Ecircumflex /Edieresis /Igrave /Iacute /Icircumflex /Idieresis /Eth
    /Ntilde /Ograve /Oacute /Ocircumflex /Otilde /Odieresis /multiply
    /Oslash /Ugrave /Uacute /Ucircumflex /Udieresis /Yacute /Thorn
    /germandbls /agrave /aacute /acircumflex /atilde /adieresis /aring
    /ae /ccedilla /egrave /eacute /ecircumflex /edieresis /igrave
    /iacute /icircumflex /idieresis /eth /ntilde /ograve /oacute
    /ocircumflex /otilde /odieresis /divide /oslash /ugrave /uacute
    /ucircumflex /udieresis /yacute /thorn /ydieresis
] def

% `new-font-name' `encoding-vector' `old-font-name' RE -
/RE {
    findfont
    dup maxlength dict begin {
        1 index /FID ne { def } { pop pop } ifelse
    } forall
    /Encoding exch def
    dup /FontName exch def
    currentdict end definefont pop
} bind def

% Text handling functions, select the font and scale it, then we need
% only to apply the appropriate transformations to get the text
% justified into the right spots.  The bad thing here is that we don't
% do any kerning, so the output may look a bit strange.

% compute the height of one character and return lly and ury
% (char) charheight lly ury
/charheight {
    gsave			% push graphics state
	newpath			% clear current path
	0 0 moveto		% Set current point
	false charpath		% get path
	flattenpath		% flatten path
	pathbbox		% stack = llx lly urx ury
	exch pop		% stack = llx lly ury
	3 -1 roll pop		% stack = lly ury
    grestore			% pop graphics state
} bind def

% compute the height of a string, one character at a time
% (string) stringheight lly ury
/lly 0.0 def
/ury 0.0 def

/stringheight {
    /lly 0.0 def			% initial value of heightmin
    /ury 0.0 def			% initial value of heightmax
    {				% work through string
	( ) dup 0 4 -1 roll put	% create one character string
	charheight		% measure it's height
	dup ury gt {		% if ury gt heightmax
	    /ury exch def	% update with new value
	} {
	    pop			% else discard ury
	} ifelse
	dup lly lt {		% if lly lt heightmin
	    /lly exch def	% update with new value
	} {
	    pop			% else discard lly
	} ifelse
    } forall
    lly ury			% Return the results
} bind def

% calculate the string width taking into account the escapes.
/mystrx 0.0 def
/mystry 0.0 def
/mystresc false def

/mystringwidth {
    /mystrx 0.0 def
    /mystry 0.0 def
    /mystresc false def
    {				% work through string
	% did we process the escape character last?
	mystresc {
	    % last character was escape
	    % handle the escape
	    % is it an _ = 95?
	    dup 95 eq {
		pop  % we don't need the character anymore
		% toggle drawing overbars
		0.0 0.0 % make it like it never happened...
	    } {
		% otherwise measure the character 
		(\\ ) dup 1 4 -1 roll put % count a \ and the character
		stringwidth
	    } ifelse
	    % and reset the flag
	    /mystresc false def
	} {
	    % last character was not escape
	    % is this escape
	    dup 92 eq {
		% yes, escape character, set flag
		/mystresc true def
		pop % drop character
		0.0 0.0 % make like this character has no width and height
	    } {
		( ) dup 0 4 -1 roll put	% create one character string
		stringwidth		% measure it's height/width
	    } ifelse
	} ifelse
	% accumulate x and y movements
	mystry add /mystry exch def
	mystrx add /mystrx exch def
    } forall
    mystrx mystry % drop results on stack
} bind def

% Render a string with overbars
%
/escaped false def
/drawoverbar false def
/fontsize 0.0 def

%string1 string2 append -
/append {
    2 copy length exch length add % find new length
    string dup % string1 string2 string string
    4 2 roll % string string string1 string2
    2 index 0 3 index
    % string string string1 string2 string 0 string1
    putinterval % string string string1 string2
    exch length exch putinterval
} bind def

% If drawoverbar is set, draw a line of the same length as the given string
% string overbarshowline -
/overbarshowline {
    % print overbar if necessary
    stringwidth pop 0
    drawoverbar {
        rlineto
        gsave stroke grestore
    } {
        rmoveto
    } ifelse
} bind def

% Draws overbars for the given string, then shows the string itself
% string overbarshow
/overbarshow {
    /overbarshowacc () def
    /overbarshowtxt () def

    gsave
    fontsize 10.0 div setlinewidth
    0 fontsize rmoveto  % move to (0,overbarheight)

    {				% work through string
	escaped {
	    % the last character was the escape
	    % handle the escape
	    % is it an _ = 95?
	    dup 95 eq {
		pop  % we don't need the character anymore
                overbarshowacc overbarshowline
                % toggle drawing overbars
		/drawoverbar drawoverbar not def

                % Append the contents off the accumulator to the text
                % string we're eventually going to show
                /overbarshowtxt overbarshowtxt overbarshowacc append def

                % clear accumulator
                /overbarshowacc () def
	    } {
                % add to accumulator
                (\\ ) dup 1 4 -1 roll put
                overbarshowacc exch append
                /overbarshowacc exch def
	    } ifelse
	    % and reset the flag
	    /escaped false def
	} {
	    % check for escape character \ = 92
	    dup 92 eq {
		% yes, escape character, set flag
		/escaped true def
		pop % drop character
	    } {
                % add to accumulator
                ( ) dup 0 4 -1 roll put
                overbarshowacc exch append
                /overbarshowacc exch def
	    } ifelse
	} ifelse
    } forall
    % Catch any leftovers
    overbarshowacc overbarshowline
    overbarshowtxt overbarshowacc append

    grestore
    show
} bind def

% 
% hcenter rjustify vcenter vjustify spacing [(line1) (line2) ... ] rot x y size text -
/stringw 0.0 def
/stringh 0.0 def
/spacing 0.0 def
/strings [ ] def
/stringtxt ( ) def
/stringcount 0 def
/rot 0.0 def

/text {
    gsave	        % save state for later
    /drawoverbar false def      % start by not drawing overbars

    dup /fontsize exch def  % save font size for corrections later
    % do font selection 
    /gEDAFont findfont
    exch scalefont
    setfont

    % set up coordinates
    translate           % move origin to given point
    rotate		% rotate so that text is drawn
    0 0 moveto
    dup length /stringcount exch def			% Get number of strings
    /strings exch def     				% save strings
    /spacing exch def
    % do we have more than 1 string to render?
    stringcount 1 eq {
	/stringtxt strings aload pop def		% get the string 
	/stringw stringtxt mystringwidth pop neg def	% get the -width
	/stringh stringtxt stringheight exch pop neg def% get the -height

	% First do vertical calculations
	% hcenter rjustify vcenter vjustify 
	% vertical justification
	{ 0 stringh rmoveto } if 
	% vertical center
	{ 0 stringh 0.3571425 mul rmoveto } if  % not 0.5, so that
						% it looks nicer
	% Then do horizontal calculations
	% right justify
	{ stringw 0 rmoveto } if
	% center
	{ stringw 2.0 div 0 rmoveto } if
	% Draw the text
	stringtxt overbarshow
    } {
	% More than one line, compute bounding box for the text

	% vertical height, don't use the actual hieght of the characters
	% assume that the user wants to make the baselines line up with two
	% text boxes placed side by side
	/stringh stringcount spacing mul neg def
	% Now figure out horizontal size, this amounts to keeping track
	% of the longest string
	/stringw 0.0 def
	strings {
	    mystringwidth pop
	    dup stringw gt {
		/stringw exch def
	    } {
		pop
	    } ifelse
	} forall
	/stringw stringw neg def 	% get the -width
	
	% First do vertical calculations
	% hcenter rjustify vcenter vjustify 
	% vertical justification
	{ 0 stringh fontsize add rmoveto } if 
	% vertical center
	{ 0 stringh 0.5 mul rmoveto } if 
	% Then do horizontal calculations
	% right justify
	{ stringw 0 rmoveto } if
	% center
	{ stringw 2.0 div 0 rmoveto } if
	% now move up to the first line and begin rendering
	0 stringcount 1 sub spacing mul rmoveto
	strings {
	    gsave		% Save starting point
	    overbarshow		% render the text
	    grestore
	    0 spacing neg rmoveto
	} forall
    } ifelse
    grestore 	% Restore old state
} bind def


%%EndProlog
%%Page: 1 1
/gEDAFont ISOLatin1Extended /Helvetica RE
2 setlinecap
0.072000 0.072000 scale
0 0 translate
1.000000 1.000000 scale
-27400 -35000 translate
34000 50300 33300 50300 10 line
gsave
false false false false 260.000000 [(SW0) ] 0 34100 50200 180.555557 text
grestore
34000 48300 33300 48300 10 line
gsave
false false false false 260.000000 [(SW2) ] 0 34100 48200 180.555557 text
grestore
34000 46300 33300 46300 10 line
gsave
false false false false 260.000000 [(SW4) ] 0 34100 46300 180.555557 text
grestore
34000 44300 33300 44300 10 line
gsave
false false false false 260.000000 [(SW6) ] 0 34100 44200 180.555557 text
grestore
34000 49300 33300 49300 10 line
gsave
false false false false 260.000000 [(SW1) ] 0 34100 49200 180.555557 text
grestore
34000 47300 33300 47300 10 line
gsave
false false false false 260.000000 [(SW3) ] 0 34100 47200 180.555557 text
grestore
34000 45300 33300 45300 10 line
gsave
false false false false 260.000000 [(SW5) ] 0 34100 45200 180.555557 text
grestore
34000 43300 33300 43300 10 line
gsave
false false false false 260.000000 [(SW7) ] 0 34100 43200 180.555557 text
grestore
gsave
41600 50900 41600 51100 10 line
41450 51100 41750 51100 10 line
gsave
false false false false 208.000000 [(+5V) ] 0 41475 51150 144.444443 text
grestore
grestore
40500 48400 39700 48400 10 line
gsave
false false false false 260.000000 [(PS2C) ] 0 40700 48300 180.555557 text
grestore
40500 49900 39700 49900 10 line
gsave
false false false false 260.000000 [(PS2D) ] 0 40700 49800 180.555557 text
grestore
gsave
27400 35000 50700 35000 10 line
50700 35000 50700 51500 10 line
50700 51500 27400 51500 10 line
27400 51500 27400 35000 10 line
46600 35600 46600 35000 10 line
gsave
false false false false 208.000000 [(FILE:) ] 0 43200 35400 144.444443 text
grestore
gsave
false false false false 208.000000 [(REVISION:) ] 0 46700 35400 144.444443 text
grestore
gsave
false false false false 208.000000 [(DRAWN BY: ) ] 0 46700 35100 144.444443 text
grestore
gsave
false false false false 208.000000 [(PAGE) ] 0 43200 35100 144.444443 text
grestore
gsave
false false false false 208.000000 [(OF) ] 0 44900 35100 144.444443 text
grestore
gsave
false false false false 208.000000 [(TITLE) ] 0 43200 35700 144.444443 text
grestore
43100 35000 50700 35000 10 line
50700 35000 50700 36400 10 line
50700 36400 43100 36400 10 line
43100 36400 43100 35000 10 line
43100 35600 50700 35600 10 line
grestore
gsave
false false false false 260.000000 [(REX SHIELD) ] 0 43700 35700 180.555557 text
grestore
gsave
false false false false 260.000000 [(Aaron Storey) ] 0 47700 35100 180.555557 text
grestore
gsave
false false false false 260.000000 [(2) ] 0 44200 35100 180.555557 text
grestore
gsave
32400 50300 32550 50300 10 line
33300 50300 33150 50300 10 line
32550 50200 33150 50200 10 line
33150 50200 33150 50400 10 line
33150 50400 32550 50400 10 line
32550 50400 32550 50200 10 line
grestore
gsave
false true false true 260.000000 [(10K) ] 0 33000 50100 180.555557 text
grestore
gsave
false true false true 260.000000 [(R1) ] 0 32900 50600 180.555557 text
grestore
gsave
29500 42300 29500 42500 10 line
29400 42300 29600 42300 10 line
29455 42250 29545 42250 10 line
29480 42210 29520 42210 10 line
grestore
gsave
false false false false 260.000000 [(GND) ] 0 29300 42000 180.555557 text
grestore
gsave
28500 50900 28500 51100 10 line
28350 51100 28650 51100 10 line
gsave
false false false false 208.000000 [(+3.3V) ] 0 28375 51150 144.444443 text
grestore
grestore
31400 50300 32400 50300 10 line
30500 50500 28500 50500 10 line
30500 50100 29500 50100 10 line
gsave
32400 49300 32550 49300 10 line
33300 49300 33150 49300 10 line
32550 49200 33150 49200 10 line
33150 49200 33150 49400 10 line
33150 49400 32550 49400 10 line
32550 49400 32550 49200 10 line
grestore
gsave
false true false true 260.000000 [(10K) ] 0 33000 49100 180.555557 text
grestore
gsave
false true false true 260.000000 [(R2) ] 0 32900 49600 180.555557 text
grestore
31400 49300 32400 49300 10 line
gsave
32400 48300 32550 48300 10 line
33300 48300 33150 48300 10 line
32550 48200 33150 48200 10 line
33150 48200 33150 48400 10 line
33150 48400 32550 48400 10 line
32550 48400 32550 48200 10 line
grestore
gsave
false true false true 260.000000 [(10K) ] 0 33000 48100 180.555557 text
grestore
gsave
false true false true 260.000000 [(R3) ] 0 32900 48600 180.555557 text
grestore
31400 48300 32400 48300 10 line
gsave
32400 47300 32550 47300 10 line
33300 47300 33150 47300 10 line
32550 47200 33150 47200 10 line
33150 47200 33150 47400 10 line
33150 47400 32550 47400 10 line
32550 47400 32550 47200 10 line
grestore
gsave
false true false true 260.000000 [(10K) ] 0 33000 47100 180.555557 text
grestore
gsave
false true false true 260.000000 [(R4) ] 0 32900 47600 180.555557 text
grestore
31400 47300 32400 47300 10 line
gsave
32400 46300 32550 46300 10 line
33300 46300 33150 46300 10 line
32550 46200 33150 46200 10 line
33150 46200 33150 46400 10 line
33150 46400 32550 46400 10 line
32550 46400 32550 46200 10 line
grestore
gsave
false true false true 260.000000 [(10K) ] 0 33000 46100 180.555557 text
grestore
gsave
false true false true 260.000000 [(R5) ] 0 32900 46600 180.555557 text
grestore
31400 46300 32400 46300 10 line
gsave
32400 45300 32550 45300 10 line
33300 45300 33150 45300 10 line
32550 45200 33150 45200 10 line
33150 45200 33150 45400 10 line
33150 45400 32550 45400 10 line
32550 45400 32550 45200 10 line
grestore
gsave
false true false true 260.000000 [(10K) ] 0 33000 45100 180.555557 text
grestore
gsave
false true false true 260.000000 [(R6) ] 0 32900 45600 180.555557 text
grestore
31400 45300 32400 45300 10 line
gsave
32400 44300 32550 44300 10 line
33300 44300 33150 44300 10 line
32550 44200 33150 44200 10 line
33150 44200 33150 44400 10 line
33150 44400 32550 44400 10 line
32550 44400 32550 44200 10 line
grestore
gsave
false true false true 260.000000 [(10K) ] 0 33000 44100 180.555557 text
grestore
gsave
false true false true 260.000000 [(R7) ] 0 32900 44600 180.555557 text
grestore
31400 44300 32400 44300 10 line
gsave
32400 43300 32550 43300 10 line
33300 43300 33150 43300 10 line
32550 43200 33150 43200 10 line
33150 43200 33150 43400 10 line
33150 43400 32550 43400 10 line
32550 43400 32550 43200 10 line
grestore
gsave
false true false true 260.000000 [(10K) ] 0 33000 43100 180.555557 text
grestore
gsave
false true false true 260.000000 [(R8) ] 0 32900 43600 180.555557 text
grestore
31400 43300 32400 43300 10 line
29500 50100 29500 42500 10 line
28500 43500 28500 50900 10 line
28500 49500 30500 49500 10 line
28500 48500 30500 48500 10 line
28500 47500 30500 47500 10 line
28500 46500 30500 46500 10 line
28500 45500 30500 45500 10 line
28500 44500 30500 44500 10 line
28500 43500 30500 43500 10 line
30500 43100 29500 43100 10 line
30500 44100 29500 44100 10 line
30500 45100 29500 45100 10 line
30500 46100 29500 46100 10 line
30500 47100 29500 47100 10 line
30500 48100 29500 48100 10 line
30500 49100 29500 49100 10 line
gsave
37400 49600 37700 49600 10 line
gsave
false false false false 208.000000 [(2) ] 0 36250 49550 144.444443 text
grestore
37400 49000 37700 49000 10 line
gsave
false false false false 208.000000 [(4) ] 0 36250 48950 144.444443 text
grestore
37400 48400 37700 48400 10 line
gsave
false false false false 208.000000 [(6) ] 0 36250 48350 144.444443 text
grestore
37400 49900 37700 49900 10 line
gsave
false false false false 208.000000 [(1) ] 0 36250 49850 144.444443 text
grestore
37400 49300 37700 49300 10 line
gsave
false false false false 208.000000 [(3) ] 0 36250 49250 144.444443 text
grestore
37400 48700 37700 48700 10 line
gsave
false false false false 208.000000 [(5) ] 0 36250 48650 144.444443 text
grestore
37400 49900 36500 49900 10 line
37400 49600 36500 49600 10 line
37400 49300 36500 49300 10 line
37400 49000 36500 49000 10 line
37400 48700 36500 48700 10 line
37400 48400 36500 48400 10 line
36000 48200 36500 48200 10 line
36500 48200 36500 50100 10 line
36500 50100 36000 50100 10 line
36000 50100 36000 48200 10 line
grestore
gsave
false false false false 260.000000 [(PS2) ] 0 36100 50200 180.555557 text
grestore
gsave
38800 49900 38950 49900 10 line
39700 49900 39550 49900 10 line
38950 49800 39550 49800 10 line
39550 49800 39550 50000 10 line
39550 50000 38950 50000 10 line
38950 50000 38950 49800 10 line
grestore
gsave
false true false true 260.000000 [(200) ] 0 39400 49700 180.555557 text
grestore
gsave
false true false true 260.000000 [(R9) ] 0 39300 50200 180.555557 text
grestore
37700 49900 38800 49900 10 line
37700 49600 38300 49600 10 line
38300 49600 38300 49900 10 line
gsave
42000 47200 42000 47400 10 line
41900 47200 42100 47200 10 line
41955 47150 42045 47150 10 line
41980 47110 42020 47110 10 line
grestore
gsave
false false false false 260.000000 [(GND) ] 0 41800 46900 180.555557 text
grestore
gsave
38800 48400 38950 48400 10 line
39700 48400 39550 48400 10 line
38950 48300 39550 48300 10 line
39550 48300 39550 48500 10 line
39550 48500 38950 48500 10 line
38950 48500 38950 48300 10 line
grestore
gsave
false true false true 260.000000 [(200) ] 0 39400 48200 180.555557 text
grestore
gsave
false true false true 260.000000 [(R10) ] 0 39300 48700 180.555557 text
grestore
37700 49300 42000 49300 10 line
42000 49300 42000 47400 10 line
37700 49000 41600 49000 10 line
41600 49000 41600 50900 10 line
37700 48400 38800 48400 10 line
37700 48700 38300 48700 10 line
38300 48700 38300 48400 10 line
40500 42000 37200 42000 10 line
gsave
false false false false 260.000000 [(VS) ] 0 40600 42000 180.555557 text
grestore
39600 45300 40500 45300 10 line
gsave
false false false false 260.000000 [(VGA_PIXEL) ] 0 40600 45300 180.555557 text
grestore
40500 42600 37200 42600 10 line
gsave
false false false false 260.000000 [(HS) ] 0 40600 42600 180.555557 text
grestore
32300 40800 31200 40800 10 line
gsave
false false false false 260.000000 [(BUTTON_0) ] 0 32400 40800 180.555557 text
grestore
44700 41300 43700 41300 10 line
gsave
false false false false 260.000000 [(SSDR_0) ] 0 42800 41300 180.555557 text
grestore
44700 40900 43700 40900 10 line
gsave
false false false false 260.000000 [(SSDR_1) ] 0 42800 40900 180.555557 text
grestore
44700 40100 43700 40100 10 line
gsave
false false false false 260.000000 [(SSDR_3) ] 0 42800 40100 180.555557 text
grestore
44700 40500 43700 40500 10 line
gsave
false false false false 260.000000 [(SSDR_2) ] 0 42800 40500 180.555557 text
grestore
44700 39700 43700 39700 10 line
gsave
false false false false 260.000000 [(SSDR_4) ] 0 42800 39700 180.555557 text
grestore
44700 38900 43700 38900 10 line
gsave
false false false false 260.000000 [(SSDR_6) ] 0 42800 38900 180.555557 text
grestore
44700 39300 43700 39300 10 line
gsave
false false false false 260.000000 [(SSDR_5) ] 0 42800 39300 180.555557 text
grestore
44700 46300 43700 46300 10 line
gsave
false false false false 260.000000 [(SSDL_0) ] 0 42900 46300 180.555557 text
grestore
44700 45900 43700 45900 10 line
gsave
false false false false 260.000000 [(SSDL_1) ] 0 42900 45800 180.555557 text
grestore
44700 45100 43700 45100 10 line
gsave
false false false false 260.000000 [(SSDL_3) ] 0 42900 45000 180.555557 text
grestore
44700 45500 43700 45500 10 line
gsave
false false false false 260.000000 [(SSDL_2) ] 0 42900 45400 180.555557 text
grestore
44700 44700 43700 44700 10 line
gsave
false false false false 260.000000 [(SSDL_4) ] 0 42900 44600 180.555557 text
grestore
44700 43900 43700 43900 10 line
gsave
false false false false 260.000000 [(SSDL_6) ] 0 42900 43800 180.555557 text
grestore
44700 44300 43700 44300 10 line
gsave
false false false false 260.000000 [(SSDL_5) ] 0 42900 44200 180.555557 text
grestore
39700 37100 38600 37100 10 line
gsave
false false false false 260.000000 [(RESET) ] 0 39900 37000 180.555557 text
grestore
gsave
30200 40800 30350 40800 10 line
gsave
false false false false 208.000000 [(1) ] 0 30250 40850 144.444443 text
grestore
31050 40800 31200 40800 10 line
gsave
false false false false 208.000000 [(2) ] 0 31100 40850 144.444443 text
grestore
30350 40800 30525 40800 10 line
31050 40800 30875 40800 10 line
30500 40885 30900 40885 10 line
30539 40800 14 0 360 10 darc
30862 40800 14 0 360 10 darc
30670 41055 30720 41055 10 line
30670 41005 30720 41005 10 line
30670 41005 30695 40955 10 line
30720 41005 30695 40955 10 line
30695 41005 30695 41055 10 line
30695 40955 30695 40886 10 line
grestore
gsave
false false false false 260.000000 [(S9) ] 0 30600 41100 180.555557 text
grestore
gsave
31800 40500 31800 40350 10 line
31800 39600 31800 39750 10 line
31700 39750 31900 39750 10 line
31900 39750 31900 40350 10 line
31900 40350 31700 40350 10 line
31700 40350 31700 39750 10 line
grestore
gsave
false false false false 260.000000 [(R11) ] 90 31600 39800 180.555557 text
grestore
gsave
false false false false 260.000000 [(10K) ] 90 32100 39800 180.555557 text
grestore
gsave
31800 39200 31800 39400 10 line
31700 39200 31900 39200 10 line
31755 39150 31845 39150 10 line
31780 39110 31820 39110 10 line
grestore
29800 40800 30200 40800 10 line
gsave
29800 41300 29800 41500 10 line
29650 41500 29950 41500 10 line
gsave
false false false false 208.000000 [(+3.3V) ] 0 29675 41550 144.444443 text
grestore
grestore
gsave
false false false false 260.000000 [(GND) ] 0 31600 38800 180.555557 text
grestore
gsave
36000 41100 36000 45300 10 line
36750 40950 150 250 360 10 darc
36075 41100 75 180 240 10 darc
36750 45490 150 0 110 10 darc
36075 45300 75 120 180 10 darc
36900 40940 36900 45490 10 line
36600 41100 50 0 360 10 darc
36650 41100 37200 41100 10 line
gsave
false false false false 208.000000 [(8) ] 0 37000 41150 144.444443 text
grestore
36300 41400 50 0 360 10 darc
36350 41400 37200 41400 10 line
gsave
false false false false 208.000000 [(15) ] 0 37000 41450 144.444443 text
grestore
36600 41700 50 0 360 10 darc
36650 41700 37200 41700 10 line
gsave
false false false false 208.000000 [(7) ] 0 37000 41750 144.444443 text
grestore
36300 42000 50 0 360 10 darc
36350 42000 37200 42000 10 line
gsave
false false false false 208.000000 [(14) ] 0 37000 42050 144.444443 text
grestore
36600 42300 50 0 360 10 darc
36650 42300 37200 42300 10 line
gsave
false false false false 208.000000 [(6) ] 0 37000 42350 144.444443 text
grestore
36300 42600 50 0 360 10 darc
36350 42600 37200 42600 10 line
gsave
false false false false 208.000000 [(13) ] 0 37000 42650 144.444443 text
grestore
36600 42900 50 0 360 10 darc
36650 42900 37200 42900 10 line
gsave
false false false false 208.000000 [(5) ] 0 37000 42950 144.444443 text
grestore
36300 43200 50 0 360 10 darc
36350 43200 37200 43200 10 line
gsave
false false false false 208.000000 [(12) ] 0 37000 43250 144.444443 text
grestore
36600 43500 50 0 360 10 darc
36650 43500 37200 43500 10 line
gsave
false false false false 208.000000 [(4) ] 0 37000 43550 144.444443 text
grestore
36300 43800 50 0 360 10 darc
36350 43800 37200 43800 10 line
gsave
false false false false 208.000000 [(11) ] 0 37000 43850 144.444443 text
grestore
36600 44100 50 0 360 10 darc
36650 44100 37200 44100 10 line
gsave
false false false false 208.000000 [(3) ] 0 37000 44150 144.444443 text
grestore
36300 44400 50 0 360 10 darc
36350 44400 37200 44400 10 line
gsave
false false false false 208.000000 [(10) ] 0 37000 44450 144.444443 text
grestore
36600 44700 50 0 360 10 darc
36650 44700 37200 44700 10 line
gsave
false false false false 208.000000 [(2) ] 0 37000 44750 144.444443 text
grestore
36300 45000 50 0 360 10 darc
36350 45000 37200 45000 10 line
gsave
false false false false 208.000000 [(9) ] 0 37000 45050 144.444443 text
grestore
36600 45300 50 0 360 10 darc
36650 45300 37200 45300 10 line
gsave
false false false false 208.000000 [(1) ] 0 37000 45350 144.444443 text
grestore
36039 41034 36703 40808 10 line
36701 45632 36038 45366 10 line
grestore
gsave
false false false false 260.000000 [(VGA) ] 0 36100 45800 180.555557 text
grestore
gsave
38700 45300 38850 45300 10 line
39600 45300 39450 45300 10 line
38850 45200 39450 45200 10 line
39450 45200 39450 45400 10 line
39450 45400 38850 45400 10 line
38850 45400 38850 45200 10 line
grestore
gsave
false true false true 260.000000 [(270) ] 0 39300 45100 180.555557 text
grestore
gsave
false true false true 260.000000 [(R13) ] 0 39200 45600 180.555557 text
grestore
37200 45300 38700 45300 10 line
gsave
37800 44700 37950 44700 10 line
38700 44700 38550 44700 10 line
37950 44600 38550 44600 10 line
38550 44600 38550 44800 10 line
38550 44800 37950 44800 10 line
37950 44800 37950 44600 10 line
grestore
gsave
false true false true 260.000000 [(270) ] 0 38400 44500 180.555557 text
grestore
gsave
false true false true 260.000000 [(R14) ] 0 38300 45000 180.555557 text
grestore
gsave
38700 44100 38850 44100 10 line
39600 44100 39450 44100 10 line
38850 44000 39450 44000 10 line
39450 44000 39450 44200 10 line
39450 44200 38850 44200 10 line
38850 44200 38850 44000 10 line
grestore
gsave
false true false true 260.000000 [(270) ] 0 39300 43900 180.555557 text
grestore
gsave
false true false true 260.000000 [(R15) ] 0 39200 44400 180.555557 text
grestore
38700 44700 40000 44700 10 line
40000 44100 40000 45300 10 line
39600 44100 40000 44100 10 line
37200 44700 37800 44700 10 line
37200 44100 38700 44100 10 line
gsave
37700 40600 37700 40800 10 line
37600 40600 37800 40600 10 line
37655 40550 37745 40550 10 line
37680 40510 37720 40510 10 line
grestore
gsave
false false false false 260.000000 [(GND) ] 0 37500 40300 180.555557 text
grestore
37200 44400 37700 44400 10 line
37700 44400 37700 40800 10 line
37200 43800 37700 43800 10 line
37200 42300 37700 42300 10 line
37200 41700 37700 41700 10 line
37200 41100 37700 41100 10 line
29800 41300 29800 40800 10 line
31800 40500 31800 40800 10 line
31800 39400 31800 39600 10 line
gsave
37600 37100 37750 37100 10 line
gsave
false false false false 208.000000 [(1) ] 0 37650 37150 144.444443 text
grestore
38450 37100 38600 37100 10 line
gsave
false false false false 208.000000 [(2) ] 0 38500 37150 144.444443 text
grestore
37750 37100 37925 37100 10 line
38450 37100 38275 37100 10 line
37900 37185 38300 37185 10 line
37939 37100 14 0 360 10 darc
38262 37100 14 0 360 10 darc
38070 37355 38120 37355 10 line
38070 37305 38120 37305 10 line
38070 37305 38095 37255 10 line
38120 37305 38095 37255 10 line
38095 37305 38095 37355 10 line
38095 37255 38095 37186 10 line
grestore
gsave
false false false false 260.000000 [(S11) ] 0 38000 37400 180.555557 text
grestore
gsave
39200 38400 39200 38250 10 line
39200 37500 39200 37650 10 line
39100 37650 39300 37650 10 line
39300 37650 39300 38250 10 line
39300 38250 39100 38250 10 line
39100 38250 39100 37650 10 line
grestore
gsave
false false false false 260.000000 [(R16) ] 90 39000 37700 180.555557 text
grestore
gsave
false false false false 260.000000 [(10K) ] 90 39500 37700 180.555557 text
grestore
gsave
37200 36600 37200 36800 10 line
37100 36600 37300 36600 10 line
37155 36550 37245 36550 10 line
37180 36510 37220 36510 10 line
grestore
37200 36800 37200 37100 10 line
37200 37100 37600 37100 10 line
39200 37100 39200 37500 10 line
gsave
39200 38700 39200 38900 10 line
39050 38900 39350 38900 10 line
gsave
false false false false 208.000000 [(+3.3V) ] 0 39075 38950 144.444443 text
grestore
grestore
39200 38400 39200 38700 10 line
gsave
false false false false 260.000000 [(GND) ] 0 37000 36300 180.555557 text
grestore
32300 37800 31200 37800 10 line
gsave
false false false false 260.000000 [(BUTTON_1) ] 0 32400 37800 180.555557 text
grestore
gsave
30200 37800 30350 37800 10 line
gsave
false false false false 208.000000 [(1) ] 0 30250 37850 144.444443 text
grestore
31050 37800 31200 37800 10 line
gsave
false false false false 208.000000 [(2) ] 0 31100 37850 144.444443 text
grestore
30350 37800 30525 37800 10 line
31050 37800 30875 37800 10 line
30500 37885 30900 37885 10 line
30539 37800 14 0 360 10 darc
30862 37800 14 0 360 10 darc
30670 38055 30720 38055 10 line
30670 38005 30720 38005 10 line
30670 38005 30695 37955 10 line
30720 38005 30695 37955 10 line
30695 38005 30695 38055 10 line
30695 37955 30695 37886 10 line
grestore
gsave
false false false false 260.000000 [(S10) ] 0 30600 38100 180.555557 text
grestore
gsave
31800 37500 31800 37350 10 line
31800 36600 31800 36750 10 line
31700 36750 31900 36750 10 line
31900 36750 31900 37350 10 line
31900 37350 31700 37350 10 line
31700 37350 31700 36750 10 line
grestore
gsave
false false false false 260.000000 [(R12) ] 90 31600 36800 180.555557 text
grestore
gsave
false false false false 260.000000 [(10K) ] 90 32100 36800 180.555557 text
grestore
gsave
31800 36200 31800 36400 10 line
31700 36200 31900 36200 10 line
31755 36150 31845 36150 10 line
31780 36110 31820 36110 10 line
grestore
29800 37800 30200 37800 10 line
gsave
29800 38300 29800 38500 10 line
29650 38500 29950 38500 10 line
gsave
false false false false 208.000000 [(+3.3V) ] 0 29675 38550 144.444443 text
grestore
grestore
29800 38300 29800 37800 10 line
31800 37500 31800 37800 10 line
31800 36400 31800 36600 10 line
gsave
false false false false 260.000000 [(GND) ] 0 31600 35800 180.555557 text
grestore
gsave
46900 42400 46900 42600 10 line
46800 42400 47000 42400 10 line
46855 42350 46945 42350 10 line
46880 42310 46920 42310 10 line
newpath
46900 42600
25
0 360 arc
fill
newpath
46900 42600
25
0 360 arc
fill
grestore
gsave
false false false false 260.000000 [(GND) ] 0 46700 42100 180.555557 text
grestore
46900 43000 46900 42600 10 line
47300 43000 47300 42600 10 line
46000 42600 47300 42600 10 line
gsave
46900 37400 46900 37600 10 line
46800 37400 47000 37400 10 line
46855 37350 46945 37350 10 line
46880 37310 46920 37310 10 line
newpath
46900 37600
25
0 360 arc
fill
newpath
46900 37600
25
0 360 arc
fill
grestore
gsave
false false false false 260.000000 [(GND) ] 0 46700 37100 180.555557 text
grestore
46900 38000 46900 37600 10 line
47300 38000 47300 37600 10 line
46000 37600 47300 37600 10 line
gsave
false false false false 260.000000 [(4) ] 0 45700 35100 180.555557 text
grestore
gsave
45600 46300 45450 46300 10 line
44700 46300 44850 46300 10 line
44850 46200 45450 46200 10 line
45450 46200 45450 46400 10 line
45450 46400 44850 46400 10 line
44850 46400 44850 46200 10 line
grestore
gsave
false false false false 260.000000 [(R19) ] 0 44700 46400 180.555557 text
grestore
gsave
false false false false 260.000000 [(120) ] 0 45000 46200 180.555557 text
grestore
gsave
45600 45900 45450 45900 10 line
44700 45900 44850 45900 10 line
44850 45800 45450 45800 10 line
45450 45800 45450 46000 10 line
45450 46000 44850 46000 10 line
44850 46000 44850 45800 10 line
grestore
gsave
false false false false 260.000000 [(R20) ] 0 44700 46000 180.555557 text
grestore
gsave
false false false false 260.000000 [(120) ] 0 45000 45800 180.555557 text
grestore
gsave
45600 45500 45450 45500 10 line
44700 45500 44850 45500 10 line
44850 45400 45450 45400 10 line
45450 45400 45450 45600 10 line
45450 45600 44850 45600 10 line
44850 45600 44850 45400 10 line
grestore
gsave
false false false false 260.000000 [(R21) ] 0 44700 45600 180.555557 text
grestore
gsave
false false false false 260.000000 [(120) ] 0 45000 45400 180.555557 text
grestore
gsave
45600 45100 45450 45100 10 line
44700 45100 44850 45100 10 line
44850 45000 45450 45000 10 line
45450 45000 45450 45200 10 line
45450 45200 44850 45200 10 line
44850 45200 44850 45000 10 line
grestore
gsave
false false false false 260.000000 [(R22) ] 0 44700 45200 180.555557 text
grestore
gsave
false false false false 260.000000 [(120) ] 0 45000 45000 180.555557 text
grestore
gsave
45600 44700 45450 44700 10 line
44700 44700 44850 44700 10 line
44850 44600 45450 44600 10 line
45450 44600 45450 44800 10 line
45450 44800 44850 44800 10 line
44850 44800 44850 44600 10 line
grestore
gsave
false false false false 260.000000 [(R23) ] 0 44700 44800 180.555557 text
grestore
gsave
false false false false 260.000000 [(120) ] 0 45000 44600 180.555557 text
grestore
gsave
45600 44300 45450 44300 10 line
44700 44300 44850 44300 10 line
44850 44200 45450 44200 10 line
45450 44200 45450 44400 10 line
45450 44400 44850 44400 10 line
44850 44400 44850 44200 10 line
grestore
gsave
false false false false 260.000000 [(R24) ] 0 44700 44400 180.555557 text
grestore
gsave
false false false false 260.000000 [(120) ] 0 45000 44200 180.555557 text
grestore
gsave
45600 43900 45450 43900 10 line
44700 43900 44850 43900 10 line
44850 43800 45450 43800 10 line
45450 43800 45450 44000 10 line
45450 44000 44850 44000 10 line
44850 44000 44850 43800 10 line
grestore
gsave
false false false false 260.000000 [(R25) ] 0 44700 44000 180.555557 text
grestore
gsave
false false false false 260.000000 [(120) ] 0 45000 43800 180.555557 text
grestore
gsave
45600 41300 45450 41300 10 line
44700 41300 44850 41300 10 line
44850 41200 45450 41200 10 line
45450 41200 45450 41400 10 line
45450 41400 44850 41400 10 line
44850 41400 44850 41200 10 line
grestore
gsave
false false false false 260.000000 [(R26) ] 0 44700 41400 180.555557 text
grestore
gsave
false false false false 260.000000 [(120) ] 0 45000 41200 180.555557 text
grestore
gsave
45600 40900 45450 40900 10 line
44700 40900 44850 40900 10 line
44850 40800 45450 40800 10 line
45450 40800 45450 41000 10 line
45450 41000 44850 41000 10 line
44850 41000 44850 40800 10 line
grestore
gsave
false false false false 260.000000 [(R27) ] 0 44700 41000 180.555557 text
grestore
gsave
false false false false 260.000000 [(120) ] 0 45000 40800 180.555557 text
grestore
gsave
45600 40500 45450 40500 10 line
44700 40500 44850 40500 10 line
44850 40400 45450 40400 10 line
45450 40400 45450 40600 10 line
45450 40600 44850 40600 10 line
44850 40600 44850 40400 10 line
grestore
gsave
false false false false 260.000000 [(R28) ] 0 44700 40600 180.555557 text
grestore
gsave
false false false false 260.000000 [(120) ] 0 45000 40400 180.555557 text
grestore
gsave
45600 40100 45450 40100 10 line
44700 40100 44850 40100 10 line
44850 40000 45450 40000 10 line
45450 40000 45450 40200 10 line
45450 40200 44850 40200 10 line
44850 40200 44850 40000 10 line
grestore
gsave
false false false false 260.000000 [(R29) ] 0 44700 40200 180.555557 text
grestore
gsave
false false false false 260.000000 [(120) ] 0 45000 40000 180.555557 text
grestore
gsave
45600 39700 45450 39700 10 line
44700 39700 44850 39700 10 line
44850 39600 45450 39600 10 line
45450 39600 45450 39800 10 line
45450 39800 44850 39800 10 line
44850 39800 44850 39600 10 line
grestore
gsave
false false false false 260.000000 [(R30) ] 0 44700 39800 180.555557 text
grestore
gsave
false false false false 260.000000 [(120) ] 0 45000 39600 180.555557 text
grestore
gsave
45600 39300 45450 39300 10 line
44700 39300 44850 39300 10 line
44850 39200 45450 39200 10 line
45450 39200 45450 39400 10 line
45450 39400 44850 39400 10 line
44850 39400 44850 39200 10 line
grestore
gsave
false false false false 260.000000 [(R31) ] 0 44700 39400 180.555557 text
grestore
gsave
false false false false 260.000000 [(120) ] 0 45000 39200 180.555557 text
grestore
gsave
45600 38900 45450 38900 10 line
44700 38900 44850 38900 10 line
44850 38800 45450 38800 10 line
45450 38800 45450 39000 10 line
45450 39000 44850 39000 10 line
44850 39000 44850 38800 10 line
grestore
gsave
false false false false 260.000000 [(R32) ] 0 44700 39000 180.555557 text
grestore
gsave
false false false false 260.000000 [(120) ] 0 45000 38800 180.555557 text
grestore
45600 41300 46000 41300 10 line
45600 40900 46000 40900 10 line
45600 40500 46000 40500 10 line
45600 40100 46000 40100 10 line
45600 39700 46000 39700 10 line
45600 39300 46000 39300 10 line
45600 38900 46000 38900 10 line
46000 43500 46000 42600 10 line
46000 38500 46000 37600 10 line
45600 46300 46000 46300 10 line
45600 45900 46000 45900 10 line
45600 45500 46000 45500 10 line
45600 45100 46000 45100 10 line
45600 44700 46000 44700 10 line
45600 44300 46000 44300 10 line
45600 43900 46000 43900 10 line
gsave
46900 43000 46900 43300 10 line
gsave
false false false true 208.000000 [(1) ] 0 46950 43200 144.444443 text
grestore
gsave
true false false false 208.000000 [(CC) ] 0 46900 43350 144.444443 text
grestore
47300 43000 47300 43300 10 line
gsave
false false false true 208.000000 [(6) ] 0 47350 43200 144.444443 text
grestore
gsave
true false false false 208.000000 [(CC) ] 0 47300 43350 144.444443 text
grestore
46000 46300 46300 46300 10 line
gsave
false true false false 208.000000 [(10) ] 0 46200 46350 144.444443 text
grestore
gsave
false false false false 208.000000 [(a) ] 0 46350 46300 144.444443 text
grestore
46000 45900 46300 45900 10 line
gsave
false true false false 208.000000 [(9) ] 0 46200 45950 144.444443 text
grestore
gsave
false false false false 208.000000 [(b) ] 0 46350 45900 144.444443 text
grestore
46000 45500 46300 45500 10 line
gsave
false true false false 208.000000 [(8) ] 0 46200 45550 144.444443 text
grestore
gsave
false false false false 208.000000 [(c) ] 0 46350 45500 144.444443 text
grestore
46000 45100 46300 45100 10 line
gsave
false true false false 208.000000 [(5) ] 0 46200 45150 144.444443 text
grestore
gsave
false false false false 208.000000 [(d) ] 0 46350 45100 144.444443 text
grestore
46000 43500 46300 43500 10 line
gsave
false true false false 208.000000 [(7) ] 0 46200 43550 144.444443 text
grestore
gsave
false false false false 208.000000 [(dp) ] 0 46350 43500 144.444443 text
grestore
46000 44700 46300 44700 10 line
gsave
false true false false 208.000000 [(4) ] 0 46200 44750 144.444443 text
grestore
gsave
false false false false 208.000000 [(e) ] 0 46350 44700 144.444443 text
grestore
46000 44300 46300 44300 10 line
gsave
false true false false 208.000000 [(2) ] 0 46200 44350 144.444443 text
grestore
gsave
false false false false 208.000000 [(f) ] 0 46350 44300 144.444443 text
grestore
46000 43900 46300 43900 10 line
gsave
false true false false 208.000000 [(3) ] 0 46200 43950 144.444443 text
grestore
gsave
false false false false 208.000000 [(g) ] 0 46350 43900 144.444443 text
grestore
46300 43300 47900 43300 10 line
47900 43300 47900 46500 10 line
47900 46500 46300 46500 10 line
46300 46500 46300 43300 10 line
46800 44950 46850 45000 10 line
46850 45000 47475 45000 10 line
47475 45000 47525 44950 10 line
46800 44950 46850 44900 10 line
46850 44900 47475 44900 10 line
47475 44900 47525 44950 10 line
46800 45800 46850 45850 10 line
46850 45850 47475 45850 10 line
47475 45850 47525 45800 10 line
46800 45800 46850 45750 10 line
46850 45750 47475 45750 10 line
47475 45750 47525 45800 10 line
46800 44100 46850 44150 10 line
46850 44150 47475 44150 10 line
47475 44150 47525 44100 10 line
46800 44100 46850 44050 10 line
46850 44050 47475 44050 10 line
47475 44050 47525 44100 10 line
47675 43975 75 0 360 10 darc
46750 44900 46800 44850 10 line
46750 44900 46700 44850 10 line
46750 44150 46800 44200 10 line
46750 44150 46700 44200 10 line
46700 44200 46700 44850 10 line
46800 44850 46800 44200 10 line
47575 44900 47625 44850 10 line
47575 44900 47525 44850 10 line
47575 44150 47625 44200 10 line
47575 44150 47525 44200 10 line
47525 44200 47525 44850 10 line
47625 44850 47625 44200 10 line
47575 45750 47625 45700 10 line
47575 45750 47525 45700 10 line
47575 45000 47625 45050 10 line
47575 45000 47525 45050 10 line
47525 45050 47525 45700 10 line
47625 45700 47625 45050 10 line
46750 45750 46800 45700 10 line
46750 45750 46700 45700 10 line
46750 45000 46800 45050 10 line
46750 45000 46700 45050 10 line
46700 45050 46700 45700 10 line
46800 45700 46800 45050 10 line
gsave
false false false false 260.000000 [(a) ] 0 47125 45650 180.555557 text
grestore
gsave
false false false false 260.000000 [(b) ] 0 47425 45350 180.555557 text
grestore
gsave
false false false false 260.000000 [(c) ] 0 47425 44450 180.555557 text
grestore
gsave
false false false false 260.000000 [(d) ] 0 47125 44200 180.555557 text
grestore
gsave
false false false false 260.000000 [(e) ] 0 46850 44450 180.555557 text
grestore
gsave
false false false false 260.000000 [(f) ] 0 46850 45350 180.555557 text
grestore
gsave
false false false false 260.000000 [(g) ] 0 47125 45050 180.555557 text
grestore
gsave
false false false false 260.000000 [(dp) ] 0 47575 43725 180.555557 text
grestore
grestore
gsave
false true false false 260.000000 [(D1) ] 0 47900 46600 180.555557 text
grestore
gsave
46900 38000 46900 38300 10 line
gsave
false false false true 208.000000 [(1) ] 0 46950 38200 144.444443 text
grestore
gsave
true false false false 208.000000 [(CC) ] 0 46900 38350 144.444443 text
grestore
47300 38000 47300 38300 10 line
gsave
false false false true 208.000000 [(6) ] 0 47350 38200 144.444443 text
grestore
gsave
true false false false 208.000000 [(CC) ] 0 47300 38350 144.444443 text
grestore
46000 41300 46300 41300 10 line
gsave
false true false false 208.000000 [(10) ] 0 46200 41350 144.444443 text
grestore
gsave
false false false false 208.000000 [(a) ] 0 46350 41300 144.444443 text
grestore
46000 40900 46300 40900 10 line
gsave
false true false false 208.000000 [(9) ] 0 46200 40950 144.444443 text
grestore
gsave
false false false false 208.000000 [(b) ] 0 46350 40900 144.444443 text
grestore
46000 40500 46300 40500 10 line
gsave
false true false false 208.000000 [(8) ] 0 46200 40550 144.444443 text
grestore
gsave
false false false false 208.000000 [(c) ] 0 46350 40500 144.444443 text
grestore
46000 40100 46300 40100 10 line
gsave
false true false false 208.000000 [(5) ] 0 46200 40150 144.444443 text
grestore
gsave
false false false false 208.000000 [(d) ] 0 46350 40100 144.444443 text
grestore
46000 38500 46300 38500 10 line
gsave
false true false false 208.000000 [(7) ] 0 46200 38550 144.444443 text
grestore
gsave
false false false false 208.000000 [(dp) ] 0 46350 38500 144.444443 text
grestore
46000 39700 46300 39700 10 line
gsave
false true false false 208.000000 [(4) ] 0 46200 39750 144.444443 text
grestore
gsave
false false false false 208.000000 [(e) ] 0 46350 39700 144.444443 text
grestore
46000 39300 46300 39300 10 line
gsave
false true false false 208.000000 [(2) ] 0 46200 39350 144.444443 text
grestore
gsave
false false false false 208.000000 [(f) ] 0 46350 39300 144.444443 text
grestore
46000 38900 46300 38900 10 line
gsave
false true false false 208.000000 [(3) ] 0 46200 38950 144.444443 text
grestore
gsave
false false false false 208.000000 [(g) ] 0 46350 38900 144.444443 text
grestore
46300 38300 47900 38300 10 line
47900 38300 47900 41500 10 line
47900 41500 46300 41500 10 line
46300 41500 46300 38300 10 line
46800 39950 46850 40000 10 line
46850 40000 47475 40000 10 line
47475 40000 47525 39950 10 line
46800 39950 46850 39900 10 line
46850 39900 47475 39900 10 line
47475 39900 47525 39950 10 line
46800 40800 46850 40850 10 line
46850 40850 47475 40850 10 line
47475 40850 47525 40800 10 line
46800 40800 46850 40750 10 line
46850 40750 47475 40750 10 line
47475 40750 47525 40800 10 line
46800 39100 46850 39150 10 line
46850 39150 47475 39150 10 line
47475 39150 47525 39100 10 line
46800 39100 46850 39050 10 line
46850 39050 47475 39050 10 line
47475 39050 47525 39100 10 line
47675 38975 75 0 360 10 darc
46750 39900 46800 39850 10 line
46750 39900 46700 39850 10 line
46750 39150 46800 39200 10 line
46750 39150 46700 39200 10 line
46700 39200 46700 39850 10 line
46800 39850 46800 39200 10 line
47575 39900 47625 39850 10 line
47575 39900 47525 39850 10 line
47575 39150 47625 39200 10 line
47575 39150 47525 39200 10 line
47525 39200 47525 39850 10 line
47625 39850 47625 39200 10 line
47575 40750 47625 40700 10 line
47575 40750 47525 40700 10 line
47575 40000 47625 40050 10 line
47575 40000 47525 40050 10 line
47525 40050 47525 40700 10 line
47625 40700 47625 40050 10 line
46750 40750 46800 40700 10 line
46750 40750 46700 40700 10 line
46750 40000 46800 40050 10 line
46750 40000 46700 40050 10 line
46700 40050 46700 40700 10 line
46800 40700 46800 40050 10 line
gsave
false false false false 260.000000 [(a) ] 0 47125 40650 180.555557 text
grestore
gsave
false false false false 260.000000 [(b) ] 0 47425 40350 180.555557 text
grestore
gsave
false false false false 260.000000 [(c) ] 0 47425 39450 180.555557 text
grestore
gsave
false false false false 260.000000 [(d) ] 0 47125 39200 180.555557 text
grestore
gsave
false false false false 260.000000 [(e) ] 0 46850 39450 180.555557 text
grestore
gsave
false false false false 260.000000 [(f) ] 0 46850 40350 180.555557 text
grestore
gsave
false false false false 260.000000 [(g) ] 0 47125 40050 180.555557 text
grestore
gsave
false false false false 260.000000 [(dp) ] 0 47575 38725 180.555557 text
grestore
grestore
gsave
false true false false 260.000000 [(D2) ] 0 47900 41600 180.555557 text
grestore
gsave
31100 50300 31400 50300 10 line
gsave
false true false true 260.000000 [(2) ] 0 31250 50250 180.555557 text
grestore
30800 50100 30500 50100 10 line
gsave
false true false true 260.000000 [(1) ] 0 30650 50050 180.555557 text
grestore
30800 50500 30500 50500 10 line
gsave
false true false true 260.000000 [(3) ] 0 30650 50450 180.555557 text
grestore
31100 50300 30800 50300 10 line
grestore
gsave
false true false true 260.000000 [(S1) ] 0 31000 49900 180.555557 text
grestore
gsave
31100 49300 31400 49300 10 line
gsave
false true false true 260.000000 [(2) ] 0 31250 49250 180.555557 text
grestore
30800 49100 30500 49100 10 line
gsave
false true false true 260.000000 [(1) ] 0 30650 49050 180.555557 text
grestore
30800 49500 30500 49500 10 line
gsave
false true false true 260.000000 [(3) ] 0 30650 49450 180.555557 text
grestore
31100 49300 30800 49300 10 line
grestore
gsave
false true false true 260.000000 [(S2) ] 0 31000 48900 180.555557 text
grestore
gsave
31100 48300 31400 48300 10 line
gsave
false true false true 260.000000 [(2) ] 0 31250 48250 180.555557 text
grestore
30800 48100 30500 48100 10 line
gsave
false true false true 260.000000 [(1) ] 0 30650 48050 180.555557 text
grestore
30800 48500 30500 48500 10 line
gsave
false true false true 260.000000 [(3) ] 0 30650 48450 180.555557 text
grestore
31100 48300 30800 48300 10 line
grestore
gsave
false true false true 260.000000 [(S3) ] 0 31000 47900 180.555557 text
grestore
gsave
31100 47300 31400 47300 10 line
gsave
false true false true 260.000000 [(2) ] 0 31250 47250 180.555557 text
grestore
30800 47100 30500 47100 10 line
gsave
false true false true 260.000000 [(1) ] 0 30650 47050 180.555557 text
grestore
30800 47500 30500 47500 10 line
gsave
false true false true 260.000000 [(3) ] 0 30650 47450 180.555557 text
grestore
31100 47300 30800 47300 10 line
grestore
gsave
false true false true 260.000000 [(S4) ] 0 31000 46900 180.555557 text
grestore
gsave
31100 46300 31400 46300 10 line
gsave
false true false true 260.000000 [(2) ] 0 31250 46250 180.555557 text
grestore
30800 46100 30500 46100 10 line
gsave
false true false true 260.000000 [(1) ] 0 30650 46050 180.555557 text
grestore
30800 46500 30500 46500 10 line
gsave
false true false true 260.000000 [(3) ] 0 30650 46450 180.555557 text
grestore
31100 46300 30800 46300 10 line
grestore
gsave
false true false true 260.000000 [(S5) ] 0 31000 45900 180.555557 text
grestore
gsave
31100 45300 31400 45300 10 line
gsave
false true false true 260.000000 [(2) ] 0 31250 45250 180.555557 text
grestore
30800 45100 30500 45100 10 line
gsave
false true false true 260.000000 [(1) ] 0 30650 45050 180.555557 text
grestore
30800 45500 30500 45500 10 line
gsave
false true false true 260.000000 [(3) ] 0 30650 45450 180.555557 text
grestore
31100 45300 30800 45300 10 line
grestore
gsave
false true false true 260.000000 [(S6) ] 0 31000 44900 180.555557 text
grestore
gsave
31100 44300 31400 44300 10 line
gsave
false true false true 260.000000 [(2) ] 0 31250 44250 180.555557 text
grestore
30800 44100 30500 44100 10 line
gsave
false true false true 260.000000 [(1) ] 0 30650 44050 180.555557 text
grestore
30800 44500 30500 44500 10 line
gsave
false true false true 260.000000 [(3) ] 0 30650 44450 180.555557 text
grestore
31100 44300 30800 44300 10 line
grestore
gsave
false true false true 260.000000 [(S7) ] 0 31000 43900 180.555557 text
grestore
gsave
31100 43300 31400 43300 10 line
gsave
false true false true 260.000000 [(2) ] 0 31250 43250 180.555557 text
grestore
30800 43100 30500 43100 10 line
gsave
false true false true 260.000000 [(1) ] 0 30650 43050 180.555557 text
grestore
30800 43500 30500 43500 10 line
gsave
false true false true 260.000000 [(3) ] 0 30650 43450 180.555557 text
grestore
31100 43300 30800 43300 10 line
grestore
gsave
false true false true 260.000000 [(S8) ] 0 31000 42900 180.555557 text
grestore
60 60 33970 50270 fbox
60 60 33970 48270 fbox
60 60 33970 46270 fbox
60 60 33970 44270 fbox
60 60 33970 49270 fbox
60 60 33970 47270 fbox
60 60 33970 45270 fbox
60 60 33970 43270 fbox
60 60 40470 48370 fbox
60 60 40470 49870 fbox
newpath
28500 50500
25
0 360 arc
fill
newpath
28500 50500
25
0 360 arc
fill
newpath
29500 43100
25
0 360 arc
fill
newpath
29500 44100
25
0 360 arc
fill
newpath
29500 45100
25
0 360 arc
fill
newpath
29500 46100
25
0 360 arc
fill
newpath
29500 47100
25
0 360 arc
fill
newpath
29500 48100
25
0 360 arc
fill
newpath
29500 49100
25
0 360 arc
fill
newpath
28500 50500
25
0 360 arc
fill
newpath
28500 49500
25
0 360 arc
fill
newpath
28500 48500
25
0 360 arc
fill
newpath
28500 47500
25
0 360 arc
fill
newpath
28500 46500
25
0 360 arc
fill
newpath
28500 45500
25
0 360 arc
fill
newpath
28500 44500
25
0 360 arc
fill
newpath
28500 49500
25
0 360 arc
fill
newpath
28500 49500
25
0 360 arc
fill
newpath
28500 48500
25
0 360 arc
fill
newpath
28500 48500
25
0 360 arc
fill
newpath
28500 47500
25
0 360 arc
fill
newpath
28500 47500
25
0 360 arc
fill
newpath
28500 46500
25
0 360 arc
fill
newpath
28500 46500
25
0 360 arc
fill
newpath
28500 45500
25
0 360 arc
fill
newpath
28500 45500
25
0 360 arc
fill
newpath
28500 44500
25
0 360 arc
fill
newpath
28500 44500
25
0 360 arc
fill
newpath
29500 43100
25
0 360 arc
fill
newpath
29500 43100
25
0 360 arc
fill
newpath
29500 44100
25
0 360 arc
fill
newpath
29500 44100
25
0 360 arc
fill
newpath
29500 45100
25
0 360 arc
fill
newpath
29500 45100
25
0 360 arc
fill
newpath
29500 46100
25
0 360 arc
fill
newpath
29500 46100
25
0 360 arc
fill
newpath
29500 47100
25
0 360 arc
fill
newpath
29500 47100
25
0 360 arc
fill
newpath
29500 48100
25
0 360 arc
fill
newpath
29500 48100
25
0 360 arc
fill
newpath
29500 49100
25
0 360 arc
fill
newpath
29500 49100
25
0 360 arc
fill
newpath
38300 49900
25
0 360 arc
fill
newpath
38300 49900
25
0 360 arc
fill
newpath
38300 49900
25
0 360 arc
fill
newpath
38300 48400
25
0 360 arc
fill
newpath
38300 48400
25
0 360 arc
fill
newpath
38300 48400
25
0 360 arc
fill
60 60 40470 41970 fbox
60 60 40470 45270 fbox
newpath
40000 45300
25
0 360 arc
fill
60 60 40470 42570 fbox
60 60 32270 40770 fbox
newpath
31800 40800
25
0 360 arc
fill
60 60 43670 41270 fbox
60 60 43670 40870 fbox
60 60 43670 40070 fbox
60 60 43670 40470 fbox
60 60 43670 39670 fbox
60 60 43670 38870 fbox
60 60 43670 39270 fbox
60 60 43670 46270 fbox
60 60 43670 45870 fbox
60 60 43670 45070 fbox
60 60 43670 45470 fbox
60 60 43670 44670 fbox
60 60 43670 43870 fbox
60 60 43670 44270 fbox
60 60 39670 37070 fbox
newpath
39200 37100
25
0 360 arc
fill
newpath
40000 44700
25
0 360 arc
fill
newpath
40000 44700
25
0 360 arc
fill
newpath
40000 45300
25
0 360 arc
fill
newpath
40000 45300
25
0 360 arc
fill
newpath
40000 44700
25
0 360 arc
fill
newpath
37700 43800
25
0 360 arc
fill
newpath
37700 42300
25
0 360 arc
fill
newpath
37700 41700
25
0 360 arc
fill
newpath
37700 41100
25
0 360 arc
fill
newpath
37700 43800
25
0 360 arc
fill
newpath
37700 43800
25
0 360 arc
fill
newpath
37700 42300
25
0 360 arc
fill
newpath
37700 42300
25
0 360 arc
fill
newpath
37700 41700
25
0 360 arc
fill
newpath
37700 41700
25
0 360 arc
fill
newpath
37700 41100
25
0 360 arc
fill
newpath
37700 41100
25
0 360 arc
fill
newpath
31800 40800
25
0 360 arc
fill
newpath
31800 40800
25
0 360 arc
fill
newpath
39200 37100
25
0 360 arc
fill
newpath
39200 37100
25
0 360 arc
fill
60 60 32270 37770 fbox
newpath
31800 37800
25
0 360 arc
fill
newpath
31800 37800
25
0 360 arc
fill
newpath
31800 37800
25
0 360 arc
fill
newpath
46900 42600
25
0 360 arc
fill
newpath
46900 42600
25
0 360 arc
fill
newpath
46900 42600
25
0 360 arc
fill
newpath
46900 42600
25
0 360 arc
fill
newpath
46900 42600
25
0 360 arc
fill
newpath
46900 42600
25
0 360 arc
fill
newpath
46900 37600
25
0 360 arc
fill
newpath
46900 37600
25
0 360 arc
fill
newpath
46900 37600
25
0 360 arc
fill
newpath
46900 37600
25
0 360 arc
fill
newpath
46900 37600
25
0 360 arc
fill
newpath
46900 37600
25
0 360 arc
fill
showpage
%%End
