%!PS-Adobe-3.0 EPSF-3.0
%%Creator: gEDA gschem 1.6.1-20100214-22-ga30f00b
%%CreationDate: Wed Oct 22 16:35:01 2014
%%Title: /home/freaktm/mojo/mojo-schematics/shield_3.sch
%%Author: freaktm
%%BoundingBox: 0 0 2383 1677
%%Orientation: Portrait
%%Pages: 1
%%Endcomments
%%BeginProlog
% Prolog for gEDA, define all the functions needed for rendering
% schematics on Postscript devices


% Draw a line from the second coordinate to the first
% x2 y2 x1 y1 width line -
/line {
    setlinewidth
    % pop off first element and moveto
    moveto
    % pop off remaining elements and draw a line segment
    lineto
    % draw it
    stroke
} bind def


% Draw a dot
% x y r dot -
/dot {
    0 360 arc fill
} bind def

% Draw a dot-dashed line, a bunch of lined segments,
% if the array element only has length two, draw a dot.
% [ [x2 y2 x1 y1] [x4 y4 x3 y3] [x5 y5] ... ] width dashed -
/width 0 def
/dashed {
    dup 2.0 div /width exch def
    setlinewidth
    % pop off each line segment and draw it as a dot or as a line
    {
	aload length 2 gt
	{ moveto lineto stroke}
	{ width dot } ifelse
    } forall
} bind def

% Draw an arc segment
% x y r ang1 ang2 width darc -
/darc {
    setlinewidth
    arc stroke
} bind def

% Draw a series of arc segment bits, if the array element only has a single
% element in it, draw a dot.
% [ [sa1 ea1] [sa2 ea2] ... ] x y r width dashedarc -
/x 0 def
/y 0 def
/dashedarc {
    dup /width exch def
    setlinewidth
    /r exch def  
    /y exch def
    /x exch def
    { aload length 1 gt
	{
	    % this element had two angles in it
	    % extract start and stop angles
	    x y r   % drop x y and r onto stack
		    % at this point we have: sa ea x y r
		    % we need                      x y r sa ea
		    % so..
	    5 -2 roll
	    % and add it to the current path, and draw it
	    arc stroke
	} {
	    % this element only had one angle in it, place a
	    % filled dot at the appropriate place
	    % compute center point of the arc using the angle
	    % that is on the top of the stack
	    dup   		% angle angle
	    cos r mul x add 	% angle x
	    exch		% x angle
	    sin r mul y add	% x y
	    width		% x y width/2
	    dot			% draw the dot
	} ifelse
    } forall

    % Now draw it
    stroke
} bind def

% Draw a box
% width height x y linethickness box -
/box {
    setlinewidth
    moveto
    exch dup 0 rlineto	 % w h, h w w 0      -- Draw bottom line
    exch 0 exch rlineto	 % h w, w h 0, w 0 h -- Draw right line 
    neg 0 rlineto	 % w, -w 0           -- Draw Top line
    closepath		 % finish and draw it
    stroke
} bind def			     

% Draw a filled box
% width height x y fbox -
/fbox {
    moveto
    exch dup 0 rlineto	
    exch 0 exch rlineto	
    neg 0 rlineto		
    closepath			
    fill			
} bind def

% Font reincoding utilities

% ISOLatin1Encoding, extended with remaining uncoded glyphs
/ISOLatin1Extended [
    /.notdef /Lslash /lslash /OE /oe /Scaron /scaron /Zcaron /zcaron
    /Ydieresis /trademark /bullet /dagger /daggerdbl /ellipsis /emdash
    /endash /fi /fl /florin /fraction /guilsinglleft /guilsinglright
    /perthousand /quotedblbase /quotedblleft /quotedblright
    /quotesinglbase /quotesingle /.notdef /.notdef /.notdef /space
    /exclam /quotedbl /numbersign /dollar /percent /ampersand
    /quoteright /parenleft /parenright /asterisk /plus /comma /minus
    /period /slash /zero /one /two /three /four /five /six /seven /eight
    /nine /colon /semicolon /less /equal /greater /question /at /A /B /C
    /D /E /F /G /H /I /J /K /L /M /N /O /P /Q /R /S /T /U /V /W /X /Y /Z
    /bracketleft /backslash /bracketright /asciicircum /underscore
    /quoteleft /a /b /c /d /e /f /g /h /i /j /k /l /m /n /o /p /q /r /s
    /t /u /v /w /x /y /z /braceleft /bar /braceright /asciitilde
    /.notdef /.notdef /.notdef /.notdef /.notdef /.notdef /.notdef
    /.notdef /.notdef /.notdef /.notdef /.notdef /.notdef /.notdef
    /.notdef /.notdef /.notdef /dotlessi /grave /acute /circumflex
    /tilde /macron /breve /dotaccent /dieresis /.notdef /ring /cedilla
    /.notdef /hungarumlaut /ogonek /caron /space /exclamdown /cent
    /sterling /currency /yen /brokenbar /section /dieresis /copyright
    /ordfeminine /guillemotleft /logicalnot /hyphen /registered /macron
    /degree /plusminus /twosuperior /threesuperior /acute /mu /paragraph
    /periodcentered /cedilla /onesuperior /ordmasculine /guillemotright
    /onequarter /onehalf /threequarters /questiondown /Agrave /Aacute
    /Acircumflex /Atilde /Adieresis /Aring /AE /Ccedilla /Egrave /Eacute
    /Ecircumflex /Edieresis /Igrave /Iacute /Icircumflex /Idieresis /Eth
    /Ntilde /Ograve /Oacute /Ocircumflex /Otilde /Odieresis /multiply
    /Oslash /Ugrave /Uacute /Ucircumflex /Udieresis /Yacute /Thorn
    /germandbls /agrave /aacute /acircumflex /atilde /adieresis /aring
    /ae /ccedilla /egrave /eacute /ecircumflex /edieresis /igrave
    /iacute /icircumflex /idieresis /eth /ntilde /ograve /oacute
    /ocircumflex /otilde /odieresis /divide /oslash /ugrave /uacute
    /ucircumflex /udieresis /yacute /thorn /ydieresis
] def

% `new-font-name' `encoding-vector' `old-font-name' RE -
/RE {
    findfont
    dup maxlength dict begin {
        1 index /FID ne { def } { pop pop } ifelse
    } forall
    /Encoding exch def
    dup /FontName exch def
    currentdict end definefont pop
} bind def

% Text handling functions, select the font and scale it, then we need
% only to apply the appropriate transformations to get the text
% justified into the right spots.  The bad thing here is that we don't
% do any kerning, so the output may look a bit strange.

% compute the height of one character and return lly and ury
% (char) charheight lly ury
/charheight {
    gsave			% push graphics state
	newpath			% clear current path
	0 0 moveto		% Set current point
	false charpath		% get path
	flattenpath		% flatten path
	pathbbox		% stack = llx lly urx ury
	exch pop		% stack = llx lly ury
	3 -1 roll pop		% stack = lly ury
    grestore			% pop graphics state
} bind def

% compute the height of a string, one character at a time
% (string) stringheight lly ury
/lly 0.0 def
/ury 0.0 def

/stringheight {
    /lly 0.0 def			% initial value of heightmin
    /ury 0.0 def			% initial value of heightmax
    {				% work through string
	( ) dup 0 4 -1 roll put	% create one character string
	charheight		% measure it's height
	dup ury gt {		% if ury gt heightmax
	    /ury exch def	% update with new value
	} {
	    pop			% else discard ury
	} ifelse
	dup lly lt {		% if lly lt heightmin
	    /lly exch def	% update with new value
	} {
	    pop			% else discard lly
	} ifelse
    } forall
    lly ury			% Return the results
} bind def

% calculate the string width taking into account the escapes.
/mystrx 0.0 def
/mystry 0.0 def
/mystresc false def

/mystringwidth {
    /mystrx 0.0 def
    /mystry 0.0 def
    /mystresc false def
    {				% work through string
	% did we process the escape character last?
	mystresc {
	    % last character was escape
	    % handle the escape
	    % is it an _ = 95?
	    dup 95 eq {
		pop  % we don't need the character anymore
		% toggle drawing overbars
		0.0 0.0 % make it like it never happened...
	    } {
		% otherwise measure the character 
		(\\ ) dup 1 4 -1 roll put % count a \ and the character
		stringwidth
	    } ifelse
	    % and reset the flag
	    /mystresc false def
	} {
	    % last character was not escape
	    % is this escape
	    dup 92 eq {
		% yes, escape character, set flag
		/mystresc true def
		pop % drop character
		0.0 0.0 % make like this character has no width and height
	    } {
		( ) dup 0 4 -1 roll put	% create one character string
		stringwidth		% measure it's height/width
	    } ifelse
	} ifelse
	% accumulate x and y movements
	mystry add /mystry exch def
	mystrx add /mystrx exch def
    } forall
    mystrx mystry % drop results on stack
} bind def

% Render a string with overbars
%
/escaped false def
/drawoverbar false def
/fontsize 0.0 def

%string1 string2 append -
/append {
    2 copy length exch length add % find new length
    string dup % string1 string2 string string
    4 2 roll % string string string1 string2
    2 index 0 3 index
    % string string string1 string2 string 0 string1
    putinterval % string string string1 string2
    exch length exch putinterval
} bind def

% If drawoverbar is set, draw a line of the same length as the given string
% string overbarshowline -
/overbarshowline {
    % print overbar if necessary
    stringwidth pop 0
    drawoverbar {
        rlineto
        gsave stroke grestore
    } {
        rmoveto
    } ifelse
} bind def

% Draws overbars for the given string, then shows the string itself
% string overbarshow
/overbarshow {
    /overbarshowacc () def
    /overbarshowtxt () def

    gsave
    fontsize 10.0 div setlinewidth
    0 fontsize rmoveto  % move to (0,overbarheight)

    {				% work through string
	escaped {
	    % the last character was the escape
	    % handle the escape
	    % is it an _ = 95?
	    dup 95 eq {
		pop  % we don't need the character anymore
                overbarshowacc overbarshowline
                % toggle drawing overbars
		/drawoverbar drawoverbar not def

                % Append the contents off the accumulator to the text
                % string we're eventually going to show
                /overbarshowtxt overbarshowtxt overbarshowacc append def

                % clear accumulator
                /overbarshowacc () def
	    } {
                % add to accumulator
                (\\ ) dup 1 4 -1 roll put
                overbarshowacc exch append
                /overbarshowacc exch def
	    } ifelse
	    % and reset the flag
	    /escaped false def
	} {
	    % check for escape character \ = 92
	    dup 92 eq {
		% yes, escape character, set flag
		/escaped true def
		pop % drop character
	    } {
                % add to accumulator
                ( ) dup 0 4 -1 roll put
                overbarshowacc exch append
                /overbarshowacc exch def
	    } ifelse
	} ifelse
    } forall
    % Catch any leftovers
    overbarshowacc overbarshowline
    overbarshowtxt overbarshowacc append

    grestore
    show
} bind def

% 
% hcenter rjustify vcenter vjustify spacing [(line1) (line2) ... ] rot x y size text -
/stringw 0.0 def
/stringh 0.0 def
/spacing 0.0 def
/strings [ ] def
/stringtxt ( ) def
/stringcount 0 def
/rot 0.0 def

/text {
    gsave	        % save state for later
    /drawoverbar false def      % start by not drawing overbars

    dup /fontsize exch def  % save font size for corrections later
    % do font selection 
    /gEDAFont findfont
    exch scalefont
    setfont

    % set up coordinates
    translate           % move origin to given point
    rotate		% rotate so that text is drawn
    0 0 moveto
    dup length /stringcount exch def			% Get number of strings
    /strings exch def     				% save strings
    /spacing exch def
    % do we have more than 1 string to render?
    stringcount 1 eq {
	/stringtxt strings aload pop def		% get the string 
	/stringw stringtxt mystringwidth pop neg def	% get the -width
	/stringh stringtxt stringheight exch pop neg def% get the -height

	% First do vertical calculations
	% hcenter rjustify vcenter vjustify 
	% vertical justification
	{ 0 stringh rmoveto } if 
	% vertical center
	{ 0 stringh 0.3571425 mul rmoveto } if  % not 0.5, so that
						% it looks nicer
	% Then do horizontal calculations
	% right justify
	{ stringw 0 rmoveto } if
	% center
	{ stringw 2.0 div 0 rmoveto } if
	% Draw the text
	stringtxt overbarshow
    } {
	% More than one line, compute bounding box for the text

	% vertical height, don't use the actual hieght of the characters
	% assume that the user wants to make the baselines line up with two
	% text boxes placed side by side
	/stringh stringcount spacing mul neg def
	% Now figure out horizontal size, this amounts to keeping track
	% of the longest string
	/stringw 0.0 def
	strings {
	    mystringwidth pop
	    dup stringw gt {
		/stringw exch def
	    } {
		pop
	    } ifelse
	} forall
	/stringw stringw neg def 	% get the -width
	
	% First do vertical calculations
	% hcenter rjustify vcenter vjustify 
	% vertical justification
	{ 0 stringh fontsize add rmoveto } if 
	% vertical center
	{ 0 stringh 0.5 mul rmoveto } if 
	% Then do horizontal calculations
	% right justify
	{ stringw 0 rmoveto } if
	% center
	{ stringw 2.0 div 0 rmoveto } if
	% now move up to the first line and begin rendering
	0 stringcount 1 sub spacing mul rmoveto
	strings {
	    gsave		% Save starting point
	    overbarshow		% render the text
	    grestore
	    0 spacing neg rmoveto
	} forall
    } ifelse
    grestore 	% Restore old state
} bind def


%%EndProlog
%%Page: 1 1
/gEDAFont ISOLatin1Extended /Helvetica RE
2 setlinecap
0.072000 0.072000 scale
0 0 translate
1.000000 1.000000 scale
-19100 -32800 translate
gsave
30900 49900 30900 49700 10 line
31000 49900 30800 49900 10 line
30945 49950 30855 49950 10 line
30920 49990 30880 49990 10 line
grestore
gsave
false true false true 260.000000 [(GND) ] 0 31100 50200 180.555557 text
grestore
gsave
28900 54100 28900 54300 10 line
28750 54300 29050 54300 10 line
gsave
false false false false 208.000000 [(+3.3V) ] 0 28775 54350 144.444443 text
grestore
grestore
45100 51000 43200 51000 10 line
gsave
false false false false 260.000000 [(DATA_15) ] 0 45200 50900 180.555557 text
grestore
45100 51600 43200 51600 10 line
gsave
false false false false 260.000000 [(DATA_13) ] 0 45200 51500 180.555557 text
grestore
45100 52200 43200 52200 10 line
gsave
false false false false 260.000000 [(DATA_11) ] 0 45200 52100 180.555557 text
grestore
45100 52800 43200 52800 10 line
gsave
false false false false 260.000000 [(DATA_09) ] 0 45200 52700 180.555557 text
grestore
31900 51000 30000 51000 10 line
gsave
false false false false 260.000000 [(DATA_07) ] 0 32000 50900 180.555557 text
grestore
31900 51600 30000 51600 10 line
gsave
false false false false 260.000000 [(DATA_05) ] 0 32000 51500 180.555557 text
grestore
31900 52200 30000 52200 10 line
gsave
false false false false 260.000000 [(DATA_03) ] 0 32000 52100 180.555557 text
grestore
31900 52800 30000 52800 10 line
gsave
false false false false 260.000000 [(DATA_01) ] 0 32000 52700 180.555557 text
grestore
45100 51300 43200 51300 10 line
gsave
false false false false 260.000000 [(DATA_14) ] 0 45200 51200 180.555557 text
grestore
45100 51900 43200 51900 10 line
gsave
false false false false 260.000000 [(DATA_12) ] 0 45200 51800 180.555557 text
grestore
45100 52500 43200 52500 10 line
gsave
false false false false 260.000000 [(DATA_10) ] 0 45200 52400 180.555557 text
grestore
45100 53100 43200 53100 10 line
gsave
false false false false 260.000000 [(DATA_08) ] 0 45200 53000 180.555557 text
grestore
31900 51300 30000 51300 10 line
gsave
false false false false 260.000000 [(DATA_06) ] 0 32000 51200 180.555557 text
grestore
31900 51900 30000 51900 10 line
gsave
false false false false 260.000000 [(DATA_04) ] 0 32000 51800 180.555557 text
grestore
31900 52500 30000 52500 10 line
gsave
false false false false 260.000000 [(DATA_02) ] 0 32000 52400 180.555557 text
grestore
31900 53100 30000 53100 10 line
gsave
false false false false 260.000000 [(DATA_00) ] 0 32000 53000 180.555557 text
grestore
27600 52800 25100 52800 10 line
gsave
false false false false 260.000000 [(ADDR_01) ] 0 24200 52700 180.555557 text
grestore
27600 52200 25100 52200 10 line
gsave
false false false false 260.000000 [(ADDR_03) ] 0 24200 52100 180.555557 text
grestore
27600 51000 25100 51000 10 line
gsave
false false false false 260.000000 [(ADDR_07) ] 0 24200 50900 180.555557 text
grestore
27600 51600 25100 51600 10 line
gsave
false false false false 260.000000 [(ADDR_05) ] 0 24200 51500 180.555557 text
grestore
27600 50400 25100 50400 10 line
gsave
false false false false 260.000000 [(ADDR_09) ] 0 24200 50300 180.555557 text
grestore
27600 49200 25100 49200 10 line
gsave
false false false false 260.000000 [(ADDR_13) ] 0 24200 49100 180.555557 text
grestore
27600 49800 25100 49800 10 line
gsave
false false false false 260.000000 [(ADDR_11) ] 0 24200 49700 180.555557 text
grestore
27600 48600 25100 48600 10 line
gsave
false false false false 260.000000 [(ADDR_15) ] 0 24200 48500 180.555557 text
grestore
27600 53100 25100 53100 10 line
gsave
false false false false 260.000000 [(ADDR_00) ] 0 24200 53000 180.555557 text
grestore
27600 52500 25100 52500 10 line
gsave
false false false false 260.000000 [(ADDR_02) ] 0 24200 52400 180.555557 text
grestore
27600 51300 25100 51300 10 line
gsave
false false false false 260.000000 [(ADDR_06) ] 0 24200 51200 180.555557 text
grestore
27600 51900 25100 51900 10 line
gsave
false false false false 260.000000 [(ADDR_04) ] 0 24200 51800 180.555557 text
grestore
27600 50700 25100 50700 10 line
gsave
false false false false 260.000000 [(ADDR_08) ] 0 24200 50600 180.555557 text
grestore
27600 49500 25100 49500 10 line
gsave
false false false false 260.000000 [(ADDR_12) ] 0 24200 49400 180.555557 text
grestore
27600 50100 25100 50100 10 line
gsave
false false false false 260.000000 [(ADDR_10) ] 0 24200 50000 180.555557 text
grestore
27600 48900 25100 48900 10 line
gsave
false false false false 260.000000 [(ADDR_14) ] 0 24200 48800 180.555557 text
grestore
32600 48500 30000 48500 10 line
gsave
false false false false 260.000000 [(RAM_OE) ] 0 32700 48400 180.555557 text
grestore
27600 48300 25100 48300 10 line
gsave
false false false false 260.000000 [(ADDR_16) ] 0 24200 48200 180.555557 text
grestore
32600 47600 30000 47600 10 line
gsave
false false false false 260.000000 [(RAM_WE) ] 0 32700 47500 180.555557 text
grestore
28900 54100 28900 53700 10 line
30000 49200 30900 49200 10 line
30000 48200 30900 48200 10 line
gsave
32200 50100 32200 50300 10 line
32050 50300 32350 50300 10 line
gsave
false false false false 208.000000 [(+3.3V) ] 0 32075 50350 144.444443 text
grestore
grestore
30000 47900 32200 47900 10 line
gsave
42100 54100 42100 54300 10 line
41950 54300 42250 54300 10 line
gsave
false false false false 208.000000 [(+3.3V) ] 0 41975 54350 144.444443 text
grestore
grestore
40800 52800 38300 52800 10 line
gsave
false false false false 260.000000 [(ADDR_01) ] 0 37400 52700 180.555557 text
grestore
40800 52200 38300 52200 10 line
gsave
false false false false 260.000000 [(ADDR_03) ] 0 37400 52100 180.555557 text
grestore
40800 51000 38300 51000 10 line
gsave
false false false false 260.000000 [(ADDR_07) ] 0 37400 50900 180.555557 text
grestore
40800 51600 38300 51600 10 line
gsave
false false false false 260.000000 [(ADDR_05) ] 0 37400 51500 180.555557 text
grestore
40800 50400 38300 50400 10 line
gsave
false false false false 260.000000 [(ADDR_09) ] 0 37400 50300 180.555557 text
grestore
40800 49200 38300 49200 10 line
gsave
false false false false 260.000000 [(ADDR_13) ] 0 37400 49100 180.555557 text
grestore
40800 49800 38300 49800 10 line
gsave
false false false false 260.000000 [(ADDR_11) ] 0 37400 49700 180.555557 text
grestore
40800 48600 38300 48600 10 line
gsave
false false false false 260.000000 [(ADDR_15) ] 0 37400 48500 180.555557 text
grestore
40800 53100 38300 53100 10 line
gsave
false false false false 260.000000 [(ADDR_00) ] 0 37400 53000 180.555557 text
grestore
40800 52500 38300 52500 10 line
gsave
false false false false 260.000000 [(ADDR_02) ] 0 37400 52400 180.555557 text
grestore
40800 51300 38300 51300 10 line
gsave
false false false false 260.000000 [(ADDR_06) ] 0 37400 51200 180.555557 text
grestore
40800 51900 38300 51900 10 line
gsave
false false false false 260.000000 [(ADDR_04) ] 0 37400 51800 180.555557 text
grestore
40800 50700 38300 50700 10 line
gsave
false false false false 260.000000 [(ADDR_08) ] 0 37400 50600 180.555557 text
grestore
40800 49500 38300 49500 10 line
gsave
false false false false 260.000000 [(ADDR_12) ] 0 37400 49400 180.555557 text
grestore
40800 50100 38300 50100 10 line
gsave
false false false false 260.000000 [(ADDR_10) ] 0 37400 50000 180.555557 text
grestore
40800 48900 38300 48900 10 line
gsave
false false false false 260.000000 [(ADDR_14) ] 0 37400 48800 180.555557 text
grestore
40800 48300 38300 48300 10 line
gsave
false false false false 260.000000 [(ADDR_16) ] 0 37400 48200 180.555557 text
grestore
42100 54100 42100 53700 10 line
gsave
29700 53900 29900 53900 10 line
30600 53900 30400 53900 10 line
30100 54100 30100 53700 10 line
30200 54100 30200 53700 10 line
30400 53900 30200 53900 10 line
30100 53900 29900 53900 10 line
grestore
gsave
false false false false 260.000000 [(C1) ] 0 29900 54200 180.555557 text
grestore
gsave
false false false false 260.000000 [(100n) ] 0 29900 53500 180.555557 text
grestore
gsave
30600 54500 30600 54300 10 line
30700 54500 30500 54500 10 line
30645 54550 30555 54550 10 line
30620 54590 30580 54590 10 line
grestore
gsave
false true false true 260.000000 [(GND) ] 0 30800 54800 180.555557 text
grestore
30600 54300 30600 53900 10 line
29700 53900 28900 53900 10 line
42900 53900 42100 53900 10 line
gsave
42900 53900 43100 53900 10 line
43800 53900 43600 53900 10 line
43300 54100 43300 53700 10 line
43400 54100 43400 53700 10 line
43600 53900 43400 53900 10 line
43300 53900 43100 53900 10 line
grestore
gsave
false false false false 260.000000 [(C2) ] 0 43100 54200 180.555557 text
grestore
gsave
false false false false 260.000000 [(100n) ] 0 43100 53500 180.555557 text
grestore
43800 54300 43800 53900 10 line
gsave
43800 54500 43800 54300 10 line
43900 54500 43700 54500 10 line
43845 54550 43755 54550 10 line
43820 54590 43780 54590 10 line
grestore
gsave
false true false true 260.000000 [(GND) ] 0 44000 54800 180.555557 text
grestore
gsave
32200 49900 32200 49750 10 line
32200 49000 32200 49150 10 line
32100 49150 32300 49150 10 line
32300 49150 32300 49750 10 line
32300 49750 32100 49750 10 line
32100 49750 32100 49150 10 line
grestore
gsave
false true false true 260.000000 [(R33) ] 0 32700 49700 180.555557 text
grestore
gsave
false true false true 260.000000 [(10K) ] 0 32700 49400 180.555557 text
grestore
32200 47900 32200 49000 10 line
32200 49900 32200 50100 10 line
30900 49200 30900 49700 10 line
gsave
30900 45800 30900 46000 10 line
30800 45800 31000 45800 10 line
30855 45750 30945 45750 10 line
30880 45710 30920 45710 10 line
grestore
gsave
false false false false 260.000000 [(GND) ] 0 30700 45500 180.555557 text
grestore
gsave
30900 47300 30900 47150 10 line
30900 46400 30900 46550 10 line
30800 46550 31000 46550 10 line
31000 46550 31000 47150 10 line
31000 47150 30800 47150 10 line
30800 47150 30800 46550 10 line
grestore
gsave
false true false true 260.000000 [(R34) ] 0 31400 47100 180.555557 text
grestore
gsave
false true false true 260.000000 [(10K) ] 0 31400 46800 180.555557 text
grestore
30900 46400 30900 46000 10 line
30900 47300 30900 48200 10 line
gsave
44100 49900 44100 49700 10 line
44200 49900 44000 49900 10 line
44145 49950 44055 49950 10 line
44120 49990 44080 49990 10 line
grestore
gsave
false true false true 260.000000 [(GND) ] 0 44300 50200 180.555557 text
grestore
45800 48500 43200 48500 10 line
gsave
false false false false 260.000000 [(RAM_OE) ] 0 45900 48400 180.555557 text
grestore
45800 47600 43200 47600 10 line
gsave
false false false false 260.000000 [(RAM_WE) ] 0 45900 47500 180.555557 text
grestore
43200 49200 44100 49200 10 line
43200 48200 44100 48200 10 line
gsave
45400 50100 45400 50300 10 line
45250 50300 45550 50300 10 line
gsave
false false false false 208.000000 [(+3.3V) ] 0 45275 50350 144.444443 text
grestore
grestore
43200 47900 45400 47900 10 line
gsave
45400 49900 45400 49750 10 line
45400 49000 45400 49150 10 line
45300 49150 45500 49150 10 line
45500 49150 45500 49750 10 line
45500 49750 45300 49750 10 line
45300 49750 45300 49150 10 line
grestore
gsave
false true false true 260.000000 [(R35) ] 0 45900 49700 180.555557 text
grestore
gsave
false true false true 260.000000 [(10K) ] 0 45900 49400 180.555557 text
grestore
45400 47900 45400 49000 10 line
45400 49900 45400 50100 10 line
44100 49200 44100 49700 10 line
gsave
44100 45800 44100 46000 10 line
44000 45800 44200 45800 10 line
44055 45750 44145 45750 10 line
44080 45710 44120 45710 10 line
grestore
gsave
false false false false 260.000000 [(GND) ] 0 43900 45500 180.555557 text
grestore
gsave
44100 47300 44100 47150 10 line
44100 46400 44100 46550 10 line
44000 46550 44200 46550 10 line
44200 46550 44200 47150 10 line
44200 47150 44000 47150 10 line
44000 47150 44000 46550 10 line
grestore
gsave
false true false true 260.000000 [(R36) ] 0 44600 47100 180.555557 text
grestore
gsave
false true false true 260.000000 [(10K) ] 0 44600 46800 180.555557 text
grestore
44100 46400 44100 46000 10 line
44100 47300 44100 48200 10 line
gsave
28900 43600 28900 43800 10 line
28750 43800 29050 43800 10 line
gsave
false false false false 208.000000 [(+3.3V) ] 0 28775 43850 144.444443 text
grestore
grestore
45700 40500 43200 40500 10 line
gsave
false false false false 260.000000 [(DATA_31) ] 0 45900 40400 180.555557 text
grestore
45700 41100 43200 41100 10 line
gsave
false false false false 260.000000 [(DATA_29) ] 0 45900 41000 180.555557 text
grestore
45700 41700 43200 41700 10 line
gsave
false false false false 260.000000 [(DATA_27) ] 0 45900 41600 180.555557 text
grestore
45700 42300 43200 42300 10 line
gsave
false false false false 260.000000 [(DATA_25) ] 0 45900 42200 180.555557 text
grestore
32500 40500 30000 40500 10 line
gsave
false false false false 260.000000 [(DATA_23) ] 0 32700 40400 180.555557 text
grestore
32500 41100 30000 41100 10 line
gsave
false false false false 260.000000 [(DATA_21) ] 0 32700 41000 180.555557 text
grestore
32500 41700 30000 41700 10 line
gsave
false false false false 260.000000 [(DATA_19) ] 0 32700 41600 180.555557 text
grestore
32500 42300 30000 42300 10 line
gsave
false false false false 260.000000 [(DATA_17) ] 0 32700 42200 180.555557 text
grestore
45700 40800 43200 40800 10 line
gsave
false false false false 260.000000 [(DATA_30) ] 0 45900 40700 180.555557 text
grestore
45700 41400 43200 41400 10 line
gsave
false false false false 260.000000 [(DATA_28) ] 0 45900 41300 180.555557 text
grestore
45700 42000 43200 42000 10 line
gsave
false false false false 260.000000 [(DATA_26) ] 0 45900 41900 180.555557 text
grestore
45700 42600 43200 42600 10 line
gsave
false false false false 260.000000 [(DATA_24) ] 0 45900 42500 180.555557 text
grestore
32500 40800 30000 40800 10 line
gsave
false false false false 260.000000 [(DATA_22) ] 0 32700 40700 180.555557 text
grestore
32500 41400 30000 41400 10 line
gsave
false false false false 260.000000 [(DATA_20) ] 0 32700 41300 180.555557 text
grestore
32500 42000 30000 42000 10 line
gsave
false false false false 260.000000 [(DATA_18) ] 0 32700 41900 180.555557 text
grestore
32500 42600 30000 42600 10 line
gsave
false false false false 260.000000 [(DATA_16) ] 0 32700 42500 180.555557 text
grestore
27600 42300 25100 42300 10 line
gsave
false false false false 260.000000 [(ADDR_01) ] 0 24200 42200 180.555557 text
grestore
27600 41700 25100 41700 10 line
gsave
false false false false 260.000000 [(ADDR_03) ] 0 24200 41600 180.555557 text
grestore
27600 40500 25100 40500 10 line
gsave
false false false false 260.000000 [(ADDR_07) ] 0 24200 40400 180.555557 text
grestore
27600 41100 25100 41100 10 line
gsave
false false false false 260.000000 [(ADDR_05) ] 0 24200 41000 180.555557 text
grestore
27600 39900 25100 39900 10 line
gsave
false false false false 260.000000 [(ADDR_09) ] 0 24200 39800 180.555557 text
grestore
27600 38700 25100 38700 10 line
gsave
false false false false 260.000000 [(ADDR_13) ] 0 24200 38600 180.555557 text
grestore
27600 39300 25100 39300 10 line
gsave
false false false false 260.000000 [(ADDR_11) ] 0 24200 39200 180.555557 text
grestore
27600 38100 25100 38100 10 line
gsave
false false false false 260.000000 [(ADDR_15) ] 0 24200 38000 180.555557 text
grestore
27600 42600 25100 42600 10 line
gsave
false false false false 260.000000 [(ADDR_00) ] 0 24200 42500 180.555557 text
grestore
27600 42000 25100 42000 10 line
gsave
false false false false 260.000000 [(ADDR_02) ] 0 24200 41900 180.555557 text
grestore
27600 40800 25100 40800 10 line
gsave
false false false false 260.000000 [(ADDR_06) ] 0 24200 40700 180.555557 text
grestore
27600 41400 25100 41400 10 line
gsave
false false false false 260.000000 [(ADDR_04) ] 0 24200 41300 180.555557 text
grestore
27600 40200 25100 40200 10 line
gsave
false false false false 260.000000 [(ADDR_08) ] 0 24200 40100 180.555557 text
grestore
27600 39000 25100 39000 10 line
gsave
false false false false 260.000000 [(ADDR_12) ] 0 24200 38900 180.555557 text
grestore
27600 39600 25100 39600 10 line
gsave
false false false false 260.000000 [(ADDR_10) ] 0 24200 39500 180.555557 text
grestore
27600 38400 25100 38400 10 line
gsave
false false false false 260.000000 [(ADDR_14) ] 0 24200 38300 180.555557 text
grestore
27600 37800 25100 37800 10 line
gsave
false false false false 260.000000 [(ADDR_16) ] 0 24200 37700 180.555557 text
grestore
28900 43600 28900 43200 10 line
gsave
42100 43600 42100 43800 10 line
41950 43800 42250 43800 10 line
gsave
false false false false 208.000000 [(+3.3V) ] 0 41975 43850 144.444443 text
grestore
grestore
40800 42300 38300 42300 10 line
gsave
false false false false 260.000000 [(ADDR_01) ] 0 37400 42200 180.555557 text
grestore
40800 41700 38300 41700 10 line
gsave
false false false false 260.000000 [(ADDR_03) ] 0 37400 41600 180.555557 text
grestore
40800 40500 38300 40500 10 line
gsave
false false false false 260.000000 [(ADDR_07) ] 0 37400 40400 180.555557 text
grestore
40800 41100 38300 41100 10 line
gsave
false false false false 260.000000 [(ADDR_05) ] 0 37400 41000 180.555557 text
grestore
40800 39900 38300 39900 10 line
gsave
false false false false 260.000000 [(ADDR_09) ] 0 37400 39800 180.555557 text
grestore
40800 38700 38300 38700 10 line
gsave
false false false false 260.000000 [(ADDR_13) ] 0 37400 38600 180.555557 text
grestore
40800 39300 38300 39300 10 line
gsave
false false false false 260.000000 [(ADDR_11) ] 0 37400 39200 180.555557 text
grestore
40800 38100 38300 38100 10 line
gsave
false false false false 260.000000 [(ADDR_15) ] 0 37400 38000 180.555557 text
grestore
40800 42600 38300 42600 10 line
gsave
false false false false 260.000000 [(ADDR_00) ] 0 37400 42500 180.555557 text
grestore
40800 42000 38300 42000 10 line
gsave
false false false false 260.000000 [(ADDR_02) ] 0 37400 41900 180.555557 text
grestore
40800 40800 38300 40800 10 line
gsave
false false false false 260.000000 [(ADDR_06) ] 0 37400 40700 180.555557 text
grestore
40800 41400 38300 41400 10 line
gsave
false false false false 260.000000 [(ADDR_04) ] 0 37400 41300 180.555557 text
grestore
40800 40200 38300 40200 10 line
gsave
false false false false 260.000000 [(ADDR_08) ] 0 37400 40100 180.555557 text
grestore
40800 39000 38300 39000 10 line
gsave
false false false false 260.000000 [(ADDR_12) ] 0 37400 38900 180.555557 text
grestore
40800 39600 38300 39600 10 line
gsave
false false false false 260.000000 [(ADDR_10) ] 0 37400 39500 180.555557 text
grestore
40800 38400 38300 38400 10 line
gsave
false false false false 260.000000 [(ADDR_14) ] 0 37400 38300 180.555557 text
grestore
40800 37800 38300 37800 10 line
gsave
false false false false 260.000000 [(ADDR_16) ] 0 37400 37700 180.555557 text
grestore
42100 43600 42100 43200 10 line
29700 43400 28900 43400 10 line
gsave
29700 43400 29900 43400 10 line
30600 43400 30400 43400 10 line
30100 43600 30100 43200 10 line
30200 43600 30200 43200 10 line
30400 43400 30200 43400 10 line
30100 43400 29900 43400 10 line
grestore
gsave
false false false false 260.000000 [(C3) ] 0 29900 43700 180.555557 text
grestore
gsave
false false false false 260.000000 [(100n) ] 0 29900 43000 180.555557 text
grestore
30600 43800 30600 43400 10 line
gsave
30600 44000 30600 43800 10 line
30700 44000 30500 44000 10 line
30645 44050 30555 44050 10 line
30620 44090 30580 44090 10 line
grestore
gsave
false true false true 260.000000 [(GND) ] 0 30800 44300 180.555557 text
grestore
42900 43400 42100 43400 10 line
gsave
42900 43400 43100 43400 10 line
43800 43400 43600 43400 10 line
43300 43600 43300 43200 10 line
43400 43600 43400 43200 10 line
43600 43400 43400 43400 10 line
43300 43400 43100 43400 10 line
grestore
gsave
false false false false 260.000000 [(C4) ] 0 43100 43700 180.555557 text
grestore
gsave
false false false false 260.000000 [(100n) ] 0 43100 43000 180.555557 text
grestore
43800 43800 43800 43400 10 line
gsave
43800 44000 43800 43800 10 line
43900 44000 43700 44000 10 line
43845 44050 43755 44050 10 line
43820 44090 43780 44090 10 line
grestore
gsave
false true false true 260.000000 [(GND) ] 0 44000 44300 180.555557 text
grestore
gsave
30900 39400 30900 39200 10 line
31000 39400 30800 39400 10 line
30945 39450 30855 39450 10 line
30920 39490 30880 39490 10 line
grestore
gsave
false true false true 260.000000 [(GND) ] 0 31100 39700 180.555557 text
grestore
32600 38000 30000 38000 10 line
gsave
false false false false 260.000000 [(RAM_OE) ] 0 32700 37900 180.555557 text
grestore
32600 37100 30000 37100 10 line
gsave
false false false false 260.000000 [(RAM_WE) ] 0 32700 37000 180.555557 text
grestore
30000 38700 30900 38700 10 line
30000 37700 30900 37700 10 line
gsave
32200 39600 32200 39800 10 line
32050 39800 32350 39800 10 line
gsave
false false false false 208.000000 [(+3.3V) ] 0 32075 39850 144.444443 text
grestore
grestore
30000 37400 32200 37400 10 line
gsave
32200 39400 32200 39250 10 line
32200 38500 32200 38650 10 line
32100 38650 32300 38650 10 line
32300 38650 32300 39250 10 line
32300 39250 32100 39250 10 line
32100 39250 32100 38650 10 line
grestore
gsave
false true false true 260.000000 [(R37) ] 0 32700 39200 180.555557 text
grestore
gsave
false true false true 260.000000 [(10K) ] 0 32700 38900 180.555557 text
grestore
32200 37400 32200 38500 10 line
32200 39400 32200 39600 10 line
30900 38700 30900 39200 10 line
gsave
30900 35300 30900 35500 10 line
30800 35300 31000 35300 10 line
30855 35250 30945 35250 10 line
30880 35210 30920 35210 10 line
grestore
gsave
false false false false 260.000000 [(GND) ] 0 30700 35000 180.555557 text
grestore
gsave
30900 36800 30900 36650 10 line
30900 35900 30900 36050 10 line
30800 36050 31000 36050 10 line
31000 36050 31000 36650 10 line
31000 36650 30800 36650 10 line
30800 36650 30800 36050 10 line
grestore
gsave
false true false true 260.000000 [(R38) ] 0 31400 36600 180.555557 text
grestore
gsave
false true false true 260.000000 [(10K) ] 0 31400 36300 180.555557 text
grestore
30900 35900 30900 35500 10 line
30900 36800 30900 37700 10 line
gsave
44100 39400 44100 39200 10 line
44200 39400 44000 39400 10 line
44145 39450 44055 39450 10 line
44120 39490 44080 39490 10 line
grestore
gsave
false true false true 260.000000 [(GND) ] 0 44300 39700 180.555557 text
grestore
45800 38000 43200 38000 10 line
gsave
false false false false 260.000000 [(RAM_OE) ] 0 45900 37900 180.555557 text
grestore
45800 37100 43200 37100 10 line
gsave
false false false false 260.000000 [(RAM_WE) ] 0 45900 37000 180.555557 text
grestore
43200 38700 44100 38700 10 line
43200 37700 44100 37700 10 line
gsave
45400 39600 45400 39800 10 line
45250 39800 45550 39800 10 line
gsave
false false false false 208.000000 [(+3.3V) ] 0 45275 39850 144.444443 text
grestore
grestore
43200 37400 45400 37400 10 line
gsave
45400 39400 45400 39250 10 line
45400 38500 45400 38650 10 line
45300 38650 45500 38650 10 line
45500 38650 45500 39250 10 line
45500 39250 45300 39250 10 line
45300 39250 45300 38650 10 line
grestore
gsave
false true false true 260.000000 [(R39) ] 0 45900 39200 180.555557 text
grestore
gsave
false true false true 260.000000 [(10K) ] 0 45900 38900 180.555557 text
grestore
45400 37400 45400 38500 10 line
45400 39400 45400 39600 10 line
44100 38700 44100 39200 10 line
gsave
44100 35300 44100 35500 10 line
44000 35300 44200 35300 10 line
44055 35250 44145 35250 10 line
44080 35210 44120 35210 10 line
grestore
gsave
false false false false 260.000000 [(GND) ] 0 43900 35000 180.555557 text
grestore
gsave
44100 36800 44100 36650 10 line
44100 35900 44100 36050 10 line
44000 36050 44200 36050 10 line
44200 36050 44200 36650 10 line
44200 36650 44000 36650 10 line
44000 36650 44000 36050 10 line
grestore
gsave
false true false true 260.000000 [(R40) ] 0 44600 36600 180.555557 text
grestore
gsave
false true false true 260.000000 [(10K) ] 0 44600 36300 180.555557 text
grestore
44100 35900 44100 35500 10 line
44100 36800 44100 37700 10 line
gsave
19100 32800 52200 32800 10 line
52200 32800 52200 56100 10 line
52200 56100 19100 56100 10 line
19100 56100 19100 32800 10 line
48100 33400 48100 32800 10 line
gsave
false false false false 208.000000 [(FILE:) ] 0 44700 33200 144.444443 text
grestore
gsave
false false false false 208.000000 [(REVISION:) ] 0 48200 33200 144.444443 text
grestore
gsave
false false false false 208.000000 [(DRAWN BY: ) ] 0 48200 32900 144.444443 text
grestore
gsave
false false false false 208.000000 [(PAGE) ] 0 44700 32900 144.444443 text
grestore
gsave
false false false false 208.000000 [(OF) ] 0 46400 32900 144.444443 text
grestore
gsave
false false false false 208.000000 [(TITLE) ] 0 44700 33500 144.444443 text
grestore
44600 32800 52200 32800 10 line
52200 32800 52200 34200 10 line
52200 34200 44600 34200 10 line
44600 34200 44600 32800 10 line
44600 33400 52200 33400 10 line
grestore
gsave
false false false false 260.000000 [(REX SHIELD) ] 0 45200 33500 180.555557 text
grestore
gsave
false false false false 260.000000 [(Aaron Storey) ] 0 49100 32900 180.555557 text
grestore
gsave
false false false false 260.000000 [(3) ] 0 45600 32900 180.555557 text
grestore
gsave
false false false false 260.000000 [(4) ] 0 47100 32900 180.555557 text
grestore
gsave
28900 53400 28900 53700 10 line
gsave
false false false false 208.000000 [(8) ] 0 28950 53400 144.444443 text
grestore
gsave
true false false true 208.000000 [(Vcc) ] 0 28900 53350 144.444443 text
grestore
27900 46500 29700 46500 10 line
29700 46500 29700 53400 10 line
29700 53400 27900 53400 10 line
27900 53400 27900 46500 10 line
gsave
false false false false 260.000000 [(AS6C1008) ] 0 27900 53450 180.555557 text
grestore
27900 53100 27600 53100 10 line
gsave
false true false false 208.000000 [(20) ] 0 27850 53150 144.444443 text
grestore
gsave
false false true false 208.000000 [(A0) ] 0 28000 53100 144.444443 text
grestore
27900 52800 27600 52800 10 line
gsave
false true false false 208.000000 [(19) ] 0 27850 52850 144.444443 text
grestore
gsave
false false true false 208.000000 [(A1) ] 0 28000 52800 144.444443 text
grestore
27900 52500 27600 52500 10 line
gsave
false true false false 208.000000 [(18) ] 0 27850 52550 144.444443 text
grestore
gsave
false false true false 208.000000 [(A2) ] 0 28000 52500 144.444443 text
grestore
27900 52200 27600 52200 10 line
gsave
false true false false 208.000000 [(17) ] 0 27850 52250 144.444443 text
grestore
gsave
false false true false 208.000000 [(A3) ] 0 28000 52200 144.444443 text
grestore
27900 51900 27600 51900 10 line
gsave
false true false false 208.000000 [(16) ] 0 27850 51950 144.444443 text
grestore
gsave
false false true false 208.000000 [(A4) ] 0 28000 51900 144.444443 text
grestore
27900 51600 27600 51600 10 line
gsave
false true false false 208.000000 [(15) ] 0 27850 51650 144.444443 text
grestore
gsave
false false true false 208.000000 [(A5) ] 0 28000 51600 144.444443 text
grestore
27900 51300 27600 51300 10 line
gsave
false true false false 208.000000 [(14) ] 0 27850 51350 144.444443 text
grestore
gsave
false false true false 208.000000 [(A6) ] 0 28000 51300 144.444443 text
grestore
27900 51000 27600 51000 10 line
gsave
false true false false 208.000000 [(13) ] 0 27850 51050 144.444443 text
grestore
gsave
false false true false 208.000000 [(A7) ] 0 28000 51000 144.444443 text
grestore
27900 50700 27600 50700 10 line
gsave
false true false false 208.000000 [(3) ] 0 27850 50750 144.444443 text
grestore
gsave
false false true false 208.000000 [(A8) ] 0 28000 50700 144.444443 text
grestore
27900 50400 27600 50400 10 line
gsave
false true false false 208.000000 [(2) ] 0 27850 50450 144.444443 text
grestore
gsave
false false true false 208.000000 [(A9) ] 0 28000 50400 144.444443 text
grestore
27900 50100 27600 50100 10 line
gsave
false true false false 208.000000 [(31) ] 0 27850 50150 144.444443 text
grestore
gsave
false false true false 208.000000 [(A10) ] 0 28000 50100 144.444443 text
grestore
27900 49800 27600 49800 10 line
gsave
false true false false 208.000000 [(1) ] 0 27850 49850 144.444443 text
grestore
gsave
false false true false 208.000000 [(A11) ] 0 28000 49800 144.444443 text
grestore
27900 49500 27600 49500 10 line
gsave
false true false false 208.000000 [(12) ] 0 27850 49550 144.444443 text
grestore
gsave
false false true false 208.000000 [(A12) ] 0 28000 49500 144.444443 text
grestore
27900 49200 27600 49200 10 line
gsave
false true false false 208.000000 [(4) ] 0 27850 49250 144.444443 text
grestore
gsave
false false true false 208.000000 [(A13) ] 0 28000 49200 144.444443 text
grestore
27900 48900 27600 48900 10 line
gsave
false true false false 208.000000 [(11) ] 0 27850 48950 144.444443 text
grestore
gsave
false false true false 208.000000 [(A14) ] 0 28000 48900 144.444443 text
grestore
27900 48600 27600 48600 10 line
gsave
false true false false 208.000000 [(7) ] 0 27850 48650 144.444443 text
grestore
gsave
false false true false 208.000000 [(A15) ] 0 28000 48600 144.444443 text
grestore
27900 48300 27600 48300 10 line
gsave
false true false false 208.000000 [(10) ] 0 27850 48350 144.444443 text
grestore
gsave
false false true false 208.000000 [(A16) ] 0 28000 48300 144.444443 text
grestore
29700 49200 30000 49200 10 line
gsave
false false false false 208.000000 [(24) ] 0 29795 49245 144.444443 text
grestore
gsave
false true false false 208.000000 [(GND) ] 0 29645 49195 144.444443 text
grestore
29700 47600 30000 47600 10 line
gsave
false false false false 208.000000 [(5) ] 0 29795 47645 144.444443 text
grestore
gsave
false true false false 208.000000 [(WE#) ] 0 29645 47595 144.444443 text
grestore
29700 48200 30000 48200 10 line
gsave
false false false false 208.000000 [(30) ] 0 29795 48245 144.444443 text
grestore
gsave
false true false false 208.000000 [(CE#) ] 0 29645 48195 144.444443 text
grestore
29700 48500 30000 48500 10 line
gsave
false false false false 208.000000 [(32) ] 0 29795 48545 144.444443 text
grestore
gsave
false true false false 208.000000 [(OE#) ] 0 29645 48495 144.444443 text
grestore
29700 53100 30000 53100 10 line
gsave
false false false false 208.000000 [(21) ] 0 29750 53150 144.444443 text
grestore
gsave
false true true false 208.000000 [(D0) ] 0 29600 53100 144.444443 text
grestore
29700 52800 30000 52800 10 line
gsave
false false false false 208.000000 [(22) ] 0 29750 52850 144.444443 text
grestore
gsave
false true true false 208.000000 [(D1) ] 0 29600 52800 144.444443 text
grestore
29700 52500 30000 52500 10 line
gsave
false false false false 208.000000 [(23) ] 0 29750 52550 144.444443 text
grestore
gsave
false true true false 208.000000 [(D2) ] 0 29600 52500 144.444443 text
grestore
29700 52200 30000 52200 10 line
gsave
false false false false 208.000000 [(25) ] 0 29750 52250 144.444443 text
grestore
gsave
false true true false 208.000000 [(D3) ] 0 29600 52200 144.444443 text
grestore
29700 51900 30000 51900 10 line
gsave
false false false false 208.000000 [(26) ] 0 29750 51950 144.444443 text
grestore
gsave
false true true false 208.000000 [(D4) ] 0 29600 51900 144.444443 text
grestore
29700 51600 30000 51600 10 line
gsave
false false false false 208.000000 [(27) ] 0 29750 51650 144.444443 text
grestore
gsave
false true true false 208.000000 [(D5) ] 0 29600 51600 144.444443 text
grestore
29700 51300 30000 51300 10 line
gsave
false false false false 208.000000 [(28) ] 0 29750 51350 144.444443 text
grestore
gsave
false true true false 208.000000 [(D6) ] 0 29600 51300 144.444443 text
grestore
29700 51000 30000 51000 10 line
gsave
false false false false 208.000000 [(29) ] 0 29750 51050 144.444443 text
grestore
gsave
false true true false 208.000000 [(D7) ] 0 29600 51000 144.444443 text
grestore
29300 53400 29300 53700 10 line
gsave
false false false false 208.000000 [(9) ] 0 29350 53400 144.444443 text
grestore
gsave
true false false true 208.000000 [(NC) ] 0 29300 53350 144.444443 text
grestore
29700 47900 30000 47900 10 line
gsave
false false false false 208.000000 [(6) ] 0 29795 47945 144.444443 text
grestore
gsave
false true false false 208.000000 [(CE2) ] 0 29645 47895 144.444443 text
grestore
grestore
gsave
false false false false 260.000000 [(U1) ] 0 27900 53800 180.555557 text
grestore
gsave
42100 53400 42100 53700 10 line
gsave
false false false false 208.000000 [(8) ] 0 42150 53400 144.444443 text
grestore
gsave
true false false true 208.000000 [(Vcc) ] 0 42100 53350 144.444443 text
grestore
41100 46500 42900 46500 10 line
42900 46500 42900 53400 10 line
42900 53400 41100 53400 10 line
41100 53400 41100 46500 10 line
gsave
false false false false 260.000000 [(AS6C1008) ] 0 41100 53450 180.555557 text
grestore
41100 53100 40800 53100 10 line
gsave
false true false false 208.000000 [(20) ] 0 41050 53150 144.444443 text
grestore
gsave
false false true false 208.000000 [(A0) ] 0 41200 53100 144.444443 text
grestore
41100 52800 40800 52800 10 line
gsave
false true false false 208.000000 [(19) ] 0 41050 52850 144.444443 text
grestore
gsave
false false true false 208.000000 [(A1) ] 0 41200 52800 144.444443 text
grestore
41100 52500 40800 52500 10 line
gsave
false true false false 208.000000 [(18) ] 0 41050 52550 144.444443 text
grestore
gsave
false false true false 208.000000 [(A2) ] 0 41200 52500 144.444443 text
grestore
41100 52200 40800 52200 10 line
gsave
false true false false 208.000000 [(17) ] 0 41050 52250 144.444443 text
grestore
gsave
false false true false 208.000000 [(A3) ] 0 41200 52200 144.444443 text
grestore
41100 51900 40800 51900 10 line
gsave
false true false false 208.000000 [(16) ] 0 41050 51950 144.444443 text
grestore
gsave
false false true false 208.000000 [(A4) ] 0 41200 51900 144.444443 text
grestore
41100 51600 40800 51600 10 line
gsave
false true false false 208.000000 [(15) ] 0 41050 51650 144.444443 text
grestore
gsave
false false true false 208.000000 [(A5) ] 0 41200 51600 144.444443 text
grestore
41100 51300 40800 51300 10 line
gsave
false true false false 208.000000 [(14) ] 0 41050 51350 144.444443 text
grestore
gsave
false false true false 208.000000 [(A6) ] 0 41200 51300 144.444443 text
grestore
41100 51000 40800 51000 10 line
gsave
false true false false 208.000000 [(13) ] 0 41050 51050 144.444443 text
grestore
gsave
false false true false 208.000000 [(A7) ] 0 41200 51000 144.444443 text
grestore
41100 50700 40800 50700 10 line
gsave
false true false false 208.000000 [(3) ] 0 41050 50750 144.444443 text
grestore
gsave
false false true false 208.000000 [(A8) ] 0 41200 50700 144.444443 text
grestore
41100 50400 40800 50400 10 line
gsave
false true false false 208.000000 [(2) ] 0 41050 50450 144.444443 text
grestore
gsave
false false true false 208.000000 [(A9) ] 0 41200 50400 144.444443 text
grestore
41100 50100 40800 50100 10 line
gsave
false true false false 208.000000 [(31) ] 0 41050 50150 144.444443 text
grestore
gsave
false false true false 208.000000 [(A10) ] 0 41200 50100 144.444443 text
grestore
41100 49800 40800 49800 10 line
gsave
false true false false 208.000000 [(1) ] 0 41050 49850 144.444443 text
grestore
gsave
false false true false 208.000000 [(A11) ] 0 41200 49800 144.444443 text
grestore
41100 49500 40800 49500 10 line
gsave
false true false false 208.000000 [(12) ] 0 41050 49550 144.444443 text
grestore
gsave
false false true false 208.000000 [(A12) ] 0 41200 49500 144.444443 text
grestore
41100 49200 40800 49200 10 line
gsave
false true false false 208.000000 [(4) ] 0 41050 49250 144.444443 text
grestore
gsave
false false true false 208.000000 [(A13) ] 0 41200 49200 144.444443 text
grestore
41100 48900 40800 48900 10 line
gsave
false true false false 208.000000 [(11) ] 0 41050 48950 144.444443 text
grestore
gsave
false false true false 208.000000 [(A14) ] 0 41200 48900 144.444443 text
grestore
41100 48600 40800 48600 10 line
gsave
false true false false 208.000000 [(7) ] 0 41050 48650 144.444443 text
grestore
gsave
false false true false 208.000000 [(A15) ] 0 41200 48600 144.444443 text
grestore
41100 48300 40800 48300 10 line
gsave
false true false false 208.000000 [(10) ] 0 41050 48350 144.444443 text
grestore
gsave
false false true false 208.000000 [(A16) ] 0 41200 48300 144.444443 text
grestore
42900 49200 43200 49200 10 line
gsave
false false false false 208.000000 [(24) ] 0 42995 49245 144.444443 text
grestore
gsave
false true false false 208.000000 [(GND) ] 0 42845 49195 144.444443 text
grestore
42900 47600 43200 47600 10 line
gsave
false false false false 208.000000 [(5) ] 0 42995 47645 144.444443 text
grestore
gsave
false true false false 208.000000 [(WE#) ] 0 42845 47595 144.444443 text
grestore
42900 48200 43200 48200 10 line
gsave
false false false false 208.000000 [(30) ] 0 42995 48245 144.444443 text
grestore
gsave
false true false false 208.000000 [(CE#) ] 0 42845 48195 144.444443 text
grestore
42900 48500 43200 48500 10 line
gsave
false false false false 208.000000 [(32) ] 0 42995 48545 144.444443 text
grestore
gsave
false true false false 208.000000 [(OE#) ] 0 42845 48495 144.444443 text
grestore
42900 53100 43200 53100 10 line
gsave
false false false false 208.000000 [(21) ] 0 42950 53150 144.444443 text
grestore
gsave
false true true false 208.000000 [(D0) ] 0 42800 53100 144.444443 text
grestore
42900 52800 43200 52800 10 line
gsave
false false false false 208.000000 [(22) ] 0 42950 52850 144.444443 text
grestore
gsave
false true true false 208.000000 [(D1) ] 0 42800 52800 144.444443 text
grestore
42900 52500 43200 52500 10 line
gsave
false false false false 208.000000 [(23) ] 0 42950 52550 144.444443 text
grestore
gsave
false true true false 208.000000 [(D2) ] 0 42800 52500 144.444443 text
grestore
42900 52200 43200 52200 10 line
gsave
false false false false 208.000000 [(25) ] 0 42950 52250 144.444443 text
grestore
gsave
false true true false 208.000000 [(D3) ] 0 42800 52200 144.444443 text
grestore
42900 51900 43200 51900 10 line
gsave
false false false false 208.000000 [(26) ] 0 42950 51950 144.444443 text
grestore
gsave
false true true false 208.000000 [(D4) ] 0 42800 51900 144.444443 text
grestore
42900 51600 43200 51600 10 line
gsave
false false false false 208.000000 [(27) ] 0 42950 51650 144.444443 text
grestore
gsave
false true true false 208.000000 [(D5) ] 0 42800 51600 144.444443 text
grestore
42900 51300 43200 51300 10 line
gsave
false false false false 208.000000 [(28) ] 0 42950 51350 144.444443 text
grestore
gsave
false true true false 208.000000 [(D6) ] 0 42800 51300 144.444443 text
grestore
42900 51000 43200 51000 10 line
gsave
false false false false 208.000000 [(29) ] 0 42950 51050 144.444443 text
grestore
gsave
false true true false 208.000000 [(D7) ] 0 42800 51000 144.444443 text
grestore
42500 53400 42500 53700 10 line
gsave
false false false false 208.000000 [(9) ] 0 42550 53400 144.444443 text
grestore
gsave
true false false true 208.000000 [(NC) ] 0 42500 53350 144.444443 text
grestore
42900 47900 43200 47900 10 line
gsave
false false false false 208.000000 [(6) ] 0 42995 47945 144.444443 text
grestore
gsave
false true false false 208.000000 [(CE2) ] 0 42845 47895 144.444443 text
grestore
grestore
gsave
false false false false 260.000000 [(U2) ] 0 41100 53800 180.555557 text
grestore
gsave
28900 42900 28900 43200 10 line
gsave
false false false false 208.000000 [(8) ] 0 28950 42900 144.444443 text
grestore
gsave
true false false true 208.000000 [(Vcc) ] 0 28900 42850 144.444443 text
grestore
27900 36000 29700 36000 10 line
29700 36000 29700 42900 10 line
29700 42900 27900 42900 10 line
27900 42900 27900 36000 10 line
gsave
false false false false 260.000000 [(AS6C1008) ] 0 27900 42950 180.555557 text
grestore
27900 42600 27600 42600 10 line
gsave
false true false false 208.000000 [(20) ] 0 27850 42650 144.444443 text
grestore
gsave
false false true false 208.000000 [(A0) ] 0 28000 42600 144.444443 text
grestore
27900 42300 27600 42300 10 line
gsave
false true false false 208.000000 [(19) ] 0 27850 42350 144.444443 text
grestore
gsave
false false true false 208.000000 [(A1) ] 0 28000 42300 144.444443 text
grestore
27900 42000 27600 42000 10 line
gsave
false true false false 208.000000 [(18) ] 0 27850 42050 144.444443 text
grestore
gsave
false false true false 208.000000 [(A2) ] 0 28000 42000 144.444443 text
grestore
27900 41700 27600 41700 10 line
gsave
false true false false 208.000000 [(17) ] 0 27850 41750 144.444443 text
grestore
gsave
false false true false 208.000000 [(A3) ] 0 28000 41700 144.444443 text
grestore
27900 41400 27600 41400 10 line
gsave
false true false false 208.000000 [(16) ] 0 27850 41450 144.444443 text
grestore
gsave
false false true false 208.000000 [(A4) ] 0 28000 41400 144.444443 text
grestore
27900 41100 27600 41100 10 line
gsave
false true false false 208.000000 [(15) ] 0 27850 41150 144.444443 text
grestore
gsave
false false true false 208.000000 [(A5) ] 0 28000 41100 144.444443 text
grestore
27900 40800 27600 40800 10 line
gsave
false true false false 208.000000 [(14) ] 0 27850 40850 144.444443 text
grestore
gsave
false false true false 208.000000 [(A6) ] 0 28000 40800 144.444443 text
grestore
27900 40500 27600 40500 10 line
gsave
false true false false 208.000000 [(13) ] 0 27850 40550 144.444443 text
grestore
gsave
false false true false 208.000000 [(A7) ] 0 28000 40500 144.444443 text
grestore
27900 40200 27600 40200 10 line
gsave
false true false false 208.000000 [(3) ] 0 27850 40250 144.444443 text
grestore
gsave
false false true false 208.000000 [(A8) ] 0 28000 40200 144.444443 text
grestore
27900 39900 27600 39900 10 line
gsave
false true false false 208.000000 [(2) ] 0 27850 39950 144.444443 text
grestore
gsave
false false true false 208.000000 [(A9) ] 0 28000 39900 144.444443 text
grestore
27900 39600 27600 39600 10 line
gsave
false true false false 208.000000 [(31) ] 0 27850 39650 144.444443 text
grestore
gsave
false false true false 208.000000 [(A10) ] 0 28000 39600 144.444443 text
grestore
27900 39300 27600 39300 10 line
gsave
false true false false 208.000000 [(1) ] 0 27850 39350 144.444443 text
grestore
gsave
false false true false 208.000000 [(A11) ] 0 28000 39300 144.444443 text
grestore
27900 39000 27600 39000 10 line
gsave
false true false false 208.000000 [(12) ] 0 27850 39050 144.444443 text
grestore
gsave
false false true false 208.000000 [(A12) ] 0 28000 39000 144.444443 text
grestore
27900 38700 27600 38700 10 line
gsave
false true false false 208.000000 [(4) ] 0 27850 38750 144.444443 text
grestore
gsave
false false true false 208.000000 [(A13) ] 0 28000 38700 144.444443 text
grestore
27900 38400 27600 38400 10 line
gsave
false true false false 208.000000 [(11) ] 0 27850 38450 144.444443 text
grestore
gsave
false false true false 208.000000 [(A14) ] 0 28000 38400 144.444443 text
grestore
27900 38100 27600 38100 10 line
gsave
false true false false 208.000000 [(7) ] 0 27850 38150 144.444443 text
grestore
gsave
false false true false 208.000000 [(A15) ] 0 28000 38100 144.444443 text
grestore
27900 37800 27600 37800 10 line
gsave
false true false false 208.000000 [(10) ] 0 27850 37850 144.444443 text
grestore
gsave
false false true false 208.000000 [(A16) ] 0 28000 37800 144.444443 text
grestore
29700 38700 30000 38700 10 line
gsave
false false false false 208.000000 [(24) ] 0 29795 38745 144.444443 text
grestore
gsave
false true false false 208.000000 [(GND) ] 0 29645 38695 144.444443 text
grestore
29700 37100 30000 37100 10 line
gsave
false false false false 208.000000 [(5) ] 0 29795 37145 144.444443 text
grestore
gsave
false true false false 208.000000 [(WE#) ] 0 29645 37095 144.444443 text
grestore
29700 37700 30000 37700 10 line
gsave
false false false false 208.000000 [(30) ] 0 29795 37745 144.444443 text
grestore
gsave
false true false false 208.000000 [(CE#) ] 0 29645 37695 144.444443 text
grestore
29700 38000 30000 38000 10 line
gsave
false false false false 208.000000 [(32) ] 0 29795 38045 144.444443 text
grestore
gsave
false true false false 208.000000 [(OE#) ] 0 29645 37995 144.444443 text
grestore
29700 42600 30000 42600 10 line
gsave
false false false false 208.000000 [(21) ] 0 29750 42650 144.444443 text
grestore
gsave
false true true false 208.000000 [(D0) ] 0 29600 42600 144.444443 text
grestore
29700 42300 30000 42300 10 line
gsave
false false false false 208.000000 [(22) ] 0 29750 42350 144.444443 text
grestore
gsave
false true true false 208.000000 [(D1) ] 0 29600 42300 144.444443 text
grestore
29700 42000 30000 42000 10 line
gsave
false false false false 208.000000 [(23) ] 0 29750 42050 144.444443 text
grestore
gsave
false true true false 208.000000 [(D2) ] 0 29600 42000 144.444443 text
grestore
29700 41700 30000 41700 10 line
gsave
false false false false 208.000000 [(25) ] 0 29750 41750 144.444443 text
grestore
gsave
false true true false 208.000000 [(D3) ] 0 29600 41700 144.444443 text
grestore
29700 41400 30000 41400 10 line
gsave
false false false false 208.000000 [(26) ] 0 29750 41450 144.444443 text
grestore
gsave
false true true false 208.000000 [(D4) ] 0 29600 41400 144.444443 text
grestore
29700 41100 30000 41100 10 line
gsave
false false false false 208.000000 [(27) ] 0 29750 41150 144.444443 text
grestore
gsave
false true true false 208.000000 [(D5) ] 0 29600 41100 144.444443 text
grestore
29700 40800 30000 40800 10 line
gsave
false false false false 208.000000 [(28) ] 0 29750 40850 144.444443 text
grestore
gsave
false true true false 208.000000 [(D6) ] 0 29600 40800 144.444443 text
grestore
29700 40500 30000 40500 10 line
gsave
false false false false 208.000000 [(29) ] 0 29750 40550 144.444443 text
grestore
gsave
false true true false 208.000000 [(D7) ] 0 29600 40500 144.444443 text
grestore
29300 42900 29300 43200 10 line
gsave
false false false false 208.000000 [(9) ] 0 29350 42900 144.444443 text
grestore
gsave
true false false true 208.000000 [(NC) ] 0 29300 42850 144.444443 text
grestore
29700 37400 30000 37400 10 line
gsave
false false false false 208.000000 [(6) ] 0 29795 37445 144.444443 text
grestore
gsave
false true false false 208.000000 [(CE2) ] 0 29645 37395 144.444443 text
grestore
grestore
gsave
false false false false 260.000000 [(U3) ] 0 27900 43300 180.555557 text
grestore
gsave
42100 42900 42100 43200 10 line
gsave
false false false false 208.000000 [(8) ] 0 42150 42900 144.444443 text
grestore
gsave
true false false true 208.000000 [(Vcc) ] 0 42100 42850 144.444443 text
grestore
41100 36000 42900 36000 10 line
42900 36000 42900 42900 10 line
42900 42900 41100 42900 10 line
41100 42900 41100 36000 10 line
gsave
false false false false 260.000000 [(AS6C1008) ] 0 41100 42950 180.555557 text
grestore
41100 42600 40800 42600 10 line
gsave
false true false false 208.000000 [(20) ] 0 41050 42650 144.444443 text
grestore
gsave
false false true false 208.000000 [(A0) ] 0 41200 42600 144.444443 text
grestore
41100 42300 40800 42300 10 line
gsave
false true false false 208.000000 [(19) ] 0 41050 42350 144.444443 text
grestore
gsave
false false true false 208.000000 [(A1) ] 0 41200 42300 144.444443 text
grestore
41100 42000 40800 42000 10 line
gsave
false true false false 208.000000 [(18) ] 0 41050 42050 144.444443 text
grestore
gsave
false false true false 208.000000 [(A2) ] 0 41200 42000 144.444443 text
grestore
41100 41700 40800 41700 10 line
gsave
false true false false 208.000000 [(17) ] 0 41050 41750 144.444443 text
grestore
gsave
false false true false 208.000000 [(A3) ] 0 41200 41700 144.444443 text
grestore
41100 41400 40800 41400 10 line
gsave
false true false false 208.000000 [(16) ] 0 41050 41450 144.444443 text
grestore
gsave
false false true false 208.000000 [(A4) ] 0 41200 41400 144.444443 text
grestore
41100 41100 40800 41100 10 line
gsave
false true false false 208.000000 [(15) ] 0 41050 41150 144.444443 text
grestore
gsave
false false true false 208.000000 [(A5) ] 0 41200 41100 144.444443 text
grestore
41100 40800 40800 40800 10 line
gsave
false true false false 208.000000 [(14) ] 0 41050 40850 144.444443 text
grestore
gsave
false false true false 208.000000 [(A6) ] 0 41200 40800 144.444443 text
grestore
41100 40500 40800 40500 10 line
gsave
false true false false 208.000000 [(13) ] 0 41050 40550 144.444443 text
grestore
gsave
false false true false 208.000000 [(A7) ] 0 41200 40500 144.444443 text
grestore
41100 40200 40800 40200 10 line
gsave
false true false false 208.000000 [(3) ] 0 41050 40250 144.444443 text
grestore
gsave
false false true false 208.000000 [(A8) ] 0 41200 40200 144.444443 text
grestore
41100 39900 40800 39900 10 line
gsave
false true false false 208.000000 [(2) ] 0 41050 39950 144.444443 text
grestore
gsave
false false true false 208.000000 [(A9) ] 0 41200 39900 144.444443 text
grestore
41100 39600 40800 39600 10 line
gsave
false true false false 208.000000 [(31) ] 0 41050 39650 144.444443 text
grestore
gsave
false false true false 208.000000 [(A10) ] 0 41200 39600 144.444443 text
grestore
41100 39300 40800 39300 10 line
gsave
false true false false 208.000000 [(1) ] 0 41050 39350 144.444443 text
grestore
gsave
false false true false 208.000000 [(A11) ] 0 41200 39300 144.444443 text
grestore
41100 39000 40800 39000 10 line
gsave
false true false false 208.000000 [(12) ] 0 41050 39050 144.444443 text
grestore
gsave
false false true false 208.000000 [(A12) ] 0 41200 39000 144.444443 text
grestore
41100 38700 40800 38700 10 line
gsave
false true false false 208.000000 [(4) ] 0 41050 38750 144.444443 text
grestore
gsave
false false true false 208.000000 [(A13) ] 0 41200 38700 144.444443 text
grestore
41100 38400 40800 38400 10 line
gsave
false true false false 208.000000 [(11) ] 0 41050 38450 144.444443 text
grestore
gsave
false false true false 208.000000 [(A14) ] 0 41200 38400 144.444443 text
grestore
41100 38100 40800 38100 10 line
gsave
false true false false 208.000000 [(7) ] 0 41050 38150 144.444443 text
grestore
gsave
false false true false 208.000000 [(A15) ] 0 41200 38100 144.444443 text
grestore
41100 37800 40800 37800 10 line
gsave
false true false false 208.000000 [(10) ] 0 41050 37850 144.444443 text
grestore
gsave
false false true false 208.000000 [(A16) ] 0 41200 37800 144.444443 text
grestore
42900 38700 43200 38700 10 line
gsave
false false false false 208.000000 [(24) ] 0 42995 38745 144.444443 text
grestore
gsave
false true false false 208.000000 [(GND) ] 0 42845 38695 144.444443 text
grestore
42900 37100 43200 37100 10 line
gsave
false false false false 208.000000 [(5) ] 0 42995 37145 144.444443 text
grestore
gsave
false true false false 208.000000 [(WE#) ] 0 42845 37095 144.444443 text
grestore
42900 37700 43200 37700 10 line
gsave
false false false false 208.000000 [(30) ] 0 42995 37745 144.444443 text
grestore
gsave
false true false false 208.000000 [(CE#) ] 0 42845 37695 144.444443 text
grestore
42900 38000 43200 38000 10 line
gsave
false false false false 208.000000 [(32) ] 0 42995 38045 144.444443 text
grestore
gsave
false true false false 208.000000 [(OE#) ] 0 42845 37995 144.444443 text
grestore
42900 42600 43200 42600 10 line
gsave
false false false false 208.000000 [(21) ] 0 42950 42650 144.444443 text
grestore
gsave
false true true false 208.000000 [(D0) ] 0 42800 42600 144.444443 text
grestore
42900 42300 43200 42300 10 line
gsave
false false false false 208.000000 [(22) ] 0 42950 42350 144.444443 text
grestore
gsave
false true true false 208.000000 [(D1) ] 0 42800 42300 144.444443 text
grestore
42900 42000 43200 42000 10 line
gsave
false false false false 208.000000 [(23) ] 0 42950 42050 144.444443 text
grestore
gsave
false true true false 208.000000 [(D2) ] 0 42800 42000 144.444443 text
grestore
42900 41700 43200 41700 10 line
gsave
false false false false 208.000000 [(25) ] 0 42950 41750 144.444443 text
grestore
gsave
false true true false 208.000000 [(D3) ] 0 42800 41700 144.444443 text
grestore
42900 41400 43200 41400 10 line
gsave
false false false false 208.000000 [(26) ] 0 42950 41450 144.444443 text
grestore
gsave
false true true false 208.000000 [(D4) ] 0 42800 41400 144.444443 text
grestore
42900 41100 43200 41100 10 line
gsave
false false false false 208.000000 [(27) ] 0 42950 41150 144.444443 text
grestore
gsave
false true true false 208.000000 [(D5) ] 0 42800 41100 144.444443 text
grestore
42900 40800 43200 40800 10 line
gsave
false false false false 208.000000 [(28) ] 0 42950 40850 144.444443 text
grestore
gsave
false true true false 208.000000 [(D6) ] 0 42800 40800 144.444443 text
grestore
42900 40500 43200 40500 10 line
gsave
false false false false 208.000000 [(29) ] 0 42950 40550 144.444443 text
grestore
gsave
false true true false 208.000000 [(D7) ] 0 42800 40500 144.444443 text
grestore
42500 42900 42500 43200 10 line
gsave
false false false false 208.000000 [(9) ] 0 42550 42900 144.444443 text
grestore
gsave
true false false true 208.000000 [(NC) ] 0 42500 42850 144.444443 text
grestore
42900 37400 43200 37400 10 line
gsave
false false false false 208.000000 [(6) ] 0 42995 37445 144.444443 text
grestore
gsave
false true false false 208.000000 [(CE2) ] 0 42845 37395 144.444443 text
grestore
grestore
gsave
false false false false 260.000000 [(U4) ] 0 41100 43300 180.555557 text
grestore
60 60 45070 50970 fbox
60 60 45070 51570 fbox
60 60 45070 52170 fbox
60 60 45070 52770 fbox
60 60 31870 50970 fbox
60 60 31870 51570 fbox
60 60 31870 52170 fbox
60 60 31870 52770 fbox
60 60 45070 51270 fbox
60 60 45070 51870 fbox
60 60 45070 52470 fbox
60 60 45070 53070 fbox
60 60 31870 51270 fbox
60 60 31870 51870 fbox
60 60 31870 52470 fbox
60 60 31870 53070 fbox
60 60 25070 52770 fbox
60 60 25070 52170 fbox
60 60 25070 50970 fbox
60 60 25070 51570 fbox
60 60 25070 50370 fbox
60 60 25070 49170 fbox
60 60 25070 49770 fbox
60 60 25070 48570 fbox
60 60 25070 53070 fbox
60 60 25070 52470 fbox
60 60 25070 51270 fbox
60 60 25070 51870 fbox
60 60 25070 50670 fbox
60 60 25070 49470 fbox
60 60 25070 50070 fbox
60 60 25070 48870 fbox
60 60 32570 48470 fbox
60 60 25070 48270 fbox
60 60 32570 47570 fbox
newpath
28900 53900
25
0 360 arc
fill
60 60 38270 52770 fbox
60 60 38270 52170 fbox
60 60 38270 50970 fbox
60 60 38270 51570 fbox
60 60 38270 50370 fbox
60 60 38270 49170 fbox
60 60 38270 49770 fbox
60 60 38270 48570 fbox
60 60 38270 53070 fbox
60 60 38270 52470 fbox
60 60 38270 51270 fbox
60 60 38270 51870 fbox
60 60 38270 50670 fbox
60 60 38270 49470 fbox
60 60 38270 50070 fbox
60 60 38270 48870 fbox
60 60 38270 48270 fbox
newpath
42100 53900
25
0 360 arc
fill
newpath
28900 53900
25
0 360 arc
fill
newpath
28900 53900
25
0 360 arc
fill
newpath
42100 53900
25
0 360 arc
fill
newpath
42100 53900
25
0 360 arc
fill
60 60 45770 48470 fbox
60 60 45770 47570 fbox
60 60 45670 40470 fbox
60 60 45670 41070 fbox
60 60 45670 41670 fbox
60 60 45670 42270 fbox
60 60 32470 40470 fbox
60 60 32470 41070 fbox
60 60 32470 41670 fbox
60 60 32470 42270 fbox
60 60 45670 40770 fbox
60 60 45670 41370 fbox
60 60 45670 41970 fbox
60 60 45670 42570 fbox
60 60 32470 40770 fbox
60 60 32470 41370 fbox
60 60 32470 41970 fbox
60 60 32470 42570 fbox
60 60 25070 42270 fbox
60 60 25070 41670 fbox
60 60 25070 40470 fbox
60 60 25070 41070 fbox
60 60 25070 39870 fbox
60 60 25070 38670 fbox
60 60 25070 39270 fbox
60 60 25070 38070 fbox
60 60 25070 42570 fbox
60 60 25070 41970 fbox
60 60 25070 40770 fbox
60 60 25070 41370 fbox
60 60 25070 40170 fbox
60 60 25070 38970 fbox
60 60 25070 39570 fbox
60 60 25070 38370 fbox
60 60 25070 37770 fbox
newpath
28900 43400
25
0 360 arc
fill
60 60 38270 42270 fbox
60 60 38270 41670 fbox
60 60 38270 40470 fbox
60 60 38270 41070 fbox
60 60 38270 39870 fbox
60 60 38270 38670 fbox
60 60 38270 39270 fbox
60 60 38270 38070 fbox
60 60 38270 42570 fbox
60 60 38270 41970 fbox
60 60 38270 40770 fbox
60 60 38270 41370 fbox
60 60 38270 40170 fbox
60 60 38270 38970 fbox
60 60 38270 39570 fbox
60 60 38270 38370 fbox
60 60 38270 37770 fbox
newpath
42100 43400
25
0 360 arc
fill
newpath
28900 43400
25
0 360 arc
fill
newpath
28900 43400
25
0 360 arc
fill
newpath
42100 43400
25
0 360 arc
fill
newpath
42100 43400
25
0 360 arc
fill
60 60 32570 37970 fbox
60 60 32570 37070 fbox
60 60 45770 37970 fbox
60 60 45770 37070 fbox
showpage
%%End
